 Data for JOB [16286,1] offset 0 Total slots allocated 2

 ========================   JOB MAP   ========================

 Data for node: n004	Num slots: 2	Max slots: 0	Num procs: 2
 	Process OMPI jobid: [16286,1] App: 0 Process rank: 0 Bound: socket 0[core 1[hwt 0-1]]:[../BB/../../../../../../../../../../../../../../../../../../../../../../../../../../../../../..][../../../../../../../../../../../../../../../../../../../../../../../../../../../../../../../..]
 	Process OMPI jobid: [16286,1] App: 0 Process rank: 1 Bound: socket 1[core 42[hwt 0-1]]:[../../../../../../../../../../../../../../../../../../../../../../../../../../../../../../../..][../../../../../../../../../../BB/../../../../../../../../../../../../../../../../../../../../..]

 =============================================================
dune-size 1 8.93132e-06 8.92302e-06 
dune-size 2 9.11751e-06 9.10691e-06 
dune-size 4 7.31731e-06 7.31381e-06 
dune-size 8 7.25221e-06 7.25221e-06 
dune-size 16 8.22022e-06 8.21352e-06 
dune-size 32 9.21512e-06 9.20272e-06 
dune-size 64 1.25435e-05 1.25286e-05 
dune-size 128 1.22077e-05 1.2208e-05 
dune-size 256 1.96856e-05 1.96842e-05 
dune-size 512 3.39189e-05 3.39188e-05 
dune-size 1024 0.000111739 0.000111736 
dune-size 2048 0.000205586 0.000205643 
dune-size 4096 0.000384294 0.000384246 
dune-size 8192 0.000703897 0.0007039 
dune-size 16384 0.0009581 0.000958099 
dune-size 32768 0.00168735 0.00168729 
dune-size 65536 0.00339824 0.00339422 
dune-size 131072 0.00662435 0.00662102 
dune-size 262144 0.013066 0.0130645 
dune-size 524288 0.0257946 0.0257793 
dune-size 1048576 0.0512718 0.0512695 
