 Data for JOB [16217,1] offset 0 Total slots allocated 8

 ========================   JOB MAP   ========================

 Data for node: n003	Num slots: 8	Max slots: 0	Num procs: 8
 	Process OMPI jobid: [16217,1] App: 0 Process rank: 0 Bound: socket 1[core 48[hwt 0-1]]:[../../../../../../../../../../../../../../../../../../../../../../../../../../../../../../../..][../../../../../../../../../../../../../../../../BB/../../../../../../../../../../../../../../..]
 	Process OMPI jobid: [16217,1] App: 0 Process rank: 1 Bound: socket 1[core 49[hwt 0-1]]:[../../../../../../../../../../../../../../../../../../../../../../../../../../../../../../../..][../../../../../../../../../../../../../../../../../BB/../../../../../../../../../../../../../..]
 	Process OMPI jobid: [16217,1] App: 0 Process rank: 2 Bound: socket 1[core 50[hwt 0-1]]:[../../../../../../../../../../../../../../../../../../../../../../../../../../../../../../../..][../../../../../../../../../../../../../../../../../../BB/../../../../../../../../../../../../..]
 	Process OMPI jobid: [16217,1] App: 0 Process rank: 3 Bound: socket 1[core 51[hwt 0-1]]:[../../../../../../../../../../../../../../../../../../../../../../../../../../../../../../../..][../../../../../../../../../../../../../../../../../../../BB/../../../../../../../../../../../..]
 	Process OMPI jobid: [16217,1] App: 0 Process rank: 4 Bound: socket 0[core 28[hwt 0-1]]:[../../../../../../../../../../../../../../../../../../../../../../../../../../../../BB/../../..][../../../../../../../../../../../../../../../../../../../../../../../../../../../../../../../..]
 	Process OMPI jobid: [16217,1] App: 0 Process rank: 5 Bound: socket 0[core 29[hwt 0-1]]:[../../../../../../../../../../../../../../../../../../../../../../../../../../../../../BB/../..][../../../../../../../../../../../../../../../../../../../../../../../../../../../../../../../..]
 	Process OMPI jobid: [16217,1] App: 0 Process rank: 6 Bound: socket 0[core 30[hwt 0-1]]:[../../../../../../../../../../../../../../../../../../../../../../../../../../../../../../BB/..][../../../../../../../../../../../../../../../../../../../../../../../../../../../../../../../..]
 	Process OMPI jobid: [16217,1] App: 0 Process rank: 7 Bound: socket 0[core 31[hwt 0-1]]:[../../../../../../../../../../../../../../../../../../../../../../../../../../../../../../../BB][../../../../../../../../../../../../../../../../../../../../../../../../../../../../../../../..]

 =============================================================
1 2 0
1 3 3
1 0 2
2 3 1
2 0 0
2 1 3
3 0 2
3 1 1
3 2 0
5 6 4
5 7 7
5 4 6
6 7 5
6 4 4
6 5 7
7 4 6
7 5 5
7 6 4
Two group cota
0 1 3
0 2 2
0 3 1
4 5 7
4 6 6
4 7 5
dune-size 1 1.19204e-05 1.1971e-05 1.20299e-05 1.19772e-05 1.35069e-05 1.35571e-05 1.3598e-05 1.35592e-05 
dune-size 2 6.58398e-06 6.56888e-06 6.57598e-06 6.57388e-06 6.53878e-06 6.52938e-06 6.53988e-06 6.53468e-06 
dune-size 4 7.00939e-06 6.99309e-06 6.99999e-06 6.98839e-06 6.91219e-06 6.89539e-06 6.90249e-06 6.89839e-06 
dune-size 8 1.1282e-05 1.12674e-05 1.12836e-05 1.12756e-05 9.32678e-06 9.32068e-06 9.32998e-06 9.32128e-06 
dune-size 16 8.63109e-06 8.64409e-06 8.64889e-06 8.63909e-06 8.63299e-06 8.62059e-06 8.62729e-06 8.62659e-06 
dune-size 32 1.10617e-05 1.10439e-05 1.10838e-05 1.10592e-05 1.10145e-05 1.09947e-05 1.10024e-05 1.09949e-05 
dune-size 64 1.71691e-05 1.71375e-05 1.71518e-05 1.71415e-05 1.58646e-05 1.58694e-05 1.58647e-05 1.58793e-05 
dune-size 128 2.48898e-05 2.48991e-05 2.48994e-05 2.49156e-05 2.48757e-05 2.48833e-05 2.4892e-05 2.48999e-05 
dune-size 256 4.33262e-05 4.33315e-05 4.33316e-05 4.33289e-05 4.47023e-05 4.47262e-05 4.47015e-05 4.47584e-05 
dune-size 512 8.15272e-05 8.14341e-05 8.13202e-05 8.13199e-05 8.3614e-05 8.36702e-05 8.36193e-05 8.37334e-05 
dune-size 1024 0.000171944 0.000171941 0.000172275 0.000172146 0.000174171 0.000173944 0.000173948 0.000174341 
dune-size 2048 0.000329869 0.000328967 0.000329444 0.000329018 0.000328386 0.000328817 0.000328386 0.000329166 
dune-size 4096 0.000624941 0.000624013 0.000624734 0.000624011 0.000624162 0.000622707 0.000622704 0.000623491 
dune-size 8192 0.00121661 0.00121562 0.00121497 0.00121497 0.00120436 0.00120271 0.00120262 0.00120597 
dune-size 16384 0.00239604 0.00239614 0.0023982 0.00239613 0.00242406 0.0024205 0.00242054 0.00242399 
dune-size 32768 0.00480683 0.00480662 0.0048103 0.00481676 0.0048964 0.00489626 0.00490285 0.00490078 
dune-size 65536 0.00967391 0.00964622 0.00964772 0.00964437 0.00977531 0.00977557 0.00977595 0.00980071 
dune-size 131072 0.0194366 0.0194363 0.0194331 0.019419 0.0195399 0.0193883 0.0193753 0.0193752 
