 Data for JOB [33050,1] offset 0 Total slots allocated 4

 ========================   JOB MAP   ========================

 Data for node: n004	Num slots: 4	Max slots: 0	Num procs: 4
 	Process OMPI jobid: [33050,1] App: 0 Process rank: 0 Bound: socket 1[core 33[hwt 0-1]]:[../../../../../../../../../../../../../../../../../../../../../../../../../../../../../../../..][../BB/../../../../../../../../../../../../../../../../../../../../../../../../../../../../../..]
 	Process OMPI jobid: [33050,1] App: 0 Process rank: 1 Bound: socket 0[core 11[hwt 0-1]]:[../../../../../../../../../../../BB/../../../../../../../../../../../../../../../../../../../..][../../../../../../../../../../../../../../../../../../../../../../../../../../../../../../../..]
 	Process OMPI jobid: [33050,1] App: 0 Process rank: 2 Bound: socket 1[core 34[hwt 0-1]]:[../../../../../../../../../../../../../../../../../../../../../../../../../../../../../../../..][../../BB/../../../../../../../../../../../../../../../../../../../../../../../../../../../../..]
 	Process OMPI jobid: [33050,1] App: 0 Process rank: 3 Bound: socket 0[core 12[hwt 0-1]]:[../../../../../../../../../../../../BB/../../../../../../../../../../../../../../../../../../..][../../../../../../../../../../../../../../../../../../../../../../../../../../../../../../../..]

 =============================================================
3 2 2
1 0 0
2 3 3
Two group cota
0 1 1
dune-size 1 9.52051e-06 1.01172e-05 7.28371e-06 7.88331e-06 
dune-size 2 8.83761e-06 8.83321e-06 6.8573e-06 6.8579e-06 
dune-size 4 9.13701e-06 9.12451e-06 7.07521e-06 7.06491e-06 
dune-size 8 7.53421e-06 7.53381e-06 7.47381e-06 7.46941e-06 
dune-size 16 8.09571e-06 8.09851e-06 8.08691e-06 8.08691e-06 
dune-size 32 9.38131e-06 9.29871e-06 9.45601e-06 9.37651e-06 
dune-size 64 1.18274e-05 1.18161e-05 1.18604e-05 1.18483e-05 
dune-size 128 1.84277e-05 1.83931e-05 1.21615e-05 1.21568e-05 
dune-size 256 1.9918e-05 1.99136e-05 2.01113e-05 2.00996e-05 
dune-size 512 3.45659e-05 3.45661e-05 3.46479e-05 3.46472e-05 
dune-size 1024 0.00010749 0.00010748 0.000124183 0.000124184 
dune-size 2048 0.000207977 0.00020795 0.000209779 0.000209737 
dune-size 4096 0.00039064 0.000390685 0.000386466 0.000386457 
dune-size 8192 0.000615975 0.000615931 0.000639967 0.00063992 
dune-size 16384 0.00113752 0.00113745 0.00113035 0.00113023 
dune-size 32768 0.00181482 0.0018147 0.00188037 0.00188023 
dune-size 65536 0.00330863 0.00330681 0.00330869 0.00330531 
dune-size 131072 0.00661958 0.00660846 0.00661414 0.00660373 
