[1578557778.586897] [srl-adm2:43043:0]         mxm.c:196  MXM  WARN  The 'ulimit -s' on the system is set to 'unlimited'. This may have negative performance implications. Please set the stack size to the default value (10240) 
[1578557778.586993] [srl-adm2:43041:0]         mxm.c:196  MXM  WARN  The 'ulimit -s' on the system is set to 'unlimited'. This may have negative performance implications. Please set the stack size to the default value (10240) 
[1578557778.587176] [srl-adm2:43050:0]         mxm.c:196  MXM  WARN  The 'ulimit -s' on the system is set to 'unlimited'. This may have negative performance implications. Please set the stack size to the default value (10240) 
[1578557778.588699] [srl-adm2:43039:0]         mxm.c:196  MXM  WARN  The 'ulimit -s' on the system is set to 'unlimited'. This may have negative performance implications. Please set the stack size to the default value (10240) 
[1578557778.588901] [srl-adm2:43037:0]         mxm.c:196  MXM  WARN  The 'ulimit -s' on the system is set to 'unlimited'. This may have negative performance implications. Please set the stack size to the default value (10240) 
[1578557778.589573] [srl-adm2:43049:0]         mxm.c:196  MXM  WARN  The 'ulimit -s' on the system is set to 'unlimited'. This may have negative performance implications. Please set the stack size to the default value (10240) 
[1578557778.589728] [srl-adm2:43051:0]         mxm.c:196  MXM  WARN  The 'ulimit -s' on the system is set to 'unlimited'. This may have negative performance implications. Please set the stack size to the default value (10240) 
[1578557778.590247] [srl-adm2:43038:0]         mxm.c:196  MXM  WARN  The 'ulimit -s' on the system is set to 'unlimited'. This may have negative performance implications. Please set the stack size to the default value (10240) 
[1578557778.590242] [srl-adm2:43040:0]         mxm.c:196  MXM  WARN  The 'ulimit -s' on the system is set to 'unlimited'. This may have negative performance implications. Please set the stack size to the default value (10240) 
[1578557778.590463] [srl-adm2:43048:0]         mxm.c:196  MXM  WARN  The 'ulimit -s' on the system is set to 'unlimited'. This may have negative performance implications. Please set the stack size to the default value (10240) 
[1578557778.590580] [srl-adm2:43046:0]         mxm.c:196  MXM  WARN  The 'ulimit -s' on the system is set to 'unlimited'. This may have negative performance implications. Please set the stack size to the default value (10240) 
[1578557778.590986] [srl-adm2:43036:0]         mxm.c:196  MXM  WARN  The 'ulimit -s' on the system is set to 'unlimited'. This may have negative performance implications. Please set the stack size to the default value (10240) 
[1578557778.590986] [srl-adm2:43042:0]         mxm.c:196  MXM  WARN  The 'ulimit -s' on the system is set to 'unlimited'. This may have negative performance implications. Please set the stack size to the default value (10240) 
[1578557778.591210] [srl-adm2:43045:0]         mxm.c:196  MXM  WARN  The 'ulimit -s' on the system is set to 'unlimited'. This may have negative performance implications. Please set the stack size to the default value (10240) 
[1578557778.591293] [srl-adm2:43047:0]         mxm.c:196  MXM  WARN  The 'ulimit -s' on the system is set to 'unlimited'. This may have negative performance implications. Please set the stack size to the default value (10240) 
[1578557778.591562] [srl-adm2:43044:0]         mxm.c:196  MXM  WARN  The 'ulimit -s' on the system is set to 'unlimited'. This may have negative performance implications. Please set the stack size to the default value (10240) 
0: 4 

Rank 0 ghostCells: 890
Rank 1 ghostCells: 816
Rank 2 ghostCells: 1427
Rank 3 ghostCells: 1587
Rank 4 ghostCells: 745
Rank 5 ghostCells: 1045
Rank 6 ghostCells: 666
Rank 7 ghostCells: 741
Rank 8 ghostCells: 1117
Rank 9 ghostCells: 1379
Rank 10 ghostCells: 1876
Rank 11 ghostCells: 1179
Rank 12 ghostCells: 1767
Rank 13 ghostCells: 2244
Rank 14 ghostCells: 879
Rank 15 ghostCells: 1364

Rank 0 numCells: 3661
Rank 1 numCells: 3818
Rank 2 numCells: 4422
Rank 3 numCells: 4622
Rank 4 numCells: 2946
Rank 5 numCells: 3359
Rank 6 numCells: 3717
Rank 7 numCells: 3219
Rank 8 numCells: 3838
Rank 9 numCells: 4161
Rank 10 numCells: 4817
Rank 11 numCells: 4209
Rank 12 numCells: 4494
Rank 13 numCells: 5297
Rank 14 numCells: 3376
Rank 15 numCells: 4197

Rank 0 interiorCells: 2771
Rank 1 interiorCells: 3002
Rank 2 interiorCells: 2995
Rank 3 interiorCells: 3035
Rank 4 interiorCells: 2201
Rank 5 interiorCells: 2314
Rank 6 interiorCells: 3051
Rank 7 interiorCells: 2478
Rank 8 interiorCells: 2721
Rank 9 interiorCells: 2782
Rank 10 interiorCells: 2941
Rank 11 interiorCells: 3030
Rank 12 interiorCells: 2727
Rank 13 interiorCells: 3053
Rank 14 interiorCells: 2497
Rank 15 interiorCells: 2833

MeasComm+1 16: 7.2389e-05 6.2543e-05 8.7317e-05 9.1664e-05 6.9422e-05 7.0191e-05 4.8368e-05 4.3566e-05 7.5489e-05 9.4672e-05 0.000114618 8.0201e-05 0.000104406 0.000125044 7.9112e-05 8.6129e-05 
MeasComm+1 16: 7.277e-05 6.2904e-05 8.6894e-05 9.1064e-05 6.9596e-05 7.054e-05 4.8437e-05 4.3959e-05 7.5291e-05 9.4538e-05 0.000115186 8.0304e-05 0.000103819 0.00012495 7.8713e-05 8.6431e-05 
MeasComm+1 16: 7.2859e-05 6.2765e-05 8.5478e-05 9.1203e-05 6.9613e-05 7.0569e-05 4.8407e-05 4.3879e-05 7.5015e-05 9.4015e-05 0.000114118 7.9893e-05 0.000103272 0.000124913 7.9578e-05 8.5732e-05 
MeasComm+1 16: 7.2734e-05 6.2834e-05 8.6367e-05 9.1197e-05 6.8971e-05 7.0327e-05 4.8655e-05 4.3935e-05 7.5149e-05 9.3998e-05 0.000114892 8.0011e-05 0.000103571 0.00012468 7.9172e-05 8.5873e-05 
MeasComm+1 16: 7.2575e-05 6.2629e-05 8.6217e-05 9.0547e-05 6.9415e-05 7.0102e-05 4.8689e-05 4.0903e-05 7.5481e-05 9.4373e-05 0.000115046 7.6828e-05 0.000103792 0.000125013 7.9691e-05 8.5826e-05 
MeasComm+1 16: 7.2976e-05 6.2328e-05 8.5318e-05 9.1047e-05 6.9649e-05 7.0148e-05 4.8691e-05 4.3295e-05 7.526e-05 9.4006e-05 0.000114498 7.9571e-05 0.000102706 0.000125043 7.8323e-05 8.594e-05 
MeasComm+1 16: 7.2613e-05 6.1854e-05 8.5671e-05 9.1303e-05 6.9188e-05 7.0652e-05 4.8849e-05 4.272e-05 7.5152e-05 9.3507e-05 0.000114349 7.9451e-05 0.000103523 0.000124846 7.8719e-05 8.5982e-05 
MeasComm+1 16: 7.2391e-05 6.2336e-05 8.6463e-05 9.0744e-05 6.8532e-05 7.0557e-05 4.3006e-05 4.347e-05 7.5182e-05 9.4076e-05 0.000114724 7.9565e-05 0.000103578 0.000124947 7.9221e-05 8.5419e-05 
MeasComm+1 16: 7.2891e-05 6.2005e-05 8.618e-05 9.1085e-05 6.9434e-05 7.0514e-05 4.8523e-05 4.2731e-05 7.4728e-05 9.4236e-05 0.000114623 7.9224e-05 0.000103438 0.000125324 7.9e-05 8.5618e-05 
MeasComm+1 16: 7.2302e-05 6.2908e-05 8.6636e-05 9.1122e-05 6.8036e-05 6.9635e-05 4.8478e-05 4.4099e-05 7.4784e-05 9.4143e-05 0.000115044 7.9917e-05 0.000103684 0.000125067 7.9183e-05 8.5826e-05 

ComTab rank 0: 0 161 339 415 50 24 0 0 3 48 16 0 65 16 0 0 
ComTab rank 1: 145 0 408 359 21 42 0 0 0 0 0 0 0 0 0 0 
ComTab rank 2: 372 441 0 528 101 59 0 0 53 109 36 0 10 41 0 0 
ComTab rank 3: 497 485 500 0 118 120 0 0 0 71 47 0 83 73 41 0 
ComTab rank 4: 43 34 239 70 0 31 11 50 0 39 0 0 19 7 200 135 
ComTab rank 5: 24 78 110 131 53 0 338 257 0 0 0 0 31 24 131 50 
ComTab rank 6: 0 0 0 0 12 255 0 320 0 0 0 0 0 0 78 103 
ComTab rank 7: 0 0 0 0 38 257 407 0 0 0 0 0 0 0 91 0 
ComTab rank 8: 3 0 70 0 0 0 0 0 0 430 487 280 2 28 0 20 
ComTab rank 9: 49 0 91 76 16 0 0 0 423 0 371 59 233 265 41 216 
ComTab rank 10: 15 0 40 43 0 0 0 0 455 379 0 610 97 631 27 187 
ComTab rank 11: 0 0 0 0 0 0 0 0 227 54 565 0 187 379 0 127 
ComTab rank 12: 78 0 10 106 20 35 0 0 2 285 96 172 0 1026 186 250 
ComTab rank 13: 16 0 46 103 6 25 0 0 30 285 690 386 1050 0 87 164 
ComTab rank 14: 0 0 0 16 200 66 78 85 0 38 23 0 145 63 0 418 
ComTab rank 15: 0 0 0 0 180 52 110 0 7 219 205 118 221 149 463 0 

Edge-cut: 16368

Wgt-cut: 7.48492e-09

[1578557784.085592] [srl-adm2:43038:0]          mpool.c:38   UCX  WARN  object 0x5555588f1800 was not returned to mpool ucp_am_bufs
[1578557784.085652] [srl-adm2:43044:0]          mpool.c:38   UCX  WARN  object 0x15554411cde0 was not returned to mpool mm_recv_desc
[1578557784.085768] [srl-adm2:43040:0]          mpool.c:38   UCX  WARN  object 0x55555889ec40 was not returned to mpool ucp_am_bufs
[1578557784.085986] [srl-adm2:43037:0]          mpool.c:38   UCX  WARN  object 0x55555c149180 was not returned to mpool ucp_am_bufs
