 Data for JOB [21612,1] offset 0 Total slots allocated 16

 ========================   JOB MAP   ========================

 Data for node: n004	Num slots: 16	Max slots: 0	Num procs: 16
 	Process OMPI jobid: [21612,1] App: 0 Process rank: 0 Bound: socket 1[core 32[hwt 0-1]]:[../../../../../../../../../../../../../../../../../../../../../../../../../../../../../../../..][BB/../../../../../../../../../../../../../../../../../../../../../../../../../../../../../../..]
 	Process OMPI jobid: [21612,1] App: 0 Process rank: 1 Bound: socket 1[core 33[hwt 0-1]]:[../../../../../../../../../../../../../../../../../../../../../../../../../../../../../../../..][../BB/../../../../../../../../../../../../../../../../../../../../../../../../../../../../../..]
 	Process OMPI jobid: [21612,1] App: 0 Process rank: 2 Bound: socket 1[core 34[hwt 0-1]]:[../../../../../../../../../../../../../../../../../../../../../../../../../../../../../../../..][../../BB/../../../../../../../../../../../../../../../../../../../../../../../../../../../../..]
 	Process OMPI jobid: [21612,1] App: 0 Process rank: 3 Bound: socket 1[core 35[hwt 0-1]]:[../../../../../../../../../../../../../../../../../../../../../../../../../../../../../../../..][../../../BB/../../../../../../../../../../../../../../../../../../../../../../../../../../../..]
 	Process OMPI jobid: [21612,1] App: 0 Process rank: 4 Bound: socket 1[core 40[hwt 0-1]]:[../../../../../../../../../../../../../../../../../../../../../../../../../../../../../../../..][../../../../../../../../BB/../../../../../../../../../../../../../../../../../../../../../../..]
 	Process OMPI jobid: [21612,1] App: 0 Process rank: 5 Bound: socket 1[core 41[hwt 0-1]]:[../../../../../../../../../../../../../../../../../../../../../../../../../../../../../../../..][../../../../../../../../../BB/../../../../../../../../../../../../../../../../../../../../../..]
 	Process OMPI jobid: [21612,1] App: 0 Process rank: 6 Bound: socket 1[core 42[hwt 0-1]]:[../../../../../../../../../../../../../../../../../../../../../../../../../../../../../../../..][../../../../../../../../../../BB/../../../../../../../../../../../../../../../../../../../../..]
 	Process OMPI jobid: [21612,1] App: 0 Process rank: 7 Bound: socket 1[core 43[hwt 0-1]]:[../../../../../../../../../../../../../../../../../../../../../../../../../../../../../../../..][../../../../../../../../../../../BB/../../../../../../../../../../../../../../../../../../../..]
 	Process OMPI jobid: [21612,1] App: 0 Process rank: 8 Bound: socket 1[core 48[hwt 0-1]]:[../../../../../../../../../../../../../../../../../../../../../../../../../../../../../../../..][../../../../../../../../../../../../../../../../BB/../../../../../../../../../../../../../../..]
 	Process OMPI jobid: [21612,1] App: 0 Process rank: 9 Bound: socket 1[core 49[hwt 0-1]]:[../../../../../../../../../../../../../../../../../../../../../../../../../../../../../../../..][../../../../../../../../../../../../../../../../../BB/../../../../../../../../../../../../../..]
 	Process OMPI jobid: [21612,1] App: 0 Process rank: 10 Bound: socket 1[core 50[hwt 0-1]]:[../../../../../../../../../../../../../../../../../../../../../../../../../../../../../../../..][../../../../../../../../../../../../../../../../../../BB/../../../../../../../../../../../../..]
 	Process OMPI jobid: [21612,1] App: 0 Process rank: 11 Bound: socket 1[core 51[hwt 0-1]]:[../../../../../../../../../../../../../../../../../../../../../../../../../../../../../../../..][../../../../../../../../../../../../../../../../../../../BB/../../../../../../../../../../../..]
 	Process OMPI jobid: [21612,1] App: 0 Process rank: 12 Bound: socket 1[core 56[hwt 0-1]]:[../../../../../../../../../../../../../../../../../../../../../../../../../../../../../../../..][../../../../../../../../../../../../../../../../../../../../../../../../BB/../../../../../../..]
 	Process OMPI jobid: [21612,1] App: 0 Process rank: 13 Bound: socket 1[core 57[hwt 0-1]]:[../../../../../../../../../../../../../../../../../../../../../../../../../../../../../../../..][../../../../../../../../../../../../../../../../../../../../../../../../../BB/../../../../../..]
 	Process OMPI jobid: [21612,1] App: 0 Process rank: 14 Bound: socket 1[core 58[hwt 0-1]]:[../../../../../../../../../../../../../../../../../../../../../../../../../../../../../../../..][../../../../../../../../../../../../../../../../../../../../../../../../../../BB/../../../../..]
 	Process OMPI jobid: [21612,1] App: 0 Process rank: 15 Bound: socket 1[core 59[hwt 0-1]]:[../../../../../../../../../../../../../../../../../../../../../../../../../../../../../../../..][../../../../../../../../../../../../../../../../../../../../../../../../../../../BB/../../../..]

 =============================================================
[1579610301.248155] [n004:21882:0]         mxm.c:196  MXM  WARN  The 'ulimit -s' on the system is set to 'unlimited'. This may have negative performance implications. Please set the stack size to the default value (10240) 
[1579610301.248155] [n004:21884:0]         mxm.c:196  MXM  WARN  The 'ulimit -s' on the system is set to 'unlimited'. This may have negative performance implications. Please set the stack size to the default value (10240) 
[1579610301.248155] [n004:21885:0]         mxm.c:196  MXM  WARN  The 'ulimit -s' on the system is set to 'unlimited'. This may have negative performance implications. Please set the stack size to the default value (10240) 
[1579610301.249039] [n004:21890:0]         mxm.c:196  MXM  WARN  The 'ulimit -s' on the system is set to 'unlimited'. This may have negative performance implications. Please set the stack size to the default value (10240) 
[1579610301.249039] [n004:21893:0]         mxm.c:196  MXM  WARN  The 'ulimit -s' on the system is set to 'unlimited'. This may have negative performance implications. Please set the stack size to the default value (10240) 
[1579610301.249550] [n004:21887:0]         mxm.c:196  MXM  WARN  The 'ulimit -s' on the system is set to 'unlimited'. This may have negative performance implications. Please set the stack size to the default value (10240) 
[1579610301.250117] [n004:21895:0]         mxm.c:196  MXM  WARN  The 'ulimit -s' on the system is set to 'unlimited'. This may have negative performance implications. Please set the stack size to the default value (10240) 
[1579610301.250574] [n004:21883:0]         mxm.c:196  MXM  WARN  The 'ulimit -s' on the system is set to 'unlimited'. This may have negative performance implications. Please set the stack size to the default value (10240) 
[1579610301.250559] [n004:21888:0]         mxm.c:196  MXM  WARN  The 'ulimit -s' on the system is set to 'unlimited'. This may have negative performance implications. Please set the stack size to the default value (10240) 
[1579610301.250838] [n004:21886:0]         mxm.c:196  MXM  WARN  The 'ulimit -s' on the system is set to 'unlimited'. This may have negative performance implications. Please set the stack size to the default value (10240) 
[1579610301.250837] [n004:21894:0]         mxm.c:196  MXM  WARN  The 'ulimit -s' on the system is set to 'unlimited'. This may have negative performance implications. Please set the stack size to the default value (10240) 
[1579610301.250836] [n004:21896:0]         mxm.c:196  MXM  WARN  The 'ulimit -s' on the system is set to 'unlimited'. This may have negative performance implications. Please set the stack size to the default value (10240) 
[1579610301.251140] [n004:21891:0]         mxm.c:196  MXM  WARN  The 'ulimit -s' on the system is set to 'unlimited'. This may have negative performance implications. Please set the stack size to the default value (10240) 
[1579610301.251223] [n004:21897:0]         mxm.c:196  MXM  WARN  The 'ulimit -s' on the system is set to 'unlimited'. This may have negative performance implications. Please set the stack size to the default value (10240) 
[1579610301.251916] [n004:21892:0]         mxm.c:196  MXM  WARN  The 'ulimit -s' on the system is set to 'unlimited'. This may have negative performance implications. Please set the stack size to the default value (10240) 
[1579610301.253644] [n004:21889:0]         mxm.c:196  MXM  WARN  The 'ulimit -s' on the system is set to 'unlimited'. This may have negative performance implications. Please set the stack size to the default value (10240) 
0: 1 

Rank 0 ghostCells: 8705
Rank 1 ghostCells: 15689
Rank 2 ghostCells: 4267
Rank 3 ghostCells: 3270
Rank 4 ghostCells: 6318
Rank 5 ghostCells: 4864
Rank 6 ghostCells: 7911
Rank 7 ghostCells: 5910
Rank 8 ghostCells: 4507
Rank 9 ghostCells: 5650
Rank 10 ghostCells: 3890
Rank 11 ghostCells: 5423
Rank 12 ghostCells: 8592
Rank 13 ghostCells: 2361
Rank 14 ghostCells: 6050
Rank 15 ghostCells: 3451

Rank 0 numCells: 32448
Rank 1 numCells: 37781
Rank 2 numCells: 28090
Rank 3 numCells: 18351
Rank 4 numCells: 28566
Rank 5 numCells: 29298
Rank 6 numCells: 32345
Rank 7 numCells: 29925
Rank 8 numCells: 27063
Rank 9 numCells: 29345
Rank 10 numCells: 28324
Rank 11 numCells: 19159
Rank 12 numCells: 31552
Rank 13 numCells: 26213
Rank 14 numCells: 30201
Rank 15 numCells: 23604

Rank 0 interiorCells: 23743
Rank 1 interiorCells: 22092
Rank 2 interiorCells: 23823
Rank 3 interiorCells: 15081
Rank 4 interiorCells: 22248
Rank 5 interiorCells: 24434
Rank 6 interiorCells: 24434
Rank 7 interiorCells: 24015
Rank 8 interiorCells: 22556
Rank 9 interiorCells: 23695
Rank 10 interiorCells: 24434
Rank 11 interiorCells: 13736
Rank 12 interiorCells: 22960
Rank 13 interiorCells: 23852
Rank 14 interiorCells: 24151
Rank 15 interiorCells: 20153

MeasComm+1 16: 0.000674642 0.000890843 0.000514531 0.000478592 0.000621872 0.000560882 0.000691752 0.000541521 0.000367562 0.000487902 0.000475092 0.000483032 0.000799563 0.000460191 0.000602172 0.000493682 
MeasComm+1 16: 0.000669102 0.000892913 0.000511561 0.000478482 0.000592342 0.000544352 0.000687362 0.000538932 0.000366441 0.000489142 0.000473792 0.000480212 0.000751492 0.000459622 0.000635823 0.000493692 
MeasComm+1 16: 0.000660712 0.000891333 0.000505131 0.000477632 0.000595372 0.000543541 0.000751542 0.000538492 0.000365151 0.000487312 0.000474212 0.000483102 0.000785943 0.000458532 0.000631893 0.000493482 
MeasComm+1 16: 0.000657152 0.000890483 0.000506672 0.000476802 0.000579842 0.000557031 0.000681722 0.000536402 0.000365691 0.000492971 0.000473532 0.000479601 0.000758443 0.000460162 0.000598332 0.000488152 
MeasComm+1 16: 0.000667622 0.000891273 0.000508072 0.000480302 0.000589262 0.000541562 0.000690403 0.000484161 0.000366911 0.000488352 0.000472011 0.000467411 0.000797773 0.000459941 0.000637902 0.000442421 
MeasComm+1 16: 0.000592682 0.000890453 0.000508501 0.000477792 0.000593872 0.000544532 0.000736733 0.000540311 0.000364811 0.000491981 0.000469922 0.000480541 0.000773443 0.000460581 0.000564292 0.000490411 
MeasComm+1 16: 0.000641322 0.000890043 0.000498982 0.000476542 0.000591042 0.000536512 0.000603553 0.000533942 0.000365761 0.000489031 0.000473351 0.000481681 0.000633223 0.000460891 0.000585962 0.000489782 
MeasComm+1 16: 0.000656882 0.000892523 0.000501102 0.000477152 0.000595502 0.000546312 0.000748453 0.000539572 0.000366061 0.000489072 0.000474182 0.000484111 0.000780993 0.000459892 0.000633732 0.000493382 
MeasComm+1 16: 0.000655722 0.000893073 0.000511611 0.000478651 0.000614232 0.000569702 0.000691392 0.000538201 0.000366741 0.000488182 0.000472612 0.000482771 0.000757672 0.000460751 0.000636602 0.000493711 
MeasComm+1 16: 0.000667683 0.000891753 0.000506561 0.000479491 0.000588411 0.000541902 0.000691892 0.000539862 0.000365771 0.000493151 0.000473091 0.000479471 0.000779243 0.000458841 0.000625553 0.000493402 

MeasCopy 16: 0.000408412 0.000736213 0.00019999 0.00015342 0.00029627 0.000228281 0.000371011 0.000277311 0.000211361 0.000264961 0.000182421 0.000254371 0.000403101 0.00011066 0.000283851 0.000161851 
MeasCopy 16: 0.000408272 0.000736093 0.000200071 0.00015331 0.000296211 0.000228271 0.000371151 0.000277151 0.00021138 0.000265031 0.000182401 0.000254351 0.000403282 0.000110581 0.000283731 0.000161821 
MeasCopy 16: 0.000408162 0.000736313 0.000200121 0.000153421 0.000296341 0.00022829 0.000371091 0.000277271 0.000211231 0.000265071 0.000182421 0.000254371 0.000403212 0.00011065 0.000283751 0.000161821 
MeasCopy 16: 0.000408262 0.000736183 0.000200011 0.000153441 0.000296251 0.000228251 0.000370941 0.000277251 0.000211371 0.000264921 0.00018242 0.000254391 0.000403201 0.00011067 0.000283681 0.00016176 
MeasCopy 16: 0.000408351 0.000736312 0.0002 0.000153361 0.000296271 0.000228241 0.000370911 0.000277271 0.000211361 0.000264881 0.000182391 0.000254381 0.000403192 0.00011066 0.000283861 0.000161781 
MeasCopy 16: 0.000408261 0.000736413 0.000200101 0.00015333 0.000296221 0.000228241 0.000371102 0.000277151 0.000211361 0.00026508 0.00018241 0.000254251 0.000403142 0.00011068 0.000283691 0.000161871 
MeasCopy 16: 0.000408431 0.000736342 0.0002001 0.000153281 0.000296291 0.000228141 0.000371111 0.000277121 0.000211481 0.000264861 0.000182371 0.000254451 0.000403131 0.0001107 0.000283781 0.000161821 
MeasCopy 16: 0.000408371 0.000736212 0.00020009 0.000153311 0.00029628 0.000228161 0.000371091 0.000277101 0.00021139 0.000265081 0.00018244 0.000254391 0.000403192 0.00011075 0.000283761 0.00016178 
MeasCopy 16: 0.000408232 0.000736163 0.00020006 0.00015339 0.000296171 0.000228231 0.000371141 0.00027723 0.000211381 0.000265011 0.0001824 0.000254161 0.000403231 0.0001107 0.000283821 0.0001618 
MeasCopy 16: 0.000408371 0.000736352 0.000200061 0.00015338 0.000296281 0.000228121 0.000371021 0.000277091 0.00021145 0.000265091 0.000182431 0.000254301 0.000403241 0.00011053 0.000283751 0.00016178 

ComTab rank 0: 0 4790 411 31 832 1455 395 69 0 239 496 343 218 371 1677 308 
ComTab rank 1: 4814 0 599 409 2029 1604 1887 1205 15 211 426 296 4222 51 898 666 
ComTab rank 2: 370 680 0 918 0 0 0 0 25 277 1 271 228 1402 66 522 
ComTab rank 3: 22 401 934 0 102 19 885 270 8 257 8 304 0 36 37 174 
ComTab rank 4: 623 1842 0 66 0 2156 1678 1636 80 263 10 0 688 0 0 108 
ComTab rank 5: 1154 1402 0 20 1804 0 1907 593 62 81 0 0 67 0 0 0 
ComTab rank 6: 410 1841 0 451 2032 2134 0 3274 148 484 0 0 158 0 0 0 
ComTab rank 7: 44 1106 0 228 1694 789 3236 0 0 395 0 0 70 0 93 441 
ComTab rank 8: 0 15 17 7 82 62 168 0 0 1730 1396 515 1228 0 38 0 
ComTab rank 9: 239 200 196 159 262 83 511 407 1704 0 62 667 1696 0 606 89 
ComTab rank 10: 553 448 1 4 10 0 0 0 1334 58 0 1532 1370 0 155 0 
ComTab rank 11: 338 294 291 279 0 0 0 0 496 626 1643 0 1128 0 1531 194 
ComTab rank 12: 162 3724 194 0 465 75 134 64 1190 1633 1282 1039 0 279 873 36 
ComTab rank 13: 351 39 1181 18 0 0 0 0 0 0 0 0 268 0 619 409 
ComTab rank 14: 1279 870 61 15 0 0 0 31 38 607 114 1284 887 631 0 1514 
ComTab rank 15: 145 609 504 176 197 0 0 161 0 123 0 194 34 473 1744 0 

Edge-cut: 71681

Wgt-cut: 1.23248e-08

[1579610349.266224] [n004:21883:0]          mpool.c:38   UCX  WARN  object 0x555556f04140 was not returned to mpool ucp_am_bufs
[1579610349.270182] [n004:21886:0]          mpool.c:38   UCX  WARN  object 0x5555645b9ac0 was not returned to mpool ucp_am_bufs
[1579610349.273161] [n004:21890:0]          mpool.c:38   UCX  WARN  object 0x155544110ae0 was not returned to mpool mm_recv_desc
[1579610349.282733] [n004:21884:0]          mpool.c:38   UCX  WARN  object 0x155544122f60 was not returned to mpool mm_recv_desc
