 Data for JOB [55090,1] offset 0 Total slots allocated 32

 ========================   JOB MAP   ========================

 Data for node: n004	Num slots: 32	Max slots: 0	Num procs: 32
 	Process OMPI jobid: [55090,1] App: 0 Process rank: 0 Bound: socket 0[core 0[hwt 0-1]]:[BB/../../../../../../../../../../../../../../../../../../../../../../../../../../../../../../..][../../../../../../../../../../../../../../../../../../../../../../../../../../../../../../../..]
 	Process OMPI jobid: [55090,1] App: 0 Process rank: 1 Bound: socket 0[core 1[hwt 0-1]]:[../BB/../../../../../../../../../../../../../../../../../../../../../../../../../../../../../..][../../../../../../../../../../../../../../../../../../../../../../../../../../../../../../../..]
 	Process OMPI jobid: [55090,1] App: 0 Process rank: 2 Bound: socket 0[core 2[hwt 0-1]]:[../../BB/../../../../../../../../../../../../../../../../../../../../../../../../../../../../..][../../../../../../../../../../../../../../../../../../../../../../../../../../../../../../../..]
 	Process OMPI jobid: [55090,1] App: 0 Process rank: 3 Bound: socket 0[core 3[hwt 0-1]]:[../../../BB/../../../../../../../../../../../../../../../../../../../../../../../../../../../..][../../../../../../../../../../../../../../../../../../../../../../../../../../../../../../../..]
 	Process OMPI jobid: [55090,1] App: 0 Process rank: 4 Bound: socket 0[core 4[hwt 0-1]]:[../../../../BB/../../../../../../../../../../../../../../../../../../../../../../../../../../..][../../../../../../../../../../../../../../../../../../../../../../../../../../../../../../../..]
 	Process OMPI jobid: [55090,1] App: 0 Process rank: 5 Bound: socket 0[core 5[hwt 0-1]]:[../../../../../BB/../../../../../../../../../../../../../../../../../../../../../../../../../..][../../../../../../../../../../../../../../../../../../../../../../../../../../../../../../../..]
 	Process OMPI jobid: [55090,1] App: 0 Process rank: 6 Bound: socket 0[core 6[hwt 0-1]]:[../../../../../../BB/../../../../../../../../../../../../../../../../../../../../../../../../..][../../../../../../../../../../../../../../../../../../../../../../../../../../../../../../../..]
 	Process OMPI jobid: [55090,1] App: 0 Process rank: 7 Bound: socket 0[core 7[hwt 0-1]]:[../../../../../../../BB/../../../../../../../../../../../../../../../../../../../../../../../..][../../../../../../../../../../../../../../../../../../../../../../../../../../../../../../../..]
 	Process OMPI jobid: [55090,1] App: 0 Process rank: 8 Bound: socket 0[core 8[hwt 0-1]]:[../../../../../../../../BB/../../../../../../../../../../../../../../../../../../../../../../..][../../../../../../../../../../../../../../../../../../../../../../../../../../../../../../../..]
 	Process OMPI jobid: [55090,1] App: 0 Process rank: 9 Bound: socket 0[core 9[hwt 0-1]]:[../../../../../../../../../BB/../../../../../../../../../../../../../../../../../../../../../..][../../../../../../../../../../../../../../../../../../../../../../../../../../../../../../../..]
 	Process OMPI jobid: [55090,1] App: 0 Process rank: 10 Bound: socket 0[core 10[hwt 0-1]]:[../../../../../../../../../../BB/../../../../../../../../../../../../../../../../../../../../..][../../../../../../../../../../../../../../../../../../../../../../../../../../../../../../../..]
 	Process OMPI jobid: [55090,1] App: 0 Process rank: 11 Bound: socket 0[core 11[hwt 0-1]]:[../../../../../../../../../../../BB/../../../../../../../../../../../../../../../../../../../..][../../../../../../../../../../../../../../../../../../../../../../../../../../../../../../../..]
 	Process OMPI jobid: [55090,1] App: 0 Process rank: 12 Bound: socket 0[core 12[hwt 0-1]]:[../../../../../../../../../../../../BB/../../../../../../../../../../../../../../../../../../..][../../../../../../../../../../../../../../../../../../../../../../../../../../../../../../../..]
 	Process OMPI jobid: [55090,1] App: 0 Process rank: 13 Bound: socket 0[core 13[hwt 0-1]]:[../../../../../../../../../../../../../BB/../../../../../../../../../../../../../../../../../..][../../../../../../../../../../../../../../../../../../../../../../../../../../../../../../../..]
 	Process OMPI jobid: [55090,1] App: 0 Process rank: 14 Bound: socket 0[core 14[hwt 0-1]]:[../../../../../../../../../../../../../../BB/../../../../../../../../../../../../../../../../..][../../../../../../../../../../../../../../../../../../../../../../../../../../../../../../../..]
 	Process OMPI jobid: [55090,1] App: 0 Process rank: 15 Bound: socket 0[core 15[hwt 0-1]]:[../../../../../../../../../../../../../../../BB/../../../../../../../../../../../../../../../..][../../../../../../../../../../../../../../../../../../../../../../../../../../../../../../../..]
 	Process OMPI jobid: [55090,1] App: 0 Process rank: 16 Bound: socket 0[core 16[hwt 0-1]]:[../../../../../../../../../../../../../../../../BB/../../../../../../../../../../../../../../..][../../../../../../../../../../../../../../../../../../../../../../../../../../../../../../../..]
 	Process OMPI jobid: [55090,1] App: 0 Process rank: 17 Bound: socket 0[core 17[hwt 0-1]]:[../../../../../../../../../../../../../../../../../BB/../../../../../../../../../../../../../..][../../../../../../../../../../../../../../../../../../../../../../../../../../../../../../../..]
 	Process OMPI jobid: [55090,1] App: 0 Process rank: 18 Bound: socket 0[core 18[hwt 0-1]]:[../../../../../../../../../../../../../../../../../../BB/../../../../../../../../../../../../..][../../../../../../../../../../../../../../../../../../../../../../../../../../../../../../../..]
 	Process OMPI jobid: [55090,1] App: 0 Process rank: 19 Bound: socket 0[core 19[hwt 0-1]]:[../../../../../../../../../../../../../../../../../../../BB/../../../../../../../../../../../..][../../../../../../../../../../../../../../../../../../../../../../../../../../../../../../../..]
 	Process OMPI jobid: [55090,1] App: 0 Process rank: 20 Bound: socket 0[core 20[hwt 0-1]]:[../../../../../../../../../../../../../../../../../../../../BB/../../../../../../../../../../..][../../../../../../../../../../../../../../../../../../../../../../../../../../../../../../../..]
 	Process OMPI jobid: [55090,1] App: 0 Process rank: 21 Bound: socket 0[core 21[hwt 0-1]]:[../../../../../../../../../../../../../../../../../../../../../BB/../../../../../../../../../..][../../../../../../../../../../../../../../../../../../../../../../../../../../../../../../../..]
 	Process OMPI jobid: [55090,1] App: 0 Process rank: 22 Bound: socket 0[core 22[hwt 0-1]]:[../../../../../../../../../../../../../../../../../../../../../../BB/../../../../../../../../..][../../../../../../../../../../../../../../../../../../../../../../../../../../../../../../../..]
 	Process OMPI jobid: [55090,1] App: 0 Process rank: 23 Bound: socket 0[core 23[hwt 0-1]]:[../../../../../../../../../../../../../../../../../../../../../../../BB/../../../../../../../..][../../../../../../../../../../../../../../../../../../../../../../../../../../../../../../../..]
 	Process OMPI jobid: [55090,1] App: 0 Process rank: 24 Bound: socket 0[core 24[hwt 0-1]]:[../../../../../../../../../../../../../../../../../../../../../../../../BB/../../../../../../..][../../../../../../../../../../../../../../../../../../../../../../../../../../../../../../../..]
 	Process OMPI jobid: [55090,1] App: 0 Process rank: 25 Bound: socket 0[core 25[hwt 0-1]]:[../../../../../../../../../../../../../../../../../../../../../../../../../BB/../../../../../..][../../../../../../../../../../../../../../../../../../../../../../../../../../../../../../../..]
 	Process OMPI jobid: [55090,1] App: 0 Process rank: 26 Bound: socket 0[core 26[hwt 0-1]]:[../../../../../../../../../../../../../../../../../../../../../../../../../../BB/../../../../..][../../../../../../../../../../../../../../../../../../../../../../../../../../../../../../../..]
 	Process OMPI jobid: [55090,1] App: 0 Process rank: 27 Bound: socket 0[core 27[hwt 0-1]]:[../../../../../../../../../../../../../../../../../../../../../../../../../../../BB/../../../..][../../../../../../../../../../../../../../../../../../../../../../../../../../../../../../../..]
 	Process OMPI jobid: [55090,1] App: 0 Process rank: 28 Bound: socket 0[core 28[hwt 0-1]]:[../../../../../../../../../../../../../../../../../../../../../../../../../../../../BB/../../..][../../../../../../../../../../../../../../../../../../../../../../../../../../../../../../../..]
 	Process OMPI jobid: [55090,1] App: 0 Process rank: 29 Bound: socket 0[core 29[hwt 0-1]]:[../../../../../../../../../../../../../../../../../../../../../../../../../../../../../BB/../..][../../../../../../../../../../../../../../../../../../../../../../../../../../../../../../../..]
 	Process OMPI jobid: [55090,1] App: 0 Process rank: 30 Bound: socket 0[core 30[hwt 0-1]]:[../../../../../../../../../../../../../../../../../../../../../../../../../../../../../../BB/..][../../../../../../../../../../../../../../../../../../../../../../../../../../../../../../../..]
 	Process OMPI jobid: [55090,1] App: 0 Process rank: 31 Bound: socket 0[core 31[hwt 0-1]]:[../../../../../../../../../../../../../../../../../../../../../../../../../../../../../../../BB][../../../../../../../../../../../../../../../../../../../../../../../../../../../../../../../..]

 =============================================================
[1579602302.323830] [n004:120397:0]         mxm.c:196  MXM  WARN  The 'ulimit -s' on the system is set to 'unlimited'. This may have negative performance implications. Please set the stack size to the default value (10240) 
[1579602302.325935] [n004:120405:0]         mxm.c:196  MXM  WARN  The 'ulimit -s' on the system is set to 'unlimited'. This may have negative performance implications. Please set the stack size to the default value (10240) 
[1579602302.326496] [n004:120412:0]         mxm.c:196  MXM  WARN  The 'ulimit -s' on the system is set to 'unlimited'. This may have negative performance implications. Please set the stack size to the default value (10240) 
[1579602302.326953] [n004:120389:0]         mxm.c:196  MXM  WARN  The 'ulimit -s' on the system is set to 'unlimited'. This may have negative performance implications. Please set the stack size to the default value (10240) 
[1579602302.327397] [n004:120391:0]         mxm.c:196  MXM  WARN  The 'ulimit -s' on the system is set to 'unlimited'. This may have negative performance implications. Please set the stack size to the default value (10240) 
[1579602302.327984] [n004:120406:0]         mxm.c:196  MXM  WARN  The 'ulimit -s' on the system is set to 'unlimited'. This may have negative performance implications. Please set the stack size to the default value (10240) 
[1579602302.328391] [n004:120395:0]         mxm.c:196  MXM  WARN  The 'ulimit -s' on the system is set to 'unlimited'. This may have negative performance implications. Please set the stack size to the default value (10240) 
[1579602302.329021] [n004:120407:0]         mxm.c:196  MXM  WARN  The 'ulimit -s' on the system is set to 'unlimited'. This may have negative performance implications. Please set the stack size to the default value (10240) 
[1579602302.329195] [n004:120399:0]         mxm.c:196  MXM  WARN  The 'ulimit -s' on the system is set to 'unlimited'. This may have negative performance implications. Please set the stack size to the default value (10240) 
[1579602302.329241] [n004:120398:0]         mxm.c:196  MXM  WARN  The 'ulimit -s' on the system is set to 'unlimited'. This may have negative performance implications. Please set the stack size to the default value (10240) 
[1579602302.329595] [n004:120414:0]         mxm.c:196  MXM  WARN  The 'ulimit -s' on the system is set to 'unlimited'. This may have negative performance implications. Please set the stack size to the default value (10240) 
[1579602302.329883] [n004:120417:0]         mxm.c:196  MXM  WARN  The 'ulimit -s' on the system is set to 'unlimited'. This may have negative performance implications. Please set the stack size to the default value (10240) 
[1579602302.329986] [n004:120418:0]         mxm.c:196  MXM  WARN  The 'ulimit -s' on the system is set to 'unlimited'. This may have negative performance implications. Please set the stack size to the default value (10240) 
[1579602302.332926] [n004:120404:0]         mxm.c:196  MXM  WARN  The 'ulimit -s' on the system is set to 'unlimited'. This may have negative performance implications. Please set the stack size to the default value (10240) 
[1579602302.334885] [n004:120400:0]         mxm.c:196  MXM  WARN  The 'ulimit -s' on the system is set to 'unlimited'. This may have negative performance implications. Please set the stack size to the default value (10240) 
[1579602302.334962] [n004:120408:0]         mxm.c:196  MXM  WARN  The 'ulimit -s' on the system is set to 'unlimited'. This may have negative performance implications. Please set the stack size to the default value (10240) 
[1579602302.335014] [n004:120396:0]         mxm.c:196  MXM  WARN  The 'ulimit -s' on the system is set to 'unlimited'. This may have negative performance implications. Please set the stack size to the default value (10240) 
[1579602302.335225] [n004:120394:0]         mxm.c:196  MXM  WARN  The 'ulimit -s' on the system is set to 'unlimited'. This may have negative performance implications. Please set the stack size to the default value (10240) 
[1579602302.335637] [n004:120416:0]         mxm.c:196  MXM  WARN  The 'ulimit -s' on the system is set to 'unlimited'. This may have negative performance implications. Please set the stack size to the default value (10240) 
[1579602302.335852] [n004:120411:0]         mxm.c:196  MXM  WARN  The 'ulimit -s' on the system is set to 'unlimited'. This may have negative performance implications. Please set the stack size to the default value (10240) 
[1579602302.335947] [n004:120402:0]         mxm.c:196  MXM  WARN  The 'ulimit -s' on the system is set to 'unlimited'. This may have negative performance implications. Please set the stack size to the default value (10240) 
[1579602302.335941] [n004:120409:0]         mxm.c:196  MXM  WARN  The 'ulimit -s' on the system is set to 'unlimited'. This may have negative performance implications. Please set the stack size to the default value (10240) 
[1579602302.335973] [n004:120390:0]         mxm.c:196  MXM  WARN  The 'ulimit -s' on the system is set to 'unlimited'. This may have negative performance implications. Please set the stack size to the default value (10240) 
[1579602302.336592] [n004:120410:0]         mxm.c:196  MXM  WARN  The 'ulimit -s' on the system is set to 'unlimited'. This may have negative performance implications. Please set the stack size to the default value (10240) 
[1579602302.337461] [n004:120403:0]         mxm.c:196  MXM  WARN  The 'ulimit -s' on the system is set to 'unlimited'. This may have negative performance implications. Please set the stack size to the default value (10240) 
[1579602302.338066] [n004:120415:0]         mxm.c:196  MXM  WARN  The 'ulimit -s' on the system is set to 'unlimited'. This may have negative performance implications. Please set the stack size to the default value (10240) 
[1579602302.338717] [n004:120388:0]         mxm.c:196  MXM  WARN  The 'ulimit -s' on the system is set to 'unlimited'. This may have negative performance implications. Please set the stack size to the default value (10240) 
[1579602302.338742] [n004:120419:0]         mxm.c:196  MXM  WARN  The 'ulimit -s' on the system is set to 'unlimited'. This may have negative performance implications. Please set the stack size to the default value (10240) 
[1579602302.339247] [n004:120392:0]         mxm.c:196  MXM  WARN  The 'ulimit -s' on the system is set to 'unlimited'. This may have negative performance implications. Please set the stack size to the default value (10240) 
[1579602302.339291] [n004:120393:0]         mxm.c:196  MXM  WARN  The 'ulimit -s' on the system is set to 'unlimited'. This may have negative performance implications. Please set the stack size to the default value (10240) 
[1579602302.340187] [n004:120413:0]         mxm.c:196  MXM  WARN  The 'ulimit -s' on the system is set to 'unlimited'. This may have negative performance implications. Please set the stack size to the default value (10240) 
[1579602302.340258] [n004:120401:0]         mxm.c:196  MXM  WARN  The 'ulimit -s' on the system is set to 'unlimited'. This may have negative performance implications. Please set the stack size to the default value (10240) 
0: 2 

Rank 0 ghostCells: 2757
Rank 1 ghostCells: 2443
Rank 2 ghostCells: 1843
Rank 3 ghostCells: 2833
Rank 4 ghostCells: 2141
Rank 5 ghostCells: 1698
Rank 6 ghostCells: 2734
Rank 7 ghostCells: 3099
Rank 8 ghostCells: 2371
Rank 9 ghostCells: 1810
Rank 10 ghostCells: 2034
Rank 11 ghostCells: 2192
Rank 12 ghostCells: 2278
Rank 13 ghostCells: 2133
Rank 14 ghostCells: 1338
Rank 15 ghostCells: 1751
Rank 16 ghostCells: 1498
Rank 17 ghostCells: 1393
Rank 18 ghostCells: 1285
Rank 19 ghostCells: 620
Rank 20 ghostCells: 2446
Rank 21 ghostCells: 2751
Rank 22 ghostCells: 1163
Rank 23 ghostCells: 2176
Rank 24 ghostCells: 2231
Rank 25 ghostCells: 2479
Rank 26 ghostCells: 2054
Rank 27 ghostCells: 1679
Rank 28 ghostCells: 1099
Rank 29 ghostCells: 946
Rank 30 ghostCells: 399
Rank 31 ghostCells: 1976

Rank 0 numCells: 14399
Rank 1 numCells: 9445
Rank 2 numCells: 10779
Rank 3 numCells: 15009
Rank 4 numCells: 14284
Rank 5 numCells: 9378
Rank 6 numCells: 14951
Rank 7 numCells: 14414
Rank 8 numCells: 14257
Rank 9 numCells: 10970
Rank 10 numCells: 11451
Rank 11 numCells: 14359
Rank 12 numCells: 11254
Rank 13 numCells: 14095
Rank 14 numCells: 10801
Rank 15 numCells: 11154
Rank 16 numCells: 12744
Rank 17 numCells: 13469
Rank 18 numCells: 13377
Rank 19 numCells: 12632
Rank 20 numCells: 14640
Rank 21 numCells: 14916
Rank 22 numCells: 13216
Rank 23 numCells: 14377
Rank 24 numCells: 14290
Rank 25 numCells: 14486
Rank 26 numCells: 14254
Rank 27 numCells: 13683
Rank 28 numCells: 12931
Rank 29 numCells: 12936
Rank 30 numCells: 10569
Rank 31 numCells: 13537

Rank 0 interiorCells: 11642
Rank 1 interiorCells: 7002
Rank 2 interiorCells: 8936
Rank 3 interiorCells: 12176
Rank 4 interiorCells: 12143
Rank 5 interiorCells: 7680
Rank 6 interiorCells: 12217
Rank 7 interiorCells: 11315
Rank 8 interiorCells: 11886
Rank 9 interiorCells: 9160
Rank 10 interiorCells: 9417
Rank 11 interiorCells: 12167
Rank 12 interiorCells: 8976
Rank 13 interiorCells: 11962
Rank 14 interiorCells: 9463
Rank 15 interiorCells: 9403
Rank 16 interiorCells: 11246
Rank 17 interiorCells: 12076
Rank 18 interiorCells: 12092
Rank 19 interiorCells: 12012
Rank 20 interiorCells: 12194
Rank 21 interiorCells: 12165
Rank 22 interiorCells: 12053
Rank 23 interiorCells: 12201
Rank 24 interiorCells: 12059
Rank 25 interiorCells: 12007
Rank 26 interiorCells: 12200
Rank 27 interiorCells: 12004
Rank 28 interiorCells: 11832
Rank 29 interiorCells: 11990
Rank 30 interiorCells: 10170
Rank 31 interiorCells: 11561

MeasComm+1 32: 0.000274761 0.000273401 0.000224901 0.000269281 0.000200301 0.00020936 0.000263711 0.000254571 0.00024952 0.00016736 0.0001532 0.000191061 0.00015032 0.000184981 0.00010352 0.00011885 0.00014994 9.534e-05 8.455e-05 6.607e-05 0.000243681 0.000237411 0.00012262 0.000211041 0.00022335 0.00026387 0.00017498 0.00013092 0.000128171 0.00012553 0.000105271 0.00021619 
MeasComm+1 32: 0.00027215 0.00026362 0.000223801 0.00026567 0.000199411 0.00020528 0.000262921 0.00026298 0.00025017 0.000157021 0.0001597 0.00018128 0.00015023 0.000188721 9.72e-05 0.000119591 0.00014168 9.4661e-05 8.353e-05 6.729e-05 0.00023423 0.00023518 0.00012298 0.00020558 0.0002276 0.000263681 0.00017751 0.000132611 0.00012773 0.00012562 9.487e-05 0.00022092 
MeasComm+1 32: 0.0002719 0.00026669 0.000224511 0.00027137 0.00020533 0.00021626 0.0002526 0.00026311 0.00025062 0.00017167 0.00015664 0.00019286 0.000150151 0.00017619 9.785e-05 0.00011945 0.00014114 9.4521e-05 8.352e-05 6.721e-05 0.000234331 0.00023825 0.000122371 0.000200641 0.000232571 0.00026455 0.000171491 0.00013088 0.00012797 0.00012569 9.1461e-05 0.00021298 
MeasComm+1 32: 0.000254541 0.000268321 0.00020558 0.00026605 0.00019879 0.000214851 0.0002637 0.00024725 0.000247851 0.000158381 0.00015027 0.0001733 0.00014941 0.00016802 9.791e-05 0.0001192 0.00014533 9.445e-05 8.28e-05 6.74e-05 0.00023094 0.000233801 0.00012198 0.00021311 0.00021182 0.00024336 0.00016212 0.00012989 0.00012675 0.00012478 9.561e-05 0.00015702 
MeasComm+1 32: 0.00026689 0.000259481 0.00022536 0.00026627 0.000194141 0.00020059 0.000251211 0.0002593 0.00024474 0.000140341 0.00015856 0.00017217 0.000150071 0.000163621 9.5941e-05 0.000120081 0.000150481 9.522e-05 8.3891e-05 6.7291e-05 0.00023462 0.000238161 0.000122351 0.00020183 0.000226601 0.000261061 0.00018622 0.000129881 0.00012853 0.000126 9.4491e-05 0.000217781 
MeasComm+1 32: 0.00027012 0.000269461 0.00021648 0.00027391 0.000193201 0.00021736 0.000246231 0.000253381 0.000250871 0.00014274 0.00015966 0.00017621 0.00014971 0.00016528 0.00010486 0.00011942 0.000154431 9.446e-05 8.451e-05 6.352e-05 0.000236321 0.000236621 0.00012306 0.00021904 0.000219931 0.000256901 0.00016592 0.00013057 0.00012696 0.000124 0.00010281 0.000212311 
MeasComm+1 32: 0.000269201 0.000270171 0.00021641 0.00025965 0.00020075 0.000211441 0.000250281 0.000260251 0.000249021 0.00014012 0.00014998 0.00017348 0.00015204 0.00016329 9.771e-05 0.000119651 0.00015191 9.4761e-05 8.429e-05 6.379e-05 0.00023071 0.000241701 0.00012255 0.00021569 0.00022987 0.00026 0.00017011 0.00013156 0.000127861 0.00012556 9.472e-05 0.00021144 
MeasComm+1 32: 0.000270071 0.00026175 0.00021312 0.000268811 0.000200131 0.00020162 0.00025273 0.000230071 0.000244161 0.00014176 0.00015619 0.00017418 0.000149641 0.00014431 9.744e-05 0.00012009 0.0001503 9.4611e-05 8.399e-05 6.72e-05 0.0002373 0.00018982 0.00012202 0.00021247 0.000170411 0.000201221 0.00016083 0.00013028 0.000127651 9.445e-05 9.358e-05 0.0002042 
MeasComm+1 32: 0.0002686 0.000271161 0.00021144 0.000265151 0.000206201 0.00020914 0.000258301 0.00025238 0.00025426 0.00014147 0.00016396 0.0001792 0.00015148 0.0001731 9.8681e-05 0.00011971 0.00014302 9.502e-05 8.465e-05 6.386e-05 0.00024289 0.00023726 0.00012284 0.00020837 0.00022367 0.00026097 0.00018762 0.00013021 0.00012713 0.000124441 9.385e-05 0.00022235 
MeasComm+1 32: 0.000259981 0.00025443 0.00021184 0.00026143 0.000202351 0.000214961 0.000258411 0.00025517 0.000250251 0.00014046 0.0001555 0.00017353 0.000150421 0.000167131 9.9361e-05 0.00012039 0.000150781 9.498e-05 8.3601e-05 6.607e-05 0.00023419 0.00024459 0.00012261 0.00021905 0.00023072 0.000261721 0.00016415 0.00013205 0.00012711 0.00012403 9.6811e-05 0.00019529 

MeasCopy 32: 0.00013057 0.0001156 8.717e-05 0.00013396 0.00010158 8.028e-05 0.000129391 0.00014676 0.00011224 8.5591e-05 9.63e-05 0.00010375 0.0001078 0.00010097 6.3301e-05 8.289e-05 7.092e-05 6.588e-05 6.081e-05 2.936e-05 0.00011574 0.0001302 5.5061e-05 0.00010299 0.00010556 0.00011731 9.725e-05 7.948e-05 5.197e-05 4.476e-05 1.889e-05 9.3511e-05 
MeasCopy 32: 0.00013043 0.00011467 8.647e-05 0.00013297 0.00010149 7.969e-05 0.00012837 0.00014559 0.00011129 8.4991e-05 9.538e-05 0.000102921 0.00010693 0.00010021 6.266e-05 8.229e-05 7.04e-05 6.543e-05 6.037e-05 2.913e-05 0.00011492 0.00012929 5.467e-05 0.00010217 0.00010469 0.00011635 9.643e-05 7.894e-05 5.15e-05 4.444e-05 1.868e-05 9.28e-05 
MeasCopy 32: 0.00013043 0.00011556 8.721e-05 0.00013397 0.00010159 8.033e-05 0.00012942 0.000146661 0.0001122 8.567e-05 9.626e-05 0.00010377 0.00010775 0.000100941 6.329e-05 8.288e-05 7.066e-05 6.574e-05 6.056e-05 2.936e-05 0.00011511 0.00012958 5.504e-05 0.00010251 0.00010476 0.00011637 9.648e-05 7.892e-05 5.164e-05 4.455e-05 1.889e-05 9.28e-05 
MeasCopy 32: 0.00012946 0.000114661 8.642e-05 0.000133 0.00010053 7.977e-05 0.000128251 0.00014539 0.00011127 8.495e-05 9.543e-05 0.00010286 0.00010686 0.00010006 6.272e-05 8.219e-05 7.022e-05 6.5371e-05 6.029e-05 2.92e-05 0.000114691 0.000129051 5.46e-05 0.00010201 0.00010462 0.0001163 9.642e-05 7.8821e-05 5.153e-05 4.444e-05 1.873e-05 9.2681e-05 
MeasCopy 32: 0.00012951 0.00011466 8.642e-05 0.000132941 0.00010148 7.977e-05 0.00012829 0.0001454 0.00011131 8.492e-05 9.557e-05 0.00010295 0.00010704 0.00010021 6.282e-05 8.219e-05 7.043e-05 6.554e-05 6.036e-05 2.916e-05 0.00011495 0.00012927 5.471e-05 0.00010225 0.00010558 0.00011736 9.716e-05 7.941e-05 5.198e-05 4.474e-05 1.885e-05 9.348e-05 
MeasCopy 32: 0.000129231 0.00011458 8.656e-05 0.00013294 0.00010069 7.967e-05 0.00012832 0.000145451 0.00011122 8.486e-05 9.546e-05 0.0001029 0.00010693 0.000100091 6.285e-05 8.223e-05 7.027e-05 6.54e-05 6.027e-05 2.912e-05 0.00011485 0.00012916 5.46e-05 0.00010228 0.0001047 0.00011649 9.649e-05 7.872e-05 5.163e-05 4.444e-05 1.883e-05 9.273e-05 
MeasCopy 32: 0.000130521 0.000115651 8.714e-05 0.00013413 0.00010156 8.031e-05 0.00012939 0.00014669 0.00011216 8.567e-05 9.626e-05 0.00010377 0.0001078 0.00010094 6.3331e-05 8.274e-05 7.089e-05 6.595e-05 6.079e-05 2.933e-05 0.00011572 0.00013011 5.499e-05 0.00010295 0.00010555 0.00011734 9.72e-05 7.948e-05 5.199e-05 4.475e-05 1.887e-05 9.3421e-05 
MeasCopy 32: 0.00013051 0.00011475 8.65e-05 0.00013297 0.000101521 7.963e-05 0.000128451 0.00014547 0.00011133 8.498e-05 9.5501e-05 0.00010305 0.000106841 0.00010003 6.288e-05 8.2221e-05 7.039e-05 6.535e-05 6.044e-05 2.911e-05 0.000114771 0.000128981 5.46e-05 0.00010224 0.0001047 0.000116321 9.6561e-05 7.8781e-05 5.156e-05 4.445e-05 1.874e-05 9.281e-05 
MeasCopy 32: 0.00013045 0.00011558 8.722e-05 0.00013412 0.00010151 8.0271e-05 0.00012941 0.000146651 0.00011208 8.567e-05 9.629e-05 0.00010362 0.0001078 0.0001009 6.333e-05 8.287e-05 7.088e-05 6.586e-05 6.075e-05 2.931e-05 0.000115741 0.00013016 5.503e-05 0.00010298 0.00010559 0.00011732 9.721e-05 7.95e-05 5.199e-05 4.474e-05 1.886e-05 9.3521e-05 
MeasCopy 32: 0.00012931 0.00011459 8.648e-05 0.00013274 0.00010065 7.966e-05 0.00012832 0.00014533 0.00011125 8.496e-05 9.539e-05 0.00010281 0.00010696 0.0001001 6.277e-05 8.2221e-05 7.027e-05 6.535e-05 6.025e-05 2.908e-05 0.0001147 0.00012907 5.455e-05 0.00010208 0.00010466 0.00011633 9.6291e-05 7.88e-05 5.1581e-05 4.444e-05 1.869e-05 9.271e-05 

ComTab rank 0: 0 521 381 246 232 641 244 0 440 158 0 208 0 0 0 0 0 0 0 0 0 0 59 0 0 0 0 0 26 39 0 0 
ComTab rank 1: 573 0 328 846 41 283 0 0 33 190 363 178 0 0 0 0 0 0 0 0 0 0 0 0 0 0 0 0 27 32 0 0 
ComTab rank 2: 382 321 0 716 0 0 0 0 0 0 14 448 0 0 0 0 0 0 0 0 109 0 0 0 0 0 0 0 0 31 0 8 
ComTab rank 3: 252 821 674 0 103 122 253 0 0 44 116 0 0 0 0 0 0 0 0 0 515 251 0 0 0 0 0 0 0 23 0 68 
ComTab rank 4: 251 38 0 94 0 638 448 606 0 0 0 0 0 0 0 0 0 0 0 0 0 0 128 0 82 112 0 0 16 0 0 0 
ComTab rank 5: 643 278 0 113 695 0 0 0 44 70 0 0 0 0 0 0 0 0 0 0 0 0 0 0 0 0 0 0 12 0 0 0 
ComTab rank 6: 228 0 0 249 445 0 0 987 0 0 0 0 0 0 0 0 0 0 0 0 172 219 60 62 0 348 0 0 0 32 0 299 
ComTab rank 7: 0 0 0 0 621 0 1253 0 0 0 0 0 0 0 0 0 0 0 0 0 0 0 14 51 486 770 73 14 0 0 0 184 
ComTab rank 8: 437 33 0 0 0 44 0 0 0 689 128 503 150 607 0 0 0 0 0 0 0 0 0 0 0 0 0 0 60 0 0 0 
ComTab rank 9: 161 175 0 40 0 67 0 0 636 0 368 0 425 21 0 137 0 0 0 0 0 0 0 0 0 0 0 0 0 0 0 0 
ComTab rank 10: 0 343 14 116 0 0 0 0 133 367 0 700 107 88 118 358 0 0 0 0 0 0 0 0 0 0 0 0 0 0 0 0 
ComTab rank 11: 205 173 447 0 0 0 0 0 517 0 694 0 0 101 265 0 0 0 0 0 0 0 0 0 0 0 0 0 0 35 0 0 
ComTab rank 12: 0 0 0 0 0 0 0 0 155 438 110 0 0 872 0 830 0 0 0 0 0 0 0 0 0 0 0 0 42 36 0 0 
ComTab rank 13: 0 0 0 0 0 0 0 0 604 21 100 97 849 0 559 132 0 0 0 0 0 0 0 0 0 0 0 0 3 0 0 0 
ComTab rank 14: 0 0 0 0 0 0 0 0 0 0 119 270 0 553 0 453 0 0 0 0 0 0 0 0 0 0 0 0 0 43 0 0 
ComTab rank 15: 0 0 0 0 0 0 0 0 0 134 362 0 807 136 462 0 0 0 0 15 0 0 0 0 0 0 0 0 0 0 0 0 
ComTab rank 16: 0 0 0 0 0 0 0 0 0 0 0 0 0 0 0 0 0 709 0 0 74 466 0 204 0 0 0 0 0 0 38 85 
ComTab rank 17: 0 0 0 0 0 0 0 0 0 0 0 0 0 0 0 0 695 0 672 0 0 0 0 1 0 0 0 0 0 0 17 21 
ComTab rank 18: 0 0 0 0 0 0 0 0 0 0 0 0 0 0 0 0 0 673 0 575 0 0 0 0 0 0 0 0 0 0 46 0 
ComTab rank 19: 0 0 0 0 0 0 0 0 0 0 0 0 0 0 0 14 0 0 559 0 0 0 0 0 0 0 0 0 0 0 49 0 
ComTab rank 20: 0 0 109 521 0 0 55 0 0 0 0 0 0 0 0 0 79 0 0 0 0 1431 0 339 0 0 0 0 0 0 0 98 
ComTab rank 21: 0 0 0 269 0 0 62 0 0 0 0 0 0 0 0 0 467 0 0 0 1477 0 0 540 0 0 0 0 0 0 23 155 
ComTab rank 22: 97 0 0 0 127 0 87 13 0 0 0 0 0 0 0 0 0 0 0 0 0 0 0 143 131 287 230 0 82 76 0 0 
ComTab rank 23: 0 0 0 0 0 0 43 25 0 0 0 0 0 0 0 0 145 1 0 0 353 524 143 0 235 477 316 108 14 0 0 60 
ComTab rank 24: 0 0 0 0 83 0 0 511 0 0 0 0 0 0 0 0 0 0 0 0 0 0 112 106 0 897 640 73 0 0 0 8 
ComTab rank 25: 0 0 0 0 122 0 350 718 0 0 0 0 0 0 0 0 0 0 0 0 0 0 142 230 918 0 28 204 0 0 0 110 
ComTab rank 26: 0 0 0 0 0 0 0 69 0 0 0 0 0 0 0 0 0 0 0 0 0 0 120 171 638 29 0 881 222 0 0 76 
ComTab rank 27: 0 0 0 0 0 0 0 18 0 0 0 0 0 0 0 0 0 0 0 0 0 0 0 127 74 205 889 0 152 0 0 368 
ComTab rank 28: 35 9 0 0 16 24 0 0 61 0 0 0 42 7 0 0 0 0 0 0 0 0 85 14 0 0 222 62 0 500 0 116 
ComTab rank 29: 67 16 28 24 0 0 44 0 0 0 0 56 36 0 66 0 0 0 0 0 0 0 73 0 0 0 0 0 499 0 0 128 
ComTab rank 30: 0 0 0 0 0 0 0 0 0 0 0 0 0 0 0 0 32 38 123 90 0 38 0 0 0 0 0 0 0 0 0 101 
ComTab rank 31: 0 0 8 115 0 0 433 172 0 0 0 0 0 0 0 0 150 23 0 0 133 299 0 128 8 90 79 260 116 130 98 0 

Edge-cut: 43047

Wgt-cut: 1.16067e-07

[1579602388.452011] [n004:120396:0]          mpool.c:38   UCX  WARN  object 0x1555394feee0 was not returned to mpool mm_recv_desc
[1579602388.506653] [n004:120393:0]          mpool.c:38   UCX  WARN  object 0x15554410ea60 was not returned to mpool mm_recv_desc
[1579602388.535365] [n004:120405:0]          mpool.c:38   UCX  WARN  object 0x1555440e80e0 was not returned to mpool mm_recv_desc
[1579602388.550716] [n004:120391:0]          mpool.c:38   UCX  WARN  object 0x55555b60e580 was not returned to mpool ucp_am_bufs
[1579602388.594649] [n004:120389:0]          mpool.c:38   UCX  WARN  object 0x555563fd5480 was not returned to mpool ucp_am_bufs
