 Data for JOB [16757,1] offset 0 Total slots allocated 2

 ========================   JOB MAP   ========================

 Data for node: n004	Num slots: 2	Max slots: 0	Num procs: 2
 	Process OMPI jobid: [16757,1] App: 0 Process rank: 0 Bound: socket 0[core 9[hwt 0-1]]:[../../../../../../../../../BB/../../../../../../../../../../../../../../../../../../../../../..][../../../../../../../../../../../../../../../../../../../../../../../../../../../../../../../..]
 	Process OMPI jobid: [16757,1] App: 0 Process rank: 1 Bound: socket 0[core 2[hwt 0-1]]:[../../BB/../../../../../../../../../../../../../../../../../../../../../../../../../../../../..][../../../../../../../../../../../../../../../../../../../../../../../../../../../../../../../..]

 =============================================================
dune-size 1 7.58751e-06 7.58081e-06 
dune-size 2 7.30151e-06 7.29411e-06 
dune-size 4 8.08111e-06 8.07221e-06 
dune-size 8 7.69061e-06 7.68931e-06 
dune-size 16 6.61801e-06 6.61481e-06 
dune-size 32 7.85271e-06 7.85231e-06 
dune-size 64 1.03986e-05 1.03836e-05 
dune-size 128 1.28639e-05 1.28631e-05 
dune-size 256 1.74335e-05 1.74315e-05 
dune-size 512 3.05616e-05 3.05678e-05 
dune-size 1024 8.65374e-05 8.65421e-05 
dune-size 2048 0.00016333 0.000163298 
dune-size 4096 0.000315698 0.000315696 
dune-size 8192 0.000545123 0.000545086 
dune-size 16384 0.000865993 0.000865977 
dune-size 32768 0.00164782 0.00164781 
dune-size 65536 0.00323975 0.0032398 
dune-size 131072 0.00643967 0.00643754 
dune-size 262144 0.012745 0.0127511 
dune-size 524288 0.0253035 0.0253116 
dune-size 1048576 0.0508115 0.0508477 
