 Data for JOB [44350,1] offset 0 Total slots allocated 8

 ========================   JOB MAP   ========================

 Data for node: srl-mds1	Num slots: 8	Max slots: 0	Num procs: 8
 	Process OMPI jobid: [44350,1] App: 0 Process rank: 0 Bound: socket 0[core 0[hwt 0-1]]:[BB/../../../../../../../../../../../../../../..][../../../../../../../../../../../../../../../..]
 	Process OMPI jobid: [44350,1] App: 0 Process rank: 1 Bound: socket 0[core 1[hwt 0-1]]:[../BB/../../../../../../../../../../../../../..][../../../../../../../../../../../../../../../..]
 	Process OMPI jobid: [44350,1] App: 0 Process rank: 2 Bound: socket 0[core 2[hwt 0-1]]:[../../BB/../../../../../../../../../../../../..][../../../../../../../../../../../../../../../..]
 	Process OMPI jobid: [44350,1] App: 0 Process rank: 3 Bound: socket 0[core 3[hwt 0-1]]:[../../../BB/../../../../../../../../../../../..][../../../../../../../../../../../../../../../..]
 	Process OMPI jobid: [44350,1] App: 0 Process rank: 4 Bound: socket 1[core 16[hwt 0-1]]:[../../../../../../../../../../../../../../../..][BB/../../../../../../../../../../../../../../..]
 	Process OMPI jobid: [44350,1] App: 0 Process rank: 5 Bound: socket 1[core 17[hwt 0-1]]:[../../../../../../../../../../../../../../../..][../BB/../../../../../../../../../../../../../..]
 	Process OMPI jobid: [44350,1] App: 0 Process rank: 6 Bound: socket 1[core 18[hwt 0-1]]:[../../../../../../../../../../../../../../../..][../../BB/../../../../../../../../../../../../..]
 	Process OMPI jobid: [44350,1] App: 0 Process rank: 7 Bound: socket 1[core 19[hwt 0-1]]:[../../../../../../../../../../../../../../../..][../../../BB/../../../../../../../../../../../..]

 =============================================================
[1578657431.915443] [srl-mds1:1564 :0]         mxm.c:196  MXM  WARN  The 'ulimit -s' on the system is set to 'unlimited'. This may have negative performance implications. Please set the stack size to the default value (10240) 
[1578657431.915869] [srl-mds1:1565 :0]         mxm.c:196  MXM  WARN  The 'ulimit -s' on the system is set to 'unlimited'. This may have negative performance implications. Please set the stack size to the default value (10240) 
[1578657431.917127] [srl-mds1:1567 :0]         mxm.c:196  MXM  WARN  The 'ulimit -s' on the system is set to 'unlimited'. This may have negative performance implications. Please set the stack size to the default value (10240) 
[1578657431.917215] [srl-mds1:1560 :0]         mxm.c:196  MXM  WARN  The 'ulimit -s' on the system is set to 'unlimited'. This may have negative performance implications. Please set the stack size to the default value (10240) 
[1578657431.917318] [srl-mds1:1561 :0]         mxm.c:196  MXM  WARN  The 'ulimit -s' on the system is set to 'unlimited'. This may have negative performance implications. Please set the stack size to the default value (10240) 
[1578657431.917303] [srl-mds1:1563 :0]         mxm.c:196  MXM  WARN  The 'ulimit -s' on the system is set to 'unlimited'. This may have negative performance implications. Please set the stack size to the default value (10240) 
[1578657431.917636] [srl-mds1:1562 :0]         mxm.c:196  MXM  WARN  The 'ulimit -s' on the system is set to 'unlimited'. This may have negative performance implications. Please set the stack size to the default value (10240) 
[1578657431.917732] [srl-mds1:1566 :0]         mxm.c:196  MXM  WARN  The 'ulimit -s' on the system is set to 'unlimited'. This may have negative performance implications. Please set the stack size to the default value (10240) 
0: 4 

Rank 0 ghostCells: 1571
Rank 1 ghostCells: 2549
Rank 2 ghostCells: 2716
Rank 3 ghostCells: 1373
Rank 4 ghostCells: 2624
Rank 5 ghostCells: 2259
Rank 6 ghostCells: 632
Rank 7 ghostCells: 924

Rank 0 numCells: 7535
Rank 1 numCells: 8347
Rank 2 numCells: 8822
Rank 3 numCells: 5999
Rank 4 numCells: 8348
Rank 5 numCells: 8358
Rank 6 numCells: 6714
Rank 7 numCells: 4956

Rank 0 interiorCells: 5964
Rank 1 interiorCells: 5798
Rank 2 interiorCells: 6106
Rank 3 interiorCells: 4626
Rank 4 interiorCells: 5724
Rank 5 interiorCells: 6099
Rank 6 interiorCells: 6082
Rank 7 interiorCells: 4032

MeasComm+1 8: 0.000114356 0.00012603 0.000144356 9.7062e-05 0.000137154 0.000110948 8.571e-05 8.6742e-05 
MeasComm+1 8: 0.000115481 0.000124569 0.000143072 9.7832e-05 0.000135529 0.00011019 8.5041e-05 8.6271e-05 
MeasComm+1 8: 0.000115379 0.000124513 0.000142661 9.6182e-05 0.000135279 0.000109965 8.4921e-05 8.6293e-05 
MeasComm+1 8: 0.000116374 0.000124868 0.000143198 0.000100385 0.000136114 0.000110698 8.5332e-05 8.6484e-05 
MeasComm+1 8: 0.000111343 0.000124076 0.000142693 9.7126e-05 0.000135499 0.000110845 8.4596e-05 8.5469e-05 
MeasComm+1 8: 0.000116159 0.000124525 0.000142821 9.6827e-05 0.000135669 0.000110866 8.4949e-05 8.639e-05 
MeasComm+1 8: 0.000116245 0.000124691 0.000142928 9.8521e-05 0.00013578 0.000110817 8.5131e-05 8.6722e-05 
MeasComm+1 8: 0.000116092 0.000125066 0.000143371 9.7154e-05 0.000136092 0.000110891 8.5527e-05 8.6667e-05 
MeasComm+1 8: 0.000116033 0.00012466 0.000142465 9.7767e-05 0.000135877 0.000110481 8.5222e-05 8.6583e-05 
MeasComm+1 8: 0.000115816 0.00012458 0.000142759 9.6982e-05 0.000135557 0.000110607 8.5105e-05 8.6551e-05 

ComTab rank 0: 0 736 648 111 318 37 16 0 
ComTab rank 1: 721 0 986 516 434 482 0 0 
ComTab rank 2: 624 864 0 755 535 417 150 84 
ComTab rank 3: 113 482 813 0 185 2 59 52 
ComTab rank 4: 293 415 613 201 0 1217 104 327 
ComTab rank 5: 44 546 526 2 1157 0 53 341 
ComTab rank 6: 38 0 167 52 176 115 0 161 
ComTab rank 7: 0 0 151 65 284 354 250 0 

Edge-cut: 12373

Wgt-cut: 4.93334e-09

[1578657436.771751] [srl-mds1:1562 :0]          mpool.c:38   UCX  WARN  object 0x1555394fce60 was not returned to mpool mm_recv_desc
[1578657436.777253] [srl-mds1:1564 :0]          mpool.c:38   UCX  WARN  object 0x155544c70f60 was not returned to mpool mm_recv_desc
[1578657436.777655] [srl-mds1:1565 :0]          mpool.c:38   UCX  WARN  object 0x1555394f8d60 was not returned to mpool mm_recv_desc
[1578657436.778754] [srl-mds1:1566 :0]          mpool.c:38   UCX  WARN  object 0x1555394feee0 was not returned to mpool mm_recv_desc
[1578657436.779020] [srl-mds1:1567 :0]          mpool.c:38   UCX  WARN  object 0x1555394fade0 was not returned to mpool mm_recv_desc
[1578657436.779217] [srl-mds1:1563 :0]          mpool.c:38   UCX  WARN  object 0x55555c2dc040 was not returned to mpool ucp_am_bufs
[1578657436.779365] [srl-mds1:1561 :0]          mpool.c:38   UCX  WARN  object 0x55555d8f8d00 was not returned to mpool ucp_am_bufs
