[1578557798.726813] [srl-mds1:29991:0]         mxm.c:196  MXM  WARN  The 'ulimit -s' on the system is set to 'unlimited'. This may have negative performance implications. Please set the stack size to the default value (10240) 
0: 11 

Rank 0 ghostCells: 0

Rank 0 numCells: 44431

Rank 0 interiorCells: 44431

MeasComm+1 1: 7.48e-07 
MeasComm+1 1: 7.46e-07 
MeasComm+1 1: 7.27e-07 
MeasComm+1 1: 7.63e-07 
MeasComm+1 1: 7.29e-07 
MeasComm+1 1: 6.86e-07 
MeasComm+1 1: 7.47e-07 
MeasComm+1 1: 6.72e-07 
MeasComm+1 1: 6.83e-07 
MeasComm+1 1: 7.31e-07 

ComTab rank 0: 0 

Edge-cut: 0

Wgt-cut: 0

