 Data for JOB [8025,1] offset 0 Total slots allocated 4

 ========================   JOB MAP   ========================

 Data for node: n003	Num slots: 4	Max slots: 0	Num procs: 4
 	Process OMPI jobid: [8025,1] App: 0 Process rank: 0 Bound: socket 1[core 57[hwt 0-1]]:[../../../../../../../../../../../../../../../../../../../../../../../../../../../../../../../..][../../../../../../../../../../../../../../../../../../../../../../../../../BB/../../../../../..]
 	Process OMPI jobid: [8025,1] App: 0 Process rank: 1 Bound: socket 0[core 19[hwt 0-1]]:[../../../../../../../../../../../../../../../../../../../BB/../../../../../../../../../../../..][../../../../../../../../../../../../../../../../../../../../../../../../../../../../../../../..]
 	Process OMPI jobid: [8025,1] App: 0 Process rank: 2 Bound: socket 0[core 20[hwt 0-1]]:[../../../../../../../../../../../../../../../../../../../../BB/../../../../../../../../../../..][../../../../../../../../../../../../../../../../../../../../../../../../../../../../../../../..]
 	Process OMPI jobid: [8025,1] App: 0 Process rank: 3 Bound: socket 1[core 58[hwt 0-1]]:[../../../../../../../../../../../../../../../../../../../../../../../../../../../../../../../..][../../../../../../../../../../../../../../../../../../../../../../../../../../BB/../../../../..]

 =============================================================
2 3 3
3 2 2
Two group cota
0 1 1
1 0 0
dune-size 1 5.78559e-06 5.78039e-06 5.45739e-06 5.45449e-06 
dune-size 2 8.00699e-06 8.00969e-06 7.86589e-06 7.85719e-06 
dune-size 4 5.42469e-06 5.42609e-06 5.43249e-06 5.42999e-06 
dune-size 8 5.73249e-06 5.73019e-06 5.66129e-06 5.65999e-06 
dune-size 16 6.09869e-06 6.09389e-06 6.06989e-06 6.06719e-06 
dune-size 32 7.22909e-06 7.34389e-06 8.30259e-06 8.41469e-06 
dune-size 64 8.75648e-06 8.75258e-06 8.67768e-06 8.67758e-06 
dune-size 128 1.2269e-05 1.22677e-05 1.20275e-05 1.20257e-05 
dune-size 256 1.91608e-05 1.91503e-05 1.91451e-05 1.91326e-05 
dune-size 512 3.27899e-05 3.27786e-05 3.2619e-05 3.26171e-05 
dune-size 1024 0.000106133 0.00010613 0.000106184 0.000106179 
dune-size 2048 0.000198568 0.000198537 0.000200197 0.000200188 
dune-size 4096 0.000376728 0.000376712 0.0003747 0.000374649 
dune-size 8192 0.000639454 0.000639433 0.00058882 0.00058884 
dune-size 16384 0.000974314 0.000974267 0.00101202 0.00101204 
dune-size 32768 0.00169224 0.00169221 0.00165924 0.00165924 
dune-size 65536 0.00331325 0.00331017 0.0032971 0.00329634 
dune-size 131072 0.00660906 0.00659903 0.0065834 0.00659712 
