[1578557738.469708] [srl-login1:3005 :0]         mxm.c:196  MXM  WARN  The 'ulimit -s' on the system is set to 'unlimited'. This may have negative performance implications. Please set the stack size to the default value (10240) 
[1578557738.469716] [srl-login1:3006 :0]         mxm.c:196  MXM  WARN  The 'ulimit -s' on the system is set to 'unlimited'. This may have negative performance implications. Please set the stack size to the default value (10240) 
0: 1 

Rank 0 ghostCells: 798
Rank 1 ghostCells: 880

Rank 0 numCells: 25076
Rank 1 numCells: 21033

Rank 0 interiorCells: 24278
Rank 1 interiorCells: 20153

MeasComm+1 2: 4.0193e-05 4.1457e-05 
MeasComm+1 2: 4.012e-05 4.1475e-05 
MeasComm+1 2: 4.0032e-05 4.1356e-05 
MeasComm+1 2: 4.0126e-05 4.0899e-05 
MeasComm+1 2: 3.9906e-05 4.1421e-05 
MeasComm+1 2: 4.0208e-05 4.1457e-05 
MeasComm+1 2: 4.0188e-05 4.141e-05 
MeasComm+1 2: 3.991e-05 4.1392e-05 
MeasComm+1 2: 4.0278e-05 4.1198e-05 
MeasComm+1 2: 4.0117e-05 4.1352e-05 

ComTab rank 0: 0 798 
ComTab rank 1: 880 0 

Edge-cut: 2074

Wgt-cut: 6.65007e-10

[1578557745.417440] [srl-login1:3006 :0]          mpool.c:38   UCX  WARN  object 0x1555393fff60 was not returned to mpool mm_recv_desc
