[1578557747.287574] [srl-login1:3098 :0]         mxm.c:196  MXM  WARN  The 'ulimit -s' on the system is set to 'unlimited'. This may have negative performance implications. Please set the stack size to the default value (10240) 
[1578557747.289038] [srl-login1:3120 :0]         mxm.c:196  MXM  WARN  The 'ulimit -s' on the system is set to 'unlimited'. This may have negative performance implications. Please set the stack size to the default value (10240) 
[1578557747.289149] [srl-login1:3126 :0]         mxm.c:196  MXM  WARN  The 'ulimit -s' on the system is set to 'unlimited'. This may have negative performance implications. Please set the stack size to the default value (10240) 
[1578557747.289735] [srl-login1:3117 :0]         mxm.c:196  MXM  WARN  The 'ulimit -s' on the system is set to 'unlimited'. This may have negative performance implications. Please set the stack size to the default value (10240) 
[1578557747.292813] [srl-login1:3102 :0]         mxm.c:196  MXM  WARN  The 'ulimit -s' on the system is set to 'unlimited'. This may have negative performance implications. Please set the stack size to the default value (10240) 
[1578557747.294676] [srl-login1:3125 :0]         mxm.c:196  MXM  WARN  The 'ulimit -s' on the system is set to 'unlimited'. This may have negative performance implications. Please set the stack size to the default value (10240) 
[1578557747.294994] [srl-login1:3115 :0]         mxm.c:196  MXM  WARN  The 'ulimit -s' on the system is set to 'unlimited'. This may have negative performance implications. Please set the stack size to the default value (10240) 
[1578557747.295103] [srl-login1:3116 :0]         mxm.c:196  MXM  WARN  The 'ulimit -s' on the system is set to 'unlimited'. This may have negative performance implications. Please set the stack size to the default value (10240) 
[1578557747.297243] [srl-login1:3112 :0]         mxm.c:196  MXM  WARN  The 'ulimit -s' on the system is set to 'unlimited'. This may have negative performance implications. Please set the stack size to the default value (10240) 
[1578557747.297521] [srl-login1:3100 :0]         mxm.c:196  MXM  WARN  The 'ulimit -s' on the system is set to 'unlimited'. This may have negative performance implications. Please set the stack size to the default value (10240) 
[1578557747.299912] [srl-login1:3113 :0]         mxm.c:196  MXM  WARN  The 'ulimit -s' on the system is set to 'unlimited'. This may have negative performance implications. Please set the stack size to the default value (10240) 
[1578557747.300610] [srl-login1:3110 :0]         mxm.c:196  MXM  WARN  The 'ulimit -s' on the system is set to 'unlimited'. This may have negative performance implications. Please set the stack size to the default value (10240) 
[1578557747.300709] [srl-login1:3101 :0]         mxm.c:196  MXM  WARN  The 'ulimit -s' on the system is set to 'unlimited'. This may have negative performance implications. Please set the stack size to the default value (10240) 
[1578557747.302042] [srl-login1:3118 :0]         mxm.c:196  MXM  WARN  The 'ulimit -s' on the system is set to 'unlimited'. This may have negative performance implications. Please set the stack size to the default value (10240) 
[1578557747.302348] [srl-login1:3095 :0]         mxm.c:196  MXM  WARN  The 'ulimit -s' on the system is set to 'unlimited'. This may have negative performance implications. Please set the stack size to the default value (10240) 
[1578557747.303173] [srl-login1:3107 :0]         mxm.c:196  MXM  WARN  The 'ulimit -s' on the system is set to 'unlimited'. This may have negative performance implications. Please set the stack size to the default value (10240) 
[1578557747.303512] [srl-login1:3119 :0]         mxm.c:196  MXM  WARN  The 'ulimit -s' on the system is set to 'unlimited'. This may have negative performance implications. Please set the stack size to the default value (10240) 
[1578557747.303650] [srl-login1:3097 :0]         mxm.c:196  MXM  WARN  The 'ulimit -s' on the system is set to 'unlimited'. This may have negative performance implications. Please set the stack size to the default value (10240) 
[1578557747.303904] [srl-login1:3105 :0]         mxm.c:196  MXM  WARN  The 'ulimit -s' on the system is set to 'unlimited'. This may have negative performance implications. Please set the stack size to the default value (10240) 
[1578557747.304364] [srl-login1:3109 :0]         mxm.c:196  MXM  WARN  The 'ulimit -s' on the system is set to 'unlimited'. This may have negative performance implications. Please set the stack size to the default value (10240) 
[1578557747.304483] [srl-login1:3104 :0]         mxm.c:196  MXM  WARN  The 'ulimit -s' on the system is set to 'unlimited'. This may have negative performance implications. Please set the stack size to the default value (10240) 
[1578557747.304633] [srl-login1:3106 :0]         mxm.c:196  MXM  WARN  The 'ulimit -s' on the system is set to 'unlimited'. This may have negative performance implications. Please set the stack size to the default value (10240) 
[1578557747.304813] [srl-login1:3096 :0]         mxm.c:196  MXM  WARN  The 'ulimit -s' on the system is set to 'unlimited'. This may have negative performance implications. Please set the stack size to the default value (10240) 
[1578557747.305852] [srl-login1:3099 :0]         mxm.c:196  MXM  WARN  The 'ulimit -s' on the system is set to 'unlimited'. This may have negative performance implications. Please set the stack size to the default value (10240) 
[1578557747.306038] [srl-login1:3121 :0]         mxm.c:196  MXM  WARN  The 'ulimit -s' on the system is set to 'unlimited'. This may have negative performance implications. Please set the stack size to the default value (10240) 
[1578557747.307208] [srl-login1:3123 :0]         mxm.c:196  MXM  WARN  The 'ulimit -s' on the system is set to 'unlimited'. This may have negative performance implications. Please set the stack size to the default value (10240) 
[1578557747.307323] [srl-login1:3111 :0]         mxm.c:196  MXM  WARN  The 'ulimit -s' on the system is set to 'unlimited'. This may have negative performance implications. Please set the stack size to the default value (10240) 
[1578557747.307315] [srl-login1:3124 :0]         mxm.c:196  MXM  WARN  The 'ulimit -s' on the system is set to 'unlimited'. This may have negative performance implications. Please set the stack size to the default value (10240) 
[1578557747.307426] [srl-login1:3122 :0]         mxm.c:196  MXM  WARN  The 'ulimit -s' on the system is set to 'unlimited'. This may have negative performance implications. Please set the stack size to the default value (10240) 
[1578557747.307530] [srl-login1:3114 :0]         mxm.c:196  MXM  WARN  The 'ulimit -s' on the system is set to 'unlimited'. This may have negative performance implications. Please set the stack size to the default value (10240) 
[1578557747.307555] [srl-login1:3103 :0]         mxm.c:196  MXM  WARN  The 'ulimit -s' on the system is set to 'unlimited'. This may have negative performance implications. Please set the stack size to the default value (10240) 
[1578557747.307628] [srl-login1:3108 :0]         mxm.c:196  MXM  WARN  The 'ulimit -s' on the system is set to 'unlimited'. This may have negative performance implications. Please set the stack size to the default value (10240) 
0: 1 

Rank 0 ghostCells: 606
Rank 1 ghostCells: 622
Rank 2 ghostCells: 412
Rank 3 ghostCells: 776
Rank 4 ghostCells: 489
Rank 5 ghostCells: 493
Rank 6 ghostCells: 553
Rank 7 ghostCells: 763
Rank 8 ghostCells: 920
Rank 9 ghostCells: 851
Rank 10 ghostCells: 1227
Rank 11 ghostCells: 1426
Rank 12 ghostCells: 752
Rank 13 ghostCells: 1013
Rank 14 ghostCells: 612
Rank 15 ghostCells: 222
Rank 16 ghostCells: 915
Rank 17 ghostCells: 1117
Rank 18 ghostCells: 1018
Rank 19 ghostCells: 767
Rank 20 ghostCells: 1105
Rank 21 ghostCells: 1663
Rank 22 ghostCells: 884
Rank 23 ghostCells: 1038
Rank 24 ghostCells: 1223
Rank 25 ghostCells: 1318
Rank 26 ghostCells: 1385
Rank 27 ghostCells: 326
Rank 28 ghostCells: 406
Rank 29 ghostCells: 973
Rank 30 ghostCells: 948
Rank 31 ghostCells: 703

Rank 0 numCells: 2029
Rank 1 numCells: 1277
Rank 2 numCells: 885
Rank 3 numCells: 2303
Rank 4 numCells: 1882
Rank 5 numCells: 1768
Rank 6 numCells: 2042
Rank 7 numCells: 2251
Rank 8 numCells: 2371
Rank 9 numCells: 2339
Rank 10 numCells: 2686
Rank 11 numCells: 2953
Rank 12 numCells: 2185
Rank 13 numCells: 2537
Rank 14 numCells: 2133
Rank 15 numCells: 1355
Rank 16 numCells: 2441
Rank 17 numCells: 2561
Rank 18 numCells: 2543
Rank 19 numCells: 2275
Rank 20 numCells: 2459
Rank 21 numCells: 3109
Rank 22 numCells: 2361
Rank 23 numCells: 2565
Rank 24 numCells: 2687
Rank 25 numCells: 2756
Rank 26 numCells: 2881
Rank 27 numCells: 1436
Rank 28 numCells: 1866
Rank 29 numCells: 2484
Rank 30 numCells: 2318
Rank 31 numCells: 2219

Rank 0 interiorCells: 1423
Rank 1 interiorCells: 655
Rank 2 interiorCells: 473
Rank 3 interiorCells: 1527
Rank 4 interiorCells: 1393
Rank 5 interiorCells: 1275
Rank 6 interiorCells: 1489
Rank 7 interiorCells: 1488
Rank 8 interiorCells: 1451
Rank 9 interiorCells: 1488
Rank 10 interiorCells: 1459
Rank 11 interiorCells: 1527
Rank 12 interiorCells: 1433
Rank 13 interiorCells: 1524
Rank 14 interiorCells: 1521
Rank 15 interiorCells: 1133
Rank 16 interiorCells: 1526
Rank 17 interiorCells: 1444
Rank 18 interiorCells: 1525
Rank 19 interiorCells: 1508
Rank 20 interiorCells: 1354
Rank 21 interiorCells: 1446
Rank 22 interiorCells: 1477
Rank 23 interiorCells: 1527
Rank 24 interiorCells: 1464
Rank 25 interiorCells: 1438
Rank 26 interiorCells: 1496
Rank 27 interiorCells: 1110
Rank 28 interiorCells: 1460
Rank 29 interiorCells: 1511
Rank 30 interiorCells: 1370
Rank 31 interiorCells: 1516

MeasComm+1 32: 7.3632e-05 6.1526e-05 5.4713e-05 7.4783e-05 5.8288e-05 7.0064e-05 5.9437e-05 6.8382e-05 7.9478e-05 8.2411e-05 9.1172e-05 0.000116212 7.2889e-05 0.000100075 7.7488e-05 1.9707e-05 9.8001e-05 9.2119e-05 8.2416e-05 7.6958e-05 8.7461e-05 0.000128156 7.9291e-05 8.1176e-05 0.000105308 0.000121365 0.000111305 6.6617e-05 7.3453e-05 0.000101942 9.671e-05 7.1199e-05 
MeasComm+1 32: 7.3207e-05 6.085e-05 5.4808e-05 7.6596e-05 5.7817e-05 6.8415e-05 5.8791e-05 6.6764e-05 8.0738e-05 8.3132e-05 9.1067e-05 0.000115324 7.1066e-05 0.000101329 7.6566e-05 5.2391e-05 9.6707e-05 9.0805e-05 8.1386e-05 7.4553e-05 8.6181e-05 0.000125594 7.8228e-05 8.136e-05 0.000103729 0.000119467 0.000109995 6.6239e-05 7.2283e-05 9.9889e-05 9.5324e-05 7.5195e-05 
MeasComm+1 32: 7.2992e-05 6.0499e-05 5.4738e-05 7.6681e-05 5.7478e-05 6.8334e-05 5.8773e-05 6.516e-05 8.066e-05 8.3901e-05 9.1335e-05 0.000114662 7.2269e-05 0.000102197 7.6458e-05 5.248e-05 9.6496e-05 9.0176e-05 8.1632e-05 7.495e-05 8.7353e-05 0.00012615 7.7857e-05 8.1796e-05 0.000104569 0.000119377 0.000109575 6.6054e-05 7.2094e-05 0.000100116 9.5518e-05 7.4931e-05 
MeasComm+1 32: 7.2602e-05 5.9569e-05 5.4441e-05 7.6565e-05 5.7665e-05 6.7874e-05 5.7498e-05 6.5154e-05 8.0273e-05 8.1381e-05 9.1698e-05 0.000114689 7.2369e-05 0.000102983 7.6787e-05 5.198e-05 9.6994e-05 9.0462e-05 8.1157e-05 7.4632e-05 8.6883e-05 0.000125793 7.7512e-05 8.0972e-05 0.000104231 0.000118878 0.000109167 6.5983e-05 7.1753e-05 9.8986e-05 9.5124e-05 7.4713e-05 
MeasComm+1 32: 7.2505e-05 6.0427e-05 5.4399e-05 7.6622e-05 5.7278e-05 6.9254e-05 5.838e-05 6.677e-05 8.0222e-05 7.8595e-05 9.1722e-05 0.000114894 7.2128e-05 0.000102491 7.621e-05 5.2483e-05 9.6858e-05 8.9997e-05 8.1172e-05 7.4443e-05 8.4838e-05 0.000125756 7.7788e-05 8.1092e-05 0.000103423 0.000118762 0.000109343 6.5809e-05 7.1914e-05 9.858e-05 9.5125e-05 7.4715e-05 
MeasComm+1 32: 7.2348e-05 6.0234e-05 5.1952e-05 7.6445e-05 5.7465e-05 6.8868e-05 5.4089e-05 6.495e-05 8.0062e-05 8.3633e-05 9.0127e-05 0.000114624 7.2103e-05 9.7212e-05 7.6346e-05 5.1674e-05 9.4468e-05 9.0327e-05 8.0676e-05 7.4608e-05 8.4251e-05 0.000125462 7.669e-05 8.061e-05 0.000100532 0.000118697 0.000109281 6.5806e-05 7.1832e-05 9.9044e-05 9.3405e-05 7.4619e-05 
MeasComm+1 32: 7.2585e-05 6.0374e-05 5.4706e-05 7.6663e-05 5.7575e-05 6.9314e-05 5.8493e-05 6.538e-05 8.0158e-05 8.3766e-05 9.1022e-05 0.000114862 7.221e-05 0.000102369 7.6396e-05 5.215e-05 9.6749e-05 9.044e-05 8.0228e-05 7.4361e-05 8.5977e-05 0.000125259 7.7753e-05 8.1291e-05 0.000103798 0.000118882 0.000109234 6.5893e-05 7.2054e-05 9.8454e-05 9.5031e-05 7.4843e-05 
MeasComm+1 32: 7.2399e-05 5.8978e-05 5.358e-05 7.5196e-05 5.6386e-05 6.8446e-05 5.792e-05 6.56e-05 7.8054e-05 8.2242e-05 8.9757e-05 0.000114704 6.8665e-05 9.7752e-05 7.4267e-05 5.2432e-05 9.8565e-05 8.9157e-05 7.9932e-05 7.3624e-05 8.5544e-05 0.000125791 7.6473e-05 7.9867e-05 0.000103665 0.000118954 0.000109564 6.6e-05 7.1307e-05 9.9063e-05 9.315e-05 7.3088e-05 
MeasComm+1 32: 7.2353e-05 6.0505e-05 5.4676e-05 7.4684e-05 5.7863e-05 6.8518e-05 5.7963e-05 6.6431e-05 7.8294e-05 7.9794e-05 9.0286e-05 0.000115068 6.9562e-05 9.8792e-05 7.5186e-05 5.1155e-05 9.6826e-05 8.8967e-05 7.8778e-05 7.344e-05 8.5502e-05 0.000125709 7.5274e-05 7.9764e-05 0.000102079 0.000118868 0.000109193 6.592e-05 7.141e-05 0.000100253 9.3177e-05 7.3701e-05 
MeasComm+1 32: 7.2897e-05 6.0542e-05 5.4649e-05 7.5873e-05 5.7604e-05 6.8705e-05 5.8966e-05 6.6178e-05 7.8895e-05 8.1367e-05 9.1136e-05 0.000114663 7.0821e-05 0.000100886 7.5227e-05 5.2133e-05 9.5925e-05 9.0457e-05 8.0927e-05 7.3873e-05 8.5814e-05 0.000125834 7.6691e-05 8.0822e-05 0.000103932 0.000119153 0.000109119 6.583e-05 7.1966e-05 9.9517e-05 9.4928e-05 7.3345e-05 

ComTab rank 0: 0 199 70 115 0 68 0 57 0 0 0 22 0 3 3 0 0 0 0 0 0 54 0 0 0 0 76 10 67 0 164 38 
ComTab rank 1: 216 0 31 84 95 5 153 103 0 0 0 0 0 0 0 0 0 0 0 0 0 0 0 0 0 0 0 23 0 33 109 0 
ComTab rank 2: 69 31 0 203 6 53 0 90 0 0 0 0 23 39 0 5 0 0 0 0 0 0 0 0 0 0 0 0 0 0 0 0 
ComTab rank 3: 97 84 178 0 90 48 0 83 2 130 122 23 15 0 32 0 54 0 0 0 0 0 0 0 0 0 0 0 13 0 0 0 
ComTab rank 4: 0 88 11 86 0 70 158 134 0 0 0 0 0 0 0 0 0 0 0 0 0 0 0 0 0 0 0 12 0 24 13 4 
ComTab rank 5: 68 5 53 48 77 0 15 79 1 50 53 22 5 38 68 0 6 0 0 3 0 0 0 0 0 0 0 0 29 0 0 0 
ComTab rank 6: 0 131 0 0 149 15 0 277 0 0 0 0 0 0 0 0 0 0 0 0 0 0 0 0 0 0 0 21 0 49 63 23 
ComTab rank 7: 46 94 90 93 117 75 275 0 0 0 0 0 0 0 0 0 0 0 0 0 0 0 0 0 0 0 0 0 0 105 51 51 
ComTab rank 8: 0 0 0 2 0 1 0 0 0 402 112 262 67 155 199 0 74 5 0 0 0 20 0 0 0 26 0 27 0 0 0 0 
ComTab rank 9: 0 0 0 62 0 28 0 0 406 0 295 269 60 81 53 0 31 0 0 0 0 0 0 0 0 7 0 0 0 0 0 0 
ComTab rank 10: 0 0 0 57 0 34 0 0 133 279 0 399 126 257 274 0 60 0 0 96 0 4 0 0 14 55 0 0 0 0 0 0 
ComTab rank 11: 79 0 0 26 0 33 0 0 268 274 383 0 195 389 141 0 110 70 0 5 0 70 0 0 0 74 30 44 29 16 0 0 
ComTab rank 12: 0 0 25 12 0 12 0 0 67 50 116 189 0 302 52 177 0 0 0 0 0 0 0 0 0 0 0 0 0 0 0 0 
ComTab rank 13: 3 0 19 0 0 15 0 0 141 70 238 415 300 0 54 46 15 46 0 0 0 56 0 0 18 67 6 14 1 5 0 0 
ComTab rank 14: 3 0 0 31 0 74 0 0 182 55 165 137 58 51 0 54 33 0 0 0 0 0 0 0 0 0 2 36 1 12 0 0 
ComTab rank 15: 0 0 5 0 0 0 0 0 0 0 0 0 165 39 57 0 0 0 0 0 0 0 0 0 0 0 0 0 0 0 0 0 
ComTab rank 16: 0 0 0 33 0 4 0 0 78 21 51 113 0 16 33 0 0 120 187 145 0 57 0 0 97 222 94 0 57 37 0 0 
ComTab rank 17: 0 0 0 0 0 0 0 0 5 0 0 68 0 52 0 0 111 0 118 0 34 337 137 76 70 117 432 0 12 71 30 0 
ComTab rank 18: 0 0 0 0 0 0 0 0 0 0 0 0 0 0 0 0 189 111 0 260 207 141 96 93 29 179 3 0 6 19 13 0 
ComTab rank 19: 0 0 0 0 0 3 0 0 0 0 110 5 0 0 0 0 143 0 242 0 86 76 86 17 197 73 4 0 14 0 0 0 
ComTab rank 20: 0 0 0 0 0 0 0 0 0 0 0 0 0 0 0 0 0 33 199 81 0 103 169 244 322 135 20 12 0 82 118 46 
ComTab rank 21: 54 0 0 0 0 0 0 0 19 0 4 85 0 60 0 0 59 331 146 69 98 0 173 160 221 508 256 0 16 162 154 27 
ComTab rank 22: 0 0 0 0 0 0 0 0 0 0 0 0 0 0 0 0 0 129 102 91 151 166 0 415 60 70 143 2 5 16 59 12 
ComTab rank 23: 0 0 0 0 0 0 0 0 0 0 0 0 0 0 0 0 0 76 81 17 242 175 428 0 222 130 116 7 1 68 4 0 
ComTab rank 24: 0 0 0 0 0 0 0 0 0 0 13 0 0 18 0 0 84 70 25 195 290 201 54 212 0 215 326 0 0 58 0 15 
ComTab rank 25: 0 0 0 0 0 0 0 0 23 7 48 73 0 61 0 0 223 107 166 71 110 433 53 116 220 0 317 0 12 103 39 32 
ComTab rank 26: 77 0 0 0 0 0 0 0 0 0 0 20 0 6 2 0 69 414 3 4 20 244 143 101 359 331 0 8 57 66 44 200 
ComTab rank 27: 10 37 0 0 12 0 30 0 27 0 0 30 0 14 64 0 0 0 0 0 3 0 2 7 0 0 10 0 89 58 71 17 
ComTab rank 28: 67 0 0 12 0 28 0 0 0 0 0 22 0 1 1 0 47 9 6 20 0 16 6 1 0 3 66 89 0 97 10 5 
ComTab rank 29: 0 52 0 0 21 0 53 102 0 0 0 10 0 5 11 0 65 67 21 0 85 165 15 70 57 109 97 57 86 0 90 199 
ComTab rank 30: 184 101 0 0 9 0 67 49 0 0 0 0 0 0 0 0 0 32 6 0 118 137 42 4 0 39 55 36 13 98 0 341 
ComTab rank 31: 49 0 0 0 3 0 23 55 0 0 0 0 0 0 0 0 0 0 0 0 46 28 12 0 15 31 180 12 6 184 326 0 

Edge-cut: 21541

Wgt-cut: 1.28504e-08

[1578557754.863281] [srl-login1:3111 :0]          mpool.c:38   UCX  WARN  object 0x1555393c0fe0 was not returned to mpool mm_recv_desc
[1578557754.863923] [srl-login1:3096 :0]          mpool.c:38   UCX  WARN  object 0x155544112b60 was not returned to mpool mm_recv_desc
[1578557754.864392] [srl-login1:3100 :0]          mpool.c:38   UCX  WARN  object 0x1555393eba60 was not returned to mpool mm_recv_desc
[1578557754.864509] [srl-login1:3097 :0]          mpool.c:38   UCX  WARN  object 0x15554411ad60 was not returned to mpool mm_recv_desc
[1578557754.864490] [srl-login1:3103 :0]          mpool.c:38   UCX  WARN  object 0x1555393f1be0 was not returned to mpool mm_recv_desc
