 Data for JOB [29350,1] offset 0 Total slots allocated 8

 ========================   JOB MAP   ========================

 Data for node: n004	Num slots: 8	Max slots: 0	Num procs: 8
 	Process OMPI jobid: [29350,1] App: 0 Process rank: 0 Bound: socket 1[core 40[hwt 0-1]]:[../../../../../../../../../../../../../../../../../../../../../../../../../../../../../../../..][../../../../../../../../BB/../../../../../../../../../../../../../../../../../../../../../../..]
 	Process OMPI jobid: [29350,1] App: 0 Process rank: 1 Bound: socket 1[core 41[hwt 0-1]]:[../../../../../../../../../../../../../../../../../../../../../../../../../../../../../../../..][../../../../../../../../../BB/../../../../../../../../../../../../../../../../../../../../../..]
 	Process OMPI jobid: [29350,1] App: 0 Process rank: 2 Bound: socket 1[core 42[hwt 0-1]]:[../../../../../../../../../../../../../../../../../../../../../../../../../../../../../../../..][../../../../../../../../../../BB/../../../../../../../../../../../../../../../../../../../../..]
 	Process OMPI jobid: [29350,1] App: 0 Process rank: 3 Bound: socket 1[core 43[hwt 0-1]]:[../../../../../../../../../../../../../../../../../../../../../../../../../../../../../../../..][../../../../../../../../../../../BB/../../../../../../../../../../../../../../../../../../../..]
 	Process OMPI jobid: [29350,1] App: 0 Process rank: 4 Bound: socket 1[core 44[hwt 0-1]]:[../../../../../../../../../../../../../../../../../../../../../../../../../../../../../../../..][../../../../../../../../../../../../BB/../../../../../../../../../../../../../../../../../../..]
 	Process OMPI jobid: [29350,1] App: 0 Process rank: 5 Bound: socket 1[core 44[hwt 0-1]]:[../../../../../../../../../../../../../../../../../../../../../../../../../../../../../../../..][../../../../../../../../../../../../BB/../../../../../../../../../../../../../../../../../../..]
 	Process OMPI jobid: [29350,1] App: 0 Process rank: 6 Bound: socket 1[core 46[hwt 0-1]]:[../../../../../../../../../../../../../../../../../../../../../../../../../../../../../../../..][../../../../../../../../../../../../../../BB/../../../../../../../../../../../../../../../../..]
 	Process OMPI jobid: [29350,1] App: 0 Process rank: 7 Bound: socket 1[core 47[hwt 0-1]]:[../../../../../../../../../../../../../../../../../../../../../../../../../../../../../../../..][../../../../../../../../../../../../../../../BB/../../../../../../../../../../../../../../../..]

 =============================================================
[1579613328.872472] [n004:29627:0]         mxm.c:196  MXM  WARN  The 'ulimit -s' on the system is set to 'unlimited'. This may have negative performance implications. Please set the stack size to the default value (10240) 
[1579613328.873617] [n004:29626:0]         mxm.c:196  MXM  WARN  The 'ulimit -s' on the system is set to 'unlimited'. This may have negative performance implications. Please set the stack size to the default value (10240) 
[1579613328.873808] [n004:29621:0]         mxm.c:196  MXM  WARN  The 'ulimit -s' on the system is set to 'unlimited'. This may have negative performance implications. Please set the stack size to the default value (10240) 
[1579613328.873808] [n004:29622:0]         mxm.c:196  MXM  WARN  The 'ulimit -s' on the system is set to 'unlimited'. This may have negative performance implications. Please set the stack size to the default value (10240) 
[1579613328.873854] [n004:29619:0]         mxm.c:196  MXM  WARN  The 'ulimit -s' on the system is set to 'unlimited'. This may have negative performance implications. Please set the stack size to the default value (10240) 
[1579613328.874086] [n004:29623:0]         mxm.c:196  MXM  WARN  The 'ulimit -s' on the system is set to 'unlimited'. This may have negative performance implications. Please set the stack size to the default value (10240) 
[1579613328.878599] [n004:29625:0]         mxm.c:196  MXM  WARN  The 'ulimit -s' on the system is set to 'unlimited'. This may have negative performance implications. Please set the stack size to the default value (10240) 
[1579613328.878649] [n004:29624:0]         mxm.c:196  MXM  WARN  The 'ulimit -s' on the system is set to 'unlimited'. This may have negative performance implications. Please set the stack size to the default value (10240) 
0: 2 

Rank 0 ghostCells: 2404
Rank 1 ghostCells: 3655
Rank 2 ghostCells: 4080
Rank 3 ghostCells: 2157
Rank 4 ghostCells: 3250
Rank 5 ghostCells: 1604
Rank 6 ghostCells: 978
Rank 7 ghostCells: 3099

Rank 0 numCells: 50044
Rank 1 numCells: 43417
Rank 2 numCells: 49199
Rank 3 numCells: 47998
Rank 4 numCells: 51598
Rank 5 numCells: 37602
Rank 6 numCells: 49846
Rank 7 numCells: 46930

Rank 0 interiorCells: 47640
Rank 1 interiorCells: 39762
Rank 2 interiorCells: 45119
Rank 3 interiorCells: 45841
Rank 4 interiorCells: 48348
Rank 5 interiorCells: 35998
Rank 6 interiorCells: 48868
Rank 7 interiorCells: 43831

MeasComm+1 8: 0.00021018 0.000261021 0.000253521 0.000153641 0.000333901 0.000173741 0.00014282 0.000217961 
MeasComm+1 8: 0.000210521 0.00025123 0.000249941 0.00014458 0.000332801 0.0001755 0.000142291 0.000218551 
MeasComm+1 8: 0.000210531 0.00028032 0.000251741 0.00015783 0.000331741 0.00017405 0.00014174 0.00021783 
MeasComm+1 8: 0.000209251 0.000299111 0.000250541 0.00020134 0.000331211 0.000256901 0.0001176 0.00021914 
MeasComm+1 8: 0.000208761 0.00024596 0.0002523 0.00014114 0.000331161 0.00017203 0.00014174 0.00021809 
MeasComm+1 8: 0.00021096 0.000280481 0.000251901 0.00016288 0.000331441 0.00017107 0.0001402 0.000218191 
MeasComm+1 8: 0.00021172 0.00025412 0.000251281 0.0001492 0.000328791 0.00017588 0.000139191 0.00021761 
MeasComm+1 8: 0.00020831 0.00029519 0.00024998 0.00020299 0.000331731 0.00025679 0.00014044 0.000217991 
MeasComm+1 8: 0.00020932 0.00027288 0.00025004 0.00015708 0.000325941 0.00017271 9.573e-05 0.000217041 
MeasComm+1 8: 0.00020763 0.00029856 0.000251651 0.000200891 0.000332421 0.0002561 0.000140221 0.00021869 

MeasCopy 8: 0.0001127 0.000171461 0.000191371 0.000101111 0.00021368 0.0001093 4.588e-05 0.000145311 
MeasCopy 8: 0.000112711 0.0001714 0.000191311 0.000101151 0.000213661 0.00011001 4.585e-05 0.00014547 
MeasCopy 8: 0.0001127 0.0001714 0.000191281 0.00010116 0.00020669 0.00011017 4.583e-05 0.000145451 
MeasCopy 8: 0.00011266 0.00017135 0.00019139 0.000101071 0.00021332 0.00010944 4.586e-05 0.00014531 
MeasCopy 8: 0.00011273 0.00017139 0.00019137 0.00010113 0.00021376 0.000106881 4.582e-05 0.00014553 
MeasCopy 8: 0.00011274 0.000171441 0.00019135 0.00010118 0.00021343 0.00010979 4.586e-05 0.00014556 
MeasCopy 8: 0.000112731 0.00017134 0.00019132 0.000101101 0.000208441 0.00010977 4.583e-05 0.00014544 
MeasCopy 8: 0.00011273 0.00017138 0.0001913 0.00010111 0.00021356 0.00010994 4.585e-05 0.000145391 
MeasCopy 8: 0.000112781 0.00017147 0.00019128 0.00010114 0.000213751 0.000109941 4.586e-05 0.00014541 
MeasCopy 8: 0.00011269 0.000171431 0.00019131 0.000101061 0.00021346 0.00010983 4.584e-05 0.000145441 

ComTab rank 0: 0 931 621 0 63 0 597 285 
ComTab rank 1: 1012 0 1296 0 1053 0 0 374 
ComTab rank 2: 620 1282 0 2144 0 0 0 113 
ComTab rank 3: 0 0 2101 0 0 0 0 62 
ComTab rank 4: 306 1053 0 0 0 1346 0 612 
ComTab rank 5: 0 0 0 0 1429 0 15 185 
ComTab rank 6: 664 0 0 0 0 14 0 309 
ComTab rank 7: 521 537 123 65 1058 381 579 0 

Edge-cut: 16574

Wgt-cut: 3.34852e-08

[1579613388.794499] [n004:29626:0]          mpool.c:38   UCX  WARN  object 0x155544122f60 was not returned to mpool mm_recv_desc
[1579613388.807851] [n004:29621:0]          mpool.c:38   UCX  WARN  object 0x155544118ce0 was not returned to mpool mm_recv_desc
[1579613388.817017] [n004:29623:0]          mpool.c:38   UCX  WARN  object 0x155544120ee0 was not returned to mpool mm_recv_desc
[1579613388.823963] [n004:29622:0]          mpool.c:38   UCX  WARN  object 0x1555394f4c60 was not returned to mpool mm_recv_desc
[1579613388.824801] [n004:29625:0]          mpool.c:38   UCX  WARN  object 0x155539412de0 was not returned to mpool mm_recv_desc
[1579613388.825068] [n004:29624:0]          mpool.c:38   UCX  WARN  object 0x155539414e60 was not returned to mpool mm_recv_desc
[1579613388.825069] [n004:29627:0]          mpool.c:38   UCX  WARN  object 0x1555394f8d60 was not returned to mpool mm_recv_desc
 Data for JOB [31990,1] offset 0 Total slots allocated 8

 ========================   JOB MAP   ========================

 Data for node: n004	Num slots: 8	Max slots: 0	Num procs: 8
 	Process OMPI jobid: [31990,1] App: 0 Process rank: 0 Bound: socket 1[core 40[hwt 0-1]]:[../../../../../../../../../../../../../../../../../../../../../../../../../../../../../../../..][../../../../../../../../BB/../../../../../../../../../../../../../../../../../../../../../../..]
 	Process OMPI jobid: [31990,1] App: 0 Process rank: 1 Bound: socket 1[core 41[hwt 0-1]]:[../../../../../../../../../../../../../../../../../../../../../../../../../../../../../../../..][../../../../../../../../../BB/../../../../../../../../../../../../../../../../../../../../../..]
 	Process OMPI jobid: [31990,1] App: 0 Process rank: 2 Bound: socket 1[core 42[hwt 0-1]]:[../../../../../../../../../../../../../../../../../../../../../../../../../../../../../../../..][../../../../../../../../../../BB/../../../../../../../../../../../../../../../../../../../../..]
 	Process OMPI jobid: [31990,1] App: 0 Process rank: 3 Bound: socket 1[core 43[hwt 0-1]]:[../../../../../../../../../../../../../../../../../../../../../../../../../../../../../../../..][../../../../../../../../../../../BB/../../../../../../../../../../../../../../../../../../../..]
 	Process OMPI jobid: [31990,1] App: 0 Process rank: 4 Bound: socket 1[core 44[hwt 0-1]]:[../../../../../../../../../../../../../../../../../../../../../../../../../../../../../../../..][../../../../../../../../../../../../BB/../../../../../../../../../../../../../../../../../../..]
 	Process OMPI jobid: [31990,1] App: 0 Process rank: 5 Bound: socket 1[core 45[hwt 0-1]]:[../../../../../../../../../../../../../../../../../../../../../../../../../../../../../../../..][../../../../../../../../../../../../../BB/../../../../../../../../../../../../../../../../../..]
 	Process OMPI jobid: [31990,1] App: 0 Process rank: 6 Bound: socket 1[core 46[hwt 0-1]]:[../../../../../../../../../../../../../../../../../../../../../../../../../../../../../../../..][../../../../../../../../../../../../../../BB/../../../../../../../../../../../../../../../../..]
 	Process OMPI jobid: [31990,1] App: 0 Process rank: 7 Bound: socket 1[core 47[hwt 0-1]]:[../../../../../../../../../../../../../../../../../../../../../../../../../../../../../../../..][../../../../../../../../../../../../../../../BB/../../../../../../../../../../../../../../../..]

 =============================================================
[1579614614.862990] [n004:32265:0]         mxm.c:196  MXM  WARN  The 'ulimit -s' on the system is set to 'unlimited'. This may have negative performance implications. Please set the stack size to the default value (10240) 
[1579614614.862988] [n004:32266:0]         mxm.c:196  MXM  WARN  The 'ulimit -s' on the system is set to 'unlimited'. This may have negative performance implications. Please set the stack size to the default value (10240) 
[1579614614.863268] [n004:32261:0]         mxm.c:196  MXM  WARN  The 'ulimit -s' on the system is set to 'unlimited'. This may have negative performance implications. Please set the stack size to the default value (10240) 
[1579614614.863269] [n004:32262:0]         mxm.c:196  MXM  WARN  The 'ulimit -s' on the system is set to 'unlimited'. This may have negative performance implications. Please set the stack size to the default value (10240) 
[1579614614.863285] [n004:32263:0]         mxm.c:196  MXM  WARN  The 'ulimit -s' on the system is set to 'unlimited'. This may have negative performance implications. Please set the stack size to the default value (10240) 
[1579614614.863315] [n004:32268:0]         mxm.c:196  MXM  WARN  The 'ulimit -s' on the system is set to 'unlimited'. This may have negative performance implications. Please set the stack size to the default value (10240) 
[1579614614.863377] [n004:32267:0]         mxm.c:196  MXM  WARN  The 'ulimit -s' on the system is set to 'unlimited'. This may have negative performance implications. Please set the stack size to the default value (10240) 
[1579614614.863674] [n004:32264:0]         mxm.c:196  MXM  WARN  The 'ulimit -s' on the system is set to 'unlimited'. This may have negative performance implications. Please set the stack size to the default value (10240) 
0: 2 

Rank 0 ghostCells: 2404
Rank 1 ghostCells: 3655
Rank 2 ghostCells: 4080
Rank 3 ghostCells: 2157
Rank 4 ghostCells: 3250
Rank 5 ghostCells: 1604
Rank 6 ghostCells: 978
Rank 7 ghostCells: 3099

Rank 0 numCells: 50044
Rank 1 numCells: 43417
Rank 2 numCells: 49199
Rank 3 numCells: 47998
Rank 4 numCells: 51598
Rank 5 numCells: 37602
Rank 6 numCells: 49846
Rank 7 numCells: 46930

Rank 0 interiorCells: 47640
Rank 1 interiorCells: 39762
Rank 2 interiorCells: 45119
Rank 3 interiorCells: 45841
Rank 4 interiorCells: 48348
Rank 5 interiorCells: 35998
Rank 6 interiorCells: 48868
Rank 7 interiorCells: 43831

MeasComm+1 8: 0.00020376 0.00024601 0.00024931 0.00019741 0.00021933 0.00015519 0.000137511 0.00018318 
MeasComm+1 8: 0.00020392 0.00024338 0.000251011 0.00019855 0.000217531 0.00015547 0.00013806 0.00018338 
MeasComm+1 8: 0.00020315 0.00024559 0.000250351 0.000196651 0.00021812 0.00015268 0.00013702 0.00018105 
MeasComm+1 8: 0.00020201 0.00024563 0.00024906 0.000196741 0.00021816 0.000155651 0.000137221 0.00018211 
MeasComm+1 8: 0.00020272 0.000245621 0.000251031 0.00019907 0.00021645 0.00015175 0.00013904 0.00018126 
MeasComm+1 8: 0.000204871 0.000244831 0.000248641 0.00019993 0.000218591 0.00015388 0.00013723 0.00018139 
MeasComm+1 8: 0.00020479 0.00024582 0.000248341 0.000197661 0.00021861 0.00015525 0.00013906 0.000181741 
MeasComm+1 8: 0.00020844 0.00024756 0.00025053 0.00019853 0.00021913 0.00015497 0.000136481 0.00018382 
MeasComm+1 8: 0.00020694 0.000244471 0.000249641 0.000196861 0.000217731 0.00015529 0.00013735 0.000180661 
MeasComm+1 8: 0.000204831 0.000246731 0.000249721 0.00019835 0.000217551 0.00015648 0.00013852 0.00018266 

MeasCopy 8: 0.00011267 0.000171401 0.00019129 0.00010113 0.0001524 7.52e-05 4.586e-05 0.00014531 
MeasCopy 8: 0.00011267 0.00017141 0.000191081 0.00010112 0.000152381 7.519e-05 4.583e-05 0.00014528 
MeasCopy 8: 0.0001127 0.000171441 0.00019132 0.000101151 0.00015241 7.517e-05 4.585e-05 0.00014528 
MeasCopy 8: 0.00011272 0.000171391 0.0001913 0.00010108 0.00015238 7.52e-05 4.584e-05 0.000145311 
MeasCopy 8: 0.00011275 0.00017141 0.00019135 0.00010116 0.000152411 7.5161e-05 4.583e-05 0.00014522 
MeasCopy 8: 0.00011274 0.000171361 0.00019134 0.0001011 0.000152341 7.515e-05 4.586e-05 0.00014527 
MeasCopy 8: 0.00011267 0.00017134 0.00019131 0.000101201 0.00015236 7.515e-05 4.586e-05 0.000145311 
MeasCopy 8: 0.000112701 0.00017141 0.000191201 0.00010117 0.00015235 7.52e-05 4.586e-05 0.00014531 
MeasCopy 8: 0.000112681 0.00017141 0.000191231 0.00010122 0.00015242 7.518e-05 4.584e-05 0.00014527 
MeasCopy 8: 0.000112761 0.00017134 0.00019124 0.00010113 0.00015239 7.519e-05 4.587e-05 0.00014535 

ComTab rank 0: 0 931 621 0 63 0 597 285 
ComTab rank 1: 1012 0 1296 0 1053 0 0 374 
ComTab rank 2: 620 1282 0 2144 0 0 0 113 
ComTab rank 3: 0 0 2101 0 0 0 0 62 
ComTab rank 4: 306 1053 0 0 0 1346 0 612 
ComTab rank 5: 0 0 0 0 1429 0 15 185 
ComTab rank 6: 664 0 0 0 0 14 0 309 
ComTab rank 7: 521 537 123 65 1058 381 579 0 

Edge-cut: 16574

Wgt-cut: 3.34852e-08

[1579614675.128578] [n004:32262:0]          mpool.c:38   UCX  WARN  object 0x155544122f60 was not returned to mpool mm_recv_desc
[1579614675.129741] [n004:32263:0]          mpool.c:38   UCX  WARN  object 0x15554411cde0 was not returned to mpool mm_recv_desc
[1579614675.136419] [n004:32264:0]          mpool.c:38   UCX  WARN  object 0x555563f00980 was not returned to mpool ucp_am_bufs
[1579614675.140989] [n004:32266:0]          mpool.c:38   UCX  WARN  object 0x15554411ee60 was not returned to mpool mm_recv_desc
[1579614675.141269] [n004:32267:0]          mpool.c:38   UCX  WARN  object 0x1555394feee0 was not returned to mpool mm_recv_desc
[1579614675.151452] [n004:32268:0]          mpool.c:38   UCX  WARN  object 0x555563f57a80 was not returned to mpool ucp_am_bufs
[1579614675.152449] [n004:32265:0]          mpool.c:38   UCX  WARN  object 0x15554411ad60 was not returned to mpool mm_recv_desc
