 Data for JOB [60791,1] offset 0 Total slots allocated 2

 ========================   JOB MAP   ========================

 Data for node: n001	Num slots: 2	Max slots: 0	Num procs: 2
 	Process OMPI jobid: [60791,1] App: 0 Process rank: 0 Bound: socket 0[core 25[hwt 0-1]]:[../../../../../../../../../../../../../../../../../../../../../../../../../BB/../../../../../..][../../../../../../../../../../../../../../../../../../../../../../../../../../../../../../../..]
 	Process OMPI jobid: [60791,1] App: 0 Process rank: 1 Bound: socket 1[core 42[hwt 0-1]]:[../../../../../../../../../../../../../../../../../../../../../../../../../../../../../../../..][../../../../../../../../../../BB/../../../../../../../../../../../../../../../../../../../../..]

 =============================================================
dune-size 1 6.04578e-06 6.04408e-06 
dune-size 2 4.74968e-06 4.75338e-06 
dune-size 4 4.90969e-06 4.91039e-06 
dune-size 8 5.15779e-06 5.15749e-06 
dune-size 16 5.58058e-06 5.57488e-06 
dune-size 32 6.49359e-06 6.48919e-06 
dune-size 64 8.24798e-06 8.24788e-06 
dune-size 128 1.21319e-05 1.2119e-05 
dune-size 256 1.90123e-05 1.90048e-05 
dune-size 512 3.3483e-05 3.34909e-05 
dune-size 1024 0.000105671 0.000105664 
dune-size 2048 0.000191976 0.000191997 
dune-size 4096 0.000375348 0.000375352 
dune-size 8192 0.000623919 0.00062384 
dune-size 16384 0.000959149 0.000959163 
dune-size 32768 0.00168378 0.00168392 
dune-size 65536 0.0033356 0.00333838 
dune-size 131072 0.00649552 0.0065013 
dune-size 262144 0.0134667 0.0134719 
dune-size 524288 0.0258685 0.0258906 
dune-size 1048576 0.0518016 0.0518623 
