 Data for JOB [26770,1] offset 0 Total slots allocated 8

 ========================   JOB MAP   ========================

 Data for node: n004	Num slots: 8	Max slots: 0	Num procs: 8
 	Process OMPI jobid: [26770,1] App: 0 Process rank: 0 Bound: socket 0[core 0[hwt 0-1]]:[BB/../../../../../../../../../../../../../../../../../../../../../../../../../../../../../../..][../../../../../../../../../../../../../../../../../../../../../../../../../../../../../../../..]
 	Process OMPI jobid: [26770,1] App: 0 Process rank: 1 Bound: socket 0[core 1[hwt 0-1]]:[../BB/../../../../../../../../../../../../../../../../../../../../../../../../../../../../../..][../../../../../../../../../../../../../../../../../../../../../../../../../../../../../../../..]
 	Process OMPI jobid: [26770,1] App: 0 Process rank: 2 Bound: socket 0[core 2[hwt 0-1]]:[../../BB/../../../../../../../../../../../../../../../../../../../../../../../../../../../../..][../../../../../../../../../../../../../../../../../../../../../../../../../../../../../../../..]
 	Process OMPI jobid: [26770,1] App: 0 Process rank: 3 Bound: socket 0[core 3[hwt 0-1]]:[../../../BB/../../../../../../../../../../../../../../../../../../../../../../../../../../../..][../../../../../../../../../../../../../../../../../../../../../../../../../../../../../../../..]
 	Process OMPI jobid: [26770,1] App: 0 Process rank: 4 Bound: socket 0[core 4[hwt 0-1]]:[../../../../BB/../../../../../../../../../../../../../../../../../../../../../../../../../../..][../../../../../../../../../../../../../../../../../../../../../../../../../../../../../../../..]
 	Process OMPI jobid: [26770,1] App: 0 Process rank: 5 Bound: socket 0[core 5[hwt 0-1]]:[../../../../../BB/../../../../../../../../../../../../../../../../../../../../../../../../../..][../../../../../../../../../../../../../../../../../../../../../../../../../../../../../../../..]
 	Process OMPI jobid: [26770,1] App: 0 Process rank: 6 Bound: socket 0[core 6[hwt 0-1]]:[../../../../../../BB/../../../../../../../../../../../../../../../../../../../../../../../../..][../../../../../../../../../../../../../../../../../../../../../../../../../../../../../../../..]
 	Process OMPI jobid: [26770,1] App: 0 Process rank: 7 Bound: socket 0[core 7[hwt 0-1]]:[../../../../../../../BB/../../../../../../../../../../../../../../../../../../../../../../../..][../../../../../../../../../../../../../../../../../../../../../../../../../../../../../../../..]

 =============================================================
[1579612612.040563] [n004:27045:0]         mxm.c:196  MXM  WARN  The 'ulimit -s' on the system is set to 'unlimited'. This may have negative performance implications. Please set the stack size to the default value (10240) 
[1579612612.040491] [n004:27046:0]         mxm.c:196  MXM  WARN  The 'ulimit -s' on the system is set to 'unlimited'. This may have negative performance implications. Please set the stack size to the default value (10240) 
[1579612612.040579] [n004:27042:0]         mxm.c:196  MXM  WARN  The 'ulimit -s' on the system is set to 'unlimited'. This may have negative performance implications. Please set the stack size to the default value (10240) 
[1579612612.040627] [n004:27044:0]         mxm.c:196  MXM  WARN  The 'ulimit -s' on the system is set to 'unlimited'. This may have negative performance implications. Please set the stack size to the default value (10240) 
[1579612612.040770] [n004:27040:0]         mxm.c:196  MXM  WARN  The 'ulimit -s' on the system is set to 'unlimited'. This may have negative performance implications. Please set the stack size to the default value (10240) 
[1579612612.040769] [n004:27043:0]         mxm.c:196  MXM  WARN  The 'ulimit -s' on the system is set to 'unlimited'. This may have negative performance implications. Please set the stack size to the default value (10240) 
[1579612612.040708] [n004:27047:0]         mxm.c:196  MXM  WARN  The 'ulimit -s' on the system is set to 'unlimited'. This may have negative performance implications. Please set the stack size to the default value (10240) 
[1579612612.044891] [n004:27041:0]         mxm.c:196  MXM  WARN  The 'ulimit -s' on the system is set to 'unlimited'. This may have negative performance implications. Please set the stack size to the default value (10240) 
0: 2 

Rank 0 ghostCells: 2404
Rank 1 ghostCells: 3655
Rank 2 ghostCells: 4080
Rank 3 ghostCells: 2157
Rank 4 ghostCells: 3250
Rank 5 ghostCells: 1604
Rank 6 ghostCells: 978
Rank 7 ghostCells: 3099

Rank 0 numCells: 50044
Rank 1 numCells: 43417
Rank 2 numCells: 49199
Rank 3 numCells: 47998
Rank 4 numCells: 51598
Rank 5 numCells: 37602
Rank 6 numCells: 49846
Rank 7 numCells: 46930

Rank 0 interiorCells: 47640
Rank 1 interiorCells: 39762
Rank 2 interiorCells: 45119
Rank 3 interiorCells: 45841
Rank 4 interiorCells: 48348
Rank 5 interiorCells: 35998
Rank 6 interiorCells: 48868
Rank 7 interiorCells: 43831

MeasComm+1 8: 0.00026303 0.000329041 0.000304721 0.00023228 0.00023122 0.00016826 0.00018554 0.00022467 
MeasComm+1 8: 0.000224001 0.000254701 0.000265441 0.000211451 0.000230271 0.00016746 0.000140361 0.000188991 
MeasComm+1 8: 0.000236811 0.000266651 0.000269211 0.000215781 0.000230731 0.0001683 0.00016528 0.000199441 
MeasComm+1 8: 0.000260481 0.000318391 0.000299261 0.000238661 0.000234161 0.00016783 0.000195511 0.000223131 
MeasComm+1 8: 0.000275071 0.000328741 0.000308831 0.00023334 0.000241261 0.00016794 0.000201191 0.000230351 
MeasComm+1 8: 0.00023564 0.00027126 0.00027182 0.00022261 0.000234821 0.00016777 0.00017145 0.00020966 
MeasComm+1 8: 0.00023435 0.0002705 0.00027074 0.00022097 0.00023106 0.000168131 0.00016759 0.00020178 
MeasComm+1 8: 0.000241751 0.000280401 0.000268421 0.000218381 0.000228561 0.000166841 0.00016415 0.000202681 
MeasComm+1 8: 0.000281031 0.000307911 0.000310141 0.000252981 0.000229971 0.00016654 0.000204571 0.000223571 
MeasComm+1 8: 0.00025449 0.000315481 0.00029891 0.00025443 0.00023355 0.00016845 0.00018926 0.00021651 

MeasCopy 8: 0.00011273 0.000171311 0.000191471 0.00010112 0.00015239 7.522e-05 4.58e-05 0.00014531 
MeasCopy 8: 0.0001127 0.000171161 0.000191431 0.00010115 0.00015237 7.52e-05 4.584e-05 0.000145321 
MeasCopy 8: 0.00011277 0.0001713 0.000191551 0.00010107 0.00015237 7.5201e-05 4.584e-05 0.000145261 
MeasCopy 8: 0.000112741 0.00017137 0.00019123 0.00010105 0.00015231 7.521e-05 4.583e-05 0.00014534 
MeasCopy 8: 0.00011275 0.000171421 0.00019142 0.000101121 0.000152331 7.523e-05 4.585e-05 0.00014534 
MeasCopy 8: 0.00011268 0.000171481 0.000191431 0.00010112 0.00015239 7.516e-05 4.582e-05 0.00014529 
MeasCopy 8: 0.00011263 0.00017137 0.000191561 0.000101 0.000152401 7.523e-05 4.583e-05 0.00014534 
MeasCopy 8: 0.00011271 0.000171261 0.00019149 0.00010115 0.000152381 7.525e-05 4.583e-05 0.0001453 
MeasCopy 8: 0.00011273 0.00017133 0.000191431 0.00010108 0.00015234 7.516e-05 4.5841e-05 0.00014526 
MeasCopy 8: 0.000112691 0.00017138 0.000191531 0.00010112 0.000152361 7.52e-05 4.583e-05 0.000145311 

ComTab rank 0: 0 931 621 0 63 0 597 285 
ComTab rank 1: 1012 0 1296 0 1053 0 0 374 
ComTab rank 2: 620 1282 0 2144 0 0 0 113 
ComTab rank 3: 0 0 2101 0 0 0 0 62 
ComTab rank 4: 306 1053 0 0 0 1346 0 612 
ComTab rank 5: 0 0 0 0 1429 0 15 185 
ComTab rank 6: 664 0 0 0 0 14 0 309 
ComTab rank 7: 521 537 123 65 1058 381 579 0 

Edge-cut: 16574

Wgt-cut: 3.34852e-08

[1579612701.735666] [n004:27044:0]          mpool.c:38   UCX  WARN  object 0x55555b56ffc0 was not returned to mpool ucp_am_bufs
[1579612701.736543] [n004:27041:0]          mpool.c:38   UCX  WARN  object 0x555563ec45c0 was not returned to mpool ucp_am_bufs
[1579612701.741270] [n004:27046:0]          mpool.c:38   UCX  WARN  object 0x155544122f60 was not returned to mpool mm_recv_desc
[1579612701.744599] [n004:27047:0]          mpool.c:38   UCX  WARN  object 0x5555644d8100 was not returned to mpool ucp_am_bufs
[1579612701.747150] [n004:27045:0]          mpool.c:38   UCX  WARN  object 0x55555901ba40 was not returned to mpool ucp_am_bufs
[1579612701.758936] [n004:27043:0]          mpool.c:38   UCX  WARN  object 0x555563099d80 was not returned to mpool ucp_am_bufs
[1579612701.759419] [n004:27042:0]          mpool.c:38   UCX  WARN  object 0x55555b56fa00 was not returned to mpool ucp_am_bufs
