[1578476903.186142] [srl-mds1:31414:0]         mxm.c:196  MXM  WARN  The 'ulimit -s' on the system is set to 'unlimited'. This may have negative performance implications. Please set the stack size to the default value (10240) 
[1578476903.186332] [srl-mds1:31413:0]         mxm.c:196  MXM  WARN  The 'ulimit -s' on the system is set to 'unlimited'. This may have negative performance implications. Please set the stack size to the default value (10240) 
0: 2 
After loadbalancing process 0 has 21000 cells.
After loadbalancing process 1 has 25186 cells.

Rank 0 ghostCells: 919
Rank 1 ghostCells: 836

Rank 0 numCells: 21000
Rank 1 numCells: 25186

Rank 0 interiorCells: 20081
Rank 1 interiorCells: 24350

ComTab rank 0: 0 919 
ComTab rank 1: 836 0 

Edge-cut: 1468

Wgt-cut: 2.95567e-09

[1578476906.616448] [srl-mds1:31414:0]          mpool.c:38   UCX  WARN  object 0x55555c052b80 was not returned to mpool ucp_am_bufs
