 Data for JOB [43029,1] offset 0 Total slots allocated 16

 ========================   JOB MAP   ========================

 Data for node: srl-adm2	Num slots: 16	Max slots: 0	Num procs: 16
 	Process OMPI jobid: [43029,1] App: 0 Process rank: 0 Bound: socket 0[core 0[hwt 0-1]]:[BB/../../../../../../../../../../../../../../..][../../../../../../../../../../../../../../../..]
 	Process OMPI jobid: [43029,1] App: 0 Process rank: 1 Bound: socket 0[core 1[hwt 0-1]]:[../BB/../../../../../../../../../../../../../..][../../../../../../../../../../../../../../../..]
 	Process OMPI jobid: [43029,1] App: 0 Process rank: 2 Bound: socket 0[core 2[hwt 0-1]]:[../../BB/../../../../../../../../../../../../..][../../../../../../../../../../../../../../../..]
 	Process OMPI jobid: [43029,1] App: 0 Process rank: 3 Bound: socket 0[core 3[hwt 0-1]]:[../../../BB/../../../../../../../../../../../..][../../../../../../../../../../../../../../../..]
 	Process OMPI jobid: [43029,1] App: 0 Process rank: 4 Bound: socket 0[core 8[hwt 0-1]]:[../../../../../../../../BB/../../../../../../..][../../../../../../../../../../../../../../../..]
 	Process OMPI jobid: [43029,1] App: 0 Process rank: 5 Bound: socket 0[core 9[hwt 0-1]]:[../../../../../../../../../BB/../../../../../..][../../../../../../../../../../../../../../../..]
 	Process OMPI jobid: [43029,1] App: 0 Process rank: 6 Bound: socket 0[core 10[hwt 0-1]]:[../../../../../../../../../../BB/../../../../..][../../../../../../../../../../../../../../../..]
 	Process OMPI jobid: [43029,1] App: 0 Process rank: 7 Bound: socket 0[core 11[hwt 0-1]]:[../../../../../../../../../../../BB/../../../..][../../../../../../../../../../../../../../../..]
 	Process OMPI jobid: [43029,1] App: 0 Process rank: 8 Bound: socket 1[core 16[hwt 0-1]]:[../../../../../../../../../../../../../../../..][BB/../../../../../../../../../../../../../../..]
 	Process OMPI jobid: [43029,1] App: 0 Process rank: 9 Bound: socket 1[core 17[hwt 0-1]]:[../../../../../../../../../../../../../../../..][../BB/../../../../../../../../../../../../../..]
 	Process OMPI jobid: [43029,1] App: 0 Process rank: 10 Bound: socket 1[core 18[hwt 0-1]]:[../../../../../../../../../../../../../../../..][../../BB/../../../../../../../../../../../../..]
 	Process OMPI jobid: [43029,1] App: 0 Process rank: 11 Bound: socket 1[core 19[hwt 0-1]]:[../../../../../../../../../../../../../../../..][../../../BB/../../../../../../../../../../../..]
 	Process OMPI jobid: [43029,1] App: 0 Process rank: 12 Bound: socket 1[core 24[hwt 0-1]]:[../../../../../../../../../../../../../../../..][../../../../../../../../BB/../../../../../../..]
 	Process OMPI jobid: [43029,1] App: 0 Process rank: 13 Bound: socket 1[core 25[hwt 0-1]]:[../../../../../../../../../../../../../../../..][../../../../../../../../../BB/../../../../../..]
 	Process OMPI jobid: [43029,1] App: 0 Process rank: 14 Bound: socket 1[core 26[hwt 0-1]]:[../../../../../../../../../../../../../../../..][../../../../../../../../../../BB/../../../../..]
 	Process OMPI jobid: [43029,1] App: 0 Process rank: 15 Bound: socket 1[core 27[hwt 0-1]]:[../../../../../../../../../../../../../../../..][../../../../../../../../../../../BB/../../../..]

 =============================================================
[1578562182.892583] [srl-adm2:61038:0]         mxm.c:196  MXM  WARN  The 'ulimit -s' on the system is set to 'unlimited'. This may have negative performance implications. Please set the stack size to the default value (10240) 
[1578562182.892528] [srl-adm2:61040:0]         mxm.c:196  MXM  WARN  The 'ulimit -s' on the system is set to 'unlimited'. This may have negative performance implications. Please set the stack size to the default value (10240) 
[1578562182.893062] [srl-adm2:61053:0]         mxm.c:196  MXM  WARN  The 'ulimit -s' on the system is set to 'unlimited'. This may have negative performance implications. Please set the stack size to the default value (10240) 
[1578562182.895533] [srl-adm2:61044:0]         mxm.c:196  MXM  WARN  The 'ulimit -s' on the system is set to 'unlimited'. This may have negative performance implications. Please set the stack size to the default value (10240) 
[1578562182.895548] [srl-adm2:61051:0]         mxm.c:196  MXM  WARN  The 'ulimit -s' on the system is set to 'unlimited'. This may have negative performance implications. Please set the stack size to the default value (10240) 
[1578562182.895709] [srl-adm2:61052:0]         mxm.c:196  MXM  WARN  The 'ulimit -s' on the system is set to 'unlimited'. This may have negative performance implications. Please set the stack size to the default value (10240) 
[1578562182.895878] [srl-adm2:61039:0]         mxm.c:196  MXM  WARN  The 'ulimit -s' on the system is set to 'unlimited'. This may have negative performance implications. Please set the stack size to the default value (10240) 
[1578562182.896089] [srl-adm2:61043:0]         mxm.c:196  MXM  WARN  The 'ulimit -s' on the system is set to 'unlimited'. This may have negative performance implications. Please set the stack size to the default value (10240) 
[1578562182.896670] [srl-adm2:61041:0]         mxm.c:196  MXM  WARN  The 'ulimit -s' on the system is set to 'unlimited'. This may have negative performance implications. Please set the stack size to the default value (10240) 
[1578562182.897200] [srl-adm2:61050:0]         mxm.c:196  MXM  WARN  The 'ulimit -s' on the system is set to 'unlimited'. This may have negative performance implications. Please set the stack size to the default value (10240) 
[1578562182.898471] [srl-adm2:61047:0]         mxm.c:196  MXM  WARN  The 'ulimit -s' on the system is set to 'unlimited'. This may have negative performance implications. Please set the stack size to the default value (10240) 
[1578562182.898803] [srl-adm2:61045:0]         mxm.c:196  MXM  WARN  The 'ulimit -s' on the system is set to 'unlimited'. This may have negative performance implications. Please set the stack size to the default value (10240) 
[1578562182.898921] [srl-adm2:61049:0]         mxm.c:196  MXM  WARN  The 'ulimit -s' on the system is set to 'unlimited'. This may have negative performance implications. Please set the stack size to the default value (10240) 
[1578562182.898937] [srl-adm2:61042:0]         mxm.c:196  MXM  WARN  The 'ulimit -s' on the system is set to 'unlimited'. This may have negative performance implications. Please set the stack size to the default value (10240) 
[1578562182.900044] [srl-adm2:61046:0]         mxm.c:196  MXM  WARN  The 'ulimit -s' on the system is set to 'unlimited'. This may have negative performance implications. Please set the stack size to the default value (10240) 
[1578562182.900983] [srl-adm2:61048:0]         mxm.c:196  MXM  WARN  The 'ulimit -s' on the system is set to 'unlimited'. This may have negative performance implications. Please set the stack size to the default value (10240) 
0: 10 
Edge Weight Method: 10
Cell on rank 0: 23130
Cell on rank 1: 20193
Cell on rank 2: 22010
Cell on rank 3: 20456
Cell on rank 4: 22462
Cell on rank 5: 22719
Cell on rank 6: 23121
Cell on rank 7: 23830
Cell on rank 8: 21642
Cell on rank 9: 22238
Cell on rank 10: 22427
Cell on rank 11: 20192
Cell on rank 12: 22799
Cell on rank 13: 22763
Cell on rank 14: 22551
Cell on rank 15: 22874
Edge-cut: -36968364
Manually moving well D-3H to partition 0

Rank 0 ghostCells: 5806
Rank 1 ghostCells: 6003
Rank 2 ghostCells: 3608
Rank 3 ghostCells: 3420
Rank 4 ghostCells: 3590
Rank 5 ghostCells: 2082
Rank 6 ghostCells: 2991
Rank 7 ghostCells: 3723
Rank 8 ghostCells: 925
Rank 9 ghostCells: 2174
Rank 10 ghostCells: 2792
Rank 11 ghostCells: 3686
Rank 12 ghostCells: 718
Rank 13 ghostCells: 1626
Rank 14 ghostCells: 3126
Rank 15 ghostCells: 2156

Rank 0 numCells: 28936
Rank 1 numCells: 26196
Rank 2 numCells: 25618
Rank 3 numCells: 23876
Rank 4 numCells: 26052
Rank 5 numCells: 24801
Rank 6 numCells: 26112
Rank 7 numCells: 27553
Rank 8 numCells: 22567
Rank 9 numCells: 24412
Rank 10 numCells: 25219
Rank 11 numCells: 23878
Rank 12 numCells: 23517
Rank 13 numCells: 24389
Rank 14 numCells: 25677
Rank 15 numCells: 25030

Rank 0 interiorCells: 23130
Rank 1 interiorCells: 20193
Rank 2 interiorCells: 22010
Rank 3 interiorCells: 20456
Rank 4 interiorCells: 22462
Rank 5 interiorCells: 22719
Rank 6 interiorCells: 23121
Rank 7 interiorCells: 23830
Rank 8 interiorCells: 21642
Rank 9 interiorCells: 22238
Rank 10 interiorCells: 22427
Rank 11 interiorCells: 20192
Rank 12 interiorCells: 22799
Rank 13 interiorCells: 22763
Rank 14 interiorCells: 22551
Rank 15 interiorCells: 22874

MeasComm+1 16: 0.000249975 0.000276852 0.000177963 0.000181867 0.000163963 0.00013367 0.000148848 0.000178357 7.0973e-05 0.000115224 0.000157281 0.000205746 5.4226e-05 0.000113428 0.00016347 0.000142267 
MeasComm+1 16: 0.000251052 0.000276792 0.000177109 0.000181507 0.000163279 0.000134744 0.000148779 0.000176824 7.9247e-05 0.00011466 0.000156525 0.000206191 6.1732e-05 0.000100539 0.000163005 0.000142868 
MeasComm+1 16: 0.000250532 0.000276133 0.000175643 0.000182296 0.000162956 0.000105579 0.000148586 0.000176591 7.9732e-05 0.000114987 0.000156288 0.000205295 6.1881e-05 8.9555e-05 0.000163344 0.000142306 
MeasComm+1 16: 0.000250528 0.000276295 0.000176608 0.000182376 0.000163741 0.000134597 0.000148085 0.000175219 8.0265e-05 0.000115654 0.000155718 0.000205178 6.2121e-05 0.000112963 0.000161687 0.000141328 
MeasComm+1 16: 0.00024979 0.00027615 0.000177518 0.000181287 0.000164374 0.000136099 0.0001488 0.000175293 7.9213e-05 0.000115334 0.000155523 0.000205923 6.1557e-05 0.000113427 0.000163091 0.000141937 
MeasComm+1 16: 0.000251319 0.000275536 0.000174931 0.000180048 0.000163371 0.000135287 0.000148231 0.000174738 8.0089e-05 0.000115499 0.00015741 0.00020098 6.2382e-05 0.000112903 0.000162613 0.000140769 
MeasComm+1 16: 0.000250406 0.000276802 0.00017517 0.000180202 0.000163682 0.00013476 0.000148526 0.000175962 8.0595e-05 0.000115184 0.000156113 0.000202553 6.2919e-05 0.000113499 0.000162899 0.000142369 
MeasComm+1 16: 0.000251208 0.000276156 0.000175712 0.000181988 0.000164037 0.000135093 0.00014853 0.000177043 8.0227e-05 0.000115637 0.000155465 0.000205373 6.2584e-05 0.000113149 0.000160737 0.000142147 
MeasComm+1 16: 0.000252843 0.000275249 0.000176082 0.000183133 0.000163805 0.000134699 0.000147682 0.00017661 7.6313e-05 0.000115878 0.000153864 0.00020497 5.8664e-05 0.000114152 0.000162232 0.000141608 
MeasComm+1 16: 0.000252619 0.000275743 0.000175682 0.000181434 0.000163796 0.000134606 0.000148759 0.000175418 8.0217e-05 0.000115661 0.000157902 0.000204548 6.2539e-05 0.000113227 0.000162628 0.000141659 

ComTab rank 0: 0 3292 1246 1257 0 0 0 284 0 0 0 270 0 0 0 0 
ComTab rank 1: 3041 0 67 882 0 0 0 356 0 0 248 1771 0 0 155 0 
ComTab rank 2: 1192 68 0 611 0 0 648 1292 0 0 0 0 0 0 0 0 
ComTab rank 3: 1233 830 609 0 0 0 0 0 0 0 0 2 0 0 555 581 
ComTab rank 4: 0 0 0 0 0 1701 1036 929 0 0 0 0 0 0 0 0 
ComTab rank 5: 0 0 0 0 1775 0 330 0 0 0 0 0 0 0 0 0 
ComTab rank 6: 0 0 653 0 1096 339 0 1084 0 0 0 0 0 0 0 0 
ComTab rank 7: 277 345 1305 0 931 0 1081 0 0 0 0 0 0 0 0 0 
ComTab rank 8: 0 0 0 0 0 0 0 0 0 925 0 0 0 0 0 0 
ComTab rank 9: 0 0 0 0 0 0 0 0 934 0 1216 34 0 0 0 0 
ComTab rank 10: 0 239 0 0 0 0 0 0 0 1203 0 1407 0 0 0 0 
ComTab rank 11: 241 1721 0 2 0 0 0 0 0 33 1481 0 0 0 275 232 
ComTab rank 12: 0 0 0 0 0 0 0 0 0 0 0 0 0 718 0 0 
ComTab rank 13: 0 0 0 0 0 0 0 0 0 0 0 0 720 0 894 22 
ComTab rank 14: 0 171 0 579 0 0 0 0 0 0 0 286 0 910 0 1350 
ComTab rank 15: 0 0 0 572 0 0 0 0 0 0 0 307 0 25 1386 0 

Edge-cut: 37983

Wgt-cut: 6.11689e-07

[1578562215.302524] [srl-adm2:61046:0]          mpool.c:38   UCX  WARN  object 0x155544116c60 was not returned to mpool mm_recv_desc
[1578562215.302841] [srl-adm2:61040:0]          mpool.c:38   UCX  WARN  object 0x15554411cde0 was not returned to mpool mm_recv_desc
[1578562215.303087] [srl-adm2:61039:0]          mpool.c:38   UCX  WARN  object 0x55555c2f6500 was not returned to mpool ucp_am_bufs
[1578562215.303048] [srl-adm2:61042:0]          mpool.c:38   UCX  WARN  object 0x555564064500 was not returned to mpool ucp_am_bufs
[1578562215.303169] [srl-adm2:61039:0]          mpool.c:38   UCX  WARN  object 0x1555393cf360 was not returned to mpool mm_recv_desc
