 Data for JOB [60256,1] offset 0 Total slots allocated 8

 ========================   JOB MAP   ========================

 Data for node: srl-adm2	Num slots: 8	Max slots: 0	Num procs: 8
 	Process OMPI jobid: [60256,1] App: 0 Process rank: 0 Bound: socket 0[core 0[hwt 0-1]]:[BB/../../../../../../../../../../../../../../..][../../../../../../../../../../../../../../../..]
 	Process OMPI jobid: [60256,1] App: 0 Process rank: 1 Bound: socket 0[core 1[hwt 0-1]]:[../BB/../../../../../../../../../../../../../..][../../../../../../../../../../../../../../../..]
 	Process OMPI jobid: [60256,1] App: 0 Process rank: 2 Bound: socket 0[core 2[hwt 0-1]]:[../../BB/../../../../../../../../../../../../..][../../../../../../../../../../../../../../../..]
 	Process OMPI jobid: [60256,1] App: 0 Process rank: 3 Bound: socket 0[core 3[hwt 0-1]]:[../../../BB/../../../../../../../../../../../..][../../../../../../../../../../../../../../../..]
 	Process OMPI jobid: [60256,1] App: 0 Process rank: 4 Bound: socket 1[core 16[hwt 0-1]]:[../../../../../../../../../../../../../../../..][BB/../../../../../../../../../../../../../../..]
 	Process OMPI jobid: [60256,1] App: 0 Process rank: 5 Bound: socket 1[core 17[hwt 0-1]]:[../../../../../../../../../../../../../../../..][../BB/../../../../../../../../../../../../../..]
 	Process OMPI jobid: [60256,1] App: 0 Process rank: 6 Bound: socket 1[core 18[hwt 0-1]]:[../../../../../../../../../../../../../../../..][../../BB/../../../../../../../../../../../../..]
 	Process OMPI jobid: [60256,1] App: 0 Process rank: 7 Bound: socket 1[core 19[hwt 0-1]]:[../../../../../../../../../../../../../../../..][../../../BB/../../../../../../../../../../../..]

 =============================================================
[1578650351.308776] [srl-adm2:44322:0]         mxm.c:196  MXM  WARN  The 'ulimit -s' on the system is set to 'unlimited'. This may have negative performance implications. Please set the stack size to the default value (10240) 
[1578650351.308786] [srl-adm2:44323:0]         mxm.c:196  MXM  WARN  The 'ulimit -s' on the system is set to 'unlimited'. This may have negative performance implications. Please set the stack size to the default value (10240) 
[1578650351.309799] [srl-adm2:44325:0]         mxm.c:196  MXM  WARN  The 'ulimit -s' on the system is set to 'unlimited'. This may have negative performance implications. Please set the stack size to the default value (10240) 
[1578650351.309823] [srl-adm2:44326:0]         mxm.c:196  MXM  WARN  The 'ulimit -s' on the system is set to 'unlimited'. This may have negative performance implications. Please set the stack size to the default value (10240) 
[1578650351.309876] [srl-adm2:44328:0]         mxm.c:196  MXM  WARN  The 'ulimit -s' on the system is set to 'unlimited'. This may have negative performance implications. Please set the stack size to the default value (10240) 
[1578650351.309927] [srl-adm2:44321:0]         mxm.c:196  MXM  WARN  The 'ulimit -s' on the system is set to 'unlimited'. This may have negative performance implications. Please set the stack size to the default value (10240) 
[1578650351.310027] [srl-adm2:44329:0]         mxm.c:196  MXM  WARN  The 'ulimit -s' on the system is set to 'unlimited'. This may have negative performance implications. Please set the stack size to the default value (10240) 
[1578650351.310275] [srl-adm2:44327:0]         mxm.c:196  MXM  WARN  The 'ulimit -s' on the system is set to 'unlimited'. This may have negative performance implications. Please set the stack size to the default value (10240) 
0: 10 
Edge Weight Method: 10
Cell on rank 0: 45470
Cell on rank 1: 44302
Cell on rank 2: 40472
Cell on rank 3: 46394
Cell on rank 4: 43351
Cell on rank 5: 42301
Cell on rank 6: 46782
Cell on rank 7: 46335
Edge-cut: 16461

Rank 0 ghostCells: 2136
Rank 1 ghostCells: 3705
Rank 2 ghostCells: 4614
Rank 3 ghostCells: 5375
Rank 4 ghostCells: 1151
Rank 5 ghostCells: 3061
Rank 6 ghostCells: 930
Rank 7 ghostCells: 2336

Rank 0 numCells: 47606
Rank 1 numCells: 48007
Rank 2 numCells: 45086
Rank 3 numCells: 51769
Rank 4 numCells: 44502
Rank 5 numCells: 45362
Rank 6 numCells: 47712
Rank 7 numCells: 48671

Rank 0 interiorCells: 45470
Rank 1 interiorCells: 44302
Rank 2 interiorCells: 40472
Rank 3 interiorCells: 46394
Rank 4 interiorCells: 43351
Rank 5 interiorCells: 42301
Rank 6 interiorCells: 46782
Rank 7 interiorCells: 46335

MeasComm+1 8: 0.000138964 0.000173934 0.00021267 0.000241101 0.000109877 0.00015212 9.3887e-05 0.00015751 
MeasComm+1 8: 0.000139089 0.000173325 0.000210932 0.000240345 0.00010793 0.000152591 9.3578e-05 0.000155079 
MeasComm+1 8: 0.000140088 0.00017388 0.000211862 0.000242619 0.00010432 0.000152456 9.2913e-05 0.000156977 
MeasComm+1 8: 0.000139272 0.000173874 0.000211587 0.000240399 0.00010736 0.000153351 9.3693e-05 0.000157395 
MeasComm+1 8: 0.000139655 0.000174198 0.000210908 0.000240801 0.000108118 0.000152692 9.3084e-05 0.000158109 
MeasComm+1 8: 0.000139648 0.000173385 0.000212004 0.000240389 0.000101423 0.00015292 9.3678e-05 0.000157399 
MeasComm+1 8: 0.000139192 0.000174178 0.000211505 0.000240182 0.000108048 0.000152921 9.4651e-05 0.000156806 
MeasComm+1 8: 0.00013956 0.000173699 0.000211638 0.000241793 0.000107704 0.000152311 9.329e-05 0.000158134 
MeasComm+1 8: 0.000139421 0.000174635 0.000211151 0.000241725 0.000107922 0.00015202 9.345e-05 0.000157326 
MeasComm+1 8: 0.000139578 0.000174494 0.000210391 0.00024136 0.000108256 0.00015204 9.3538e-05 0.000157451 

ComTab rank 0: 0 1871 0 296 0 0 0 0 
ComTab rank 1: 1896 0 0 1833 0 0 0 0 
ComTab rank 2: 0 0 0 2663 0 1521 0 488 
ComTab rank 3: 292 1828 2611 0 0 0 0 718 
ComTab rank 4: 0 0 0 0 0 1151 0 0 
ComTab rank 5: 0 0 1552 0 1145 0 17 370 
ComTab rank 6: 0 0 0 0 0 8 0 929 
ComTab rank 7: 0 0 449 703 0 354 903 0 

Edge-cut: 17679

Wgt-cut: 1.95949e-07

[1578650385.755958] [srl-adm2:44329:0]          mpool.c:38   UCX  WARN  object 0x55555b670000 was not returned to mpool ucp_am_bufs
[1578650385.755918] [srl-adm2:44326:0]          mpool.c:38   UCX  WARN  object 0x1555393fff60 was not returned to mpool mm_recv_desc
[1578650385.756037] [srl-adm2:44327:0]          mpool.c:38   UCX  WARN  object 0x55556467c680 was not returned to mpool ucp_am_bufs
[1578650385.756116] [srl-adm2:44322:0]          mpool.c:38   UCX  WARN  object 0x555562a30080 was not returned to mpool ucp_am_bufs
[1578650385.756188] [srl-adm2:44328:0]          mpool.c:38   UCX  WARN  object 0x55555b66ffc0 was not returned to mpool ucp_am_bufs
[1578650385.756174] [srl-adm2:44325:0]          mpool.c:38   UCX  WARN  object 0x55556566ce00 was not returned to mpool ucp_am_bufs
[1578650385.756261] [srl-adm2:44323:0]          mpool.c:38   UCX  WARN  object 0x1555393fdee0 was not returned to mpool mm_recv_desc
