 Data for JOB [23601,1] offset 0 Total slots allocated 2

 ========================   JOB MAP   ========================

 Data for node: n004	Num slots: 2	Max slots: 0	Num procs: 2
 	Process OMPI jobid: [23601,1] App: 0 Process rank: 0 Bound: socket 1[core 49[hwt 0-1]]:[../../../../../../../../../../../../../../../../../../../../../../../../../../../../../../../..][../../../../../../../../../../../../../../../../../BB/../../../../../../../../../../../../../..]
 	Process OMPI jobid: [23601,1] App: 0 Process rank: 1 Bound: socket 0[core 18[hwt 0-1]]:[../../../../../../../../../../../../../../../../../../BB/../../../../../../../../../../../../..][../../../../../../../../../../../../../../../../../../../../../../../../../../../../../../../..]

 =============================================================
dune-size 1 6.86271e-06 6.85641e-06 
dune-size 2 6.52141e-06 6.52591e-06 
dune-size 4 6.72601e-06 6.72471e-06 
dune-size 8 7.27581e-06 7.27281e-06 
dune-size 16 7.72191e-06 7.72701e-06 
dune-size 32 9.17521e-06 9.17621e-06 
dune-size 64 1.06388e-05 1.0638e-05 
dune-size 128 1.2722e-05 1.27189e-05 
dune-size 256 1.96248e-05 1.96197e-05 
dune-size 512 3.34781e-05 3.34819e-05 
dune-size 1024 0.000112177 0.000112149 
dune-size 2048 0.000208105 0.00020805 
dune-size 4096 0.000399658 0.000399639 
dune-size 8192 0.000671533 0.000671467 
dune-size 16384 0.00099153 0.000991494 
dune-size 32768 0.00169039 0.00169011 
dune-size 65536 0.00330446 0.00330185 
dune-size 131072 0.00651366 0.00650577 
dune-size 262144 0.0130269 0.0130125 
dune-size 524288 0.0257843 0.0257625 
dune-size 1048576 0.051162 0.0511395 
