 Data for JOB [17992,1] offset 0 Total slots allocated 2

 ========================   JOB MAP   ========================

 Data for node: n004	Num slots: 2	Max slots: 0	Num procs: 2
 	Process OMPI jobid: [17992,1] App: 0 Process rank: 0 Bound: socket 0[core 17[hwt 0-1]]:[../../../../../../../../../../../../../../../../../BB/../../../../../../../../../../../../../..][../../../../../../../../../../../../../../../../../../../../../../../../../../../../../../../..]
 	Process OMPI jobid: [17992,1] App: 0 Process rank: 1 Bound: socket 0[core 26[hwt 0-1]]:[../../../../../../../../../../../../../../../../../../../../../../../../../../BB/../../../../..][../../../../../../../../../../../../../../../../../../../../../../../../../../../../../../../..]

 =============================================================
dune-size 1 7.56001e-06 7.55351e-06 
dune-size 2 7.81681e-06 7.81231e-06 
dune-size 4 7.62081e-06 7.61311e-06 
dune-size 8 8.13011e-06 8.12131e-06 
dune-size 16 9.40661e-06 9.39801e-06 
dune-size 32 7.81611e-06 7.82141e-06 
dune-size 64 1.05806e-05 1.05967e-05 
dune-size 128 1.05297e-05 1.05312e-05 
dune-size 256 1.73661e-05 1.73635e-05 
dune-size 512 3.09631e-05 3.09699e-05 
dune-size 1024 8.64531e-05 8.64531e-05 
dune-size 2048 0.000163159 0.000163171 
dune-size 4096 0.000317408 0.000317423 
dune-size 8192 0.000510012 0.000510013 
dune-size 16384 0.000882171 0.000882194 
dune-size 32768 0.00162869 0.00162871 
dune-size 65536 0.00323009 0.00322929 
dune-size 131072 0.00637812 0.00639109 
dune-size 262144 0.0126848 0.0126831 
dune-size 524288 0.0252746 0.0252772 
dune-size 1048576 0.0503589 0.050371 
