 Data for JOB [34545,1] offset 0 Total slots allocated 4

 ========================   JOB MAP   ========================

 Data for node: n004	Num slots: 4	Max slots: 0	Num procs: 4
 	Process OMPI jobid: [34545,1] App: 0 Process rank: 0 Bound: socket 1[core 49[hwt 0-1]]:[../../../../../../../../../../../../../../../../../../../../../../../../../../../../../../../..][../../../../../../../../../../../../../../../../../BB/../../../../../../../../../../../../../..]
 	Process OMPI jobid: [34545,1] App: 0 Process rank: 1 Bound: socket 0[core 27[hwt 0-1]]:[../../../../../../../../../../../../../../../../../../../../../../../../../../../BB/../../../..][../../../../../../../../../../../../../../../../../../../../../../../../../../../../../../../..]
 	Process OMPI jobid: [34545,1] App: 0 Process rank: 2 Bound: socket 1[core 50[hwt 0-1]]:[../../../../../../../../../../../../../../../../../../../../../../../../../../../../../../../..][../../../../../../../../../../../../../../../../../../BB/../../../../../../../../../../../../..]
 	Process OMPI jobid: [34545,1] App: 0 Process rank: 3 Bound: socket 0[core 28[hwt 0-1]]:[../../../../../../../../../../../../../../../../../../../../../../../../../../../../BB/../../..][../../../../../../../../../../../../../../../../../../../../../../../../../../../../../../../..]

 =============================================================
2 3 3
Two group cota
1 0 0
3 2 2
0 1 1
dune-size 1 9.31821e-06 9.31551e-06 7.00801e-06 7.00441e-06 
dune-size 2 8.65421e-06 8.64831e-06 6.71461e-06 6.71171e-06 
dune-size 4 8.99411e-06 8.98301e-06 6.79771e-06 6.79241e-06 
dune-size 8 9.65041e-06 9.63841e-06 7.24921e-06 7.24261e-06 
dune-size 16 5.9479e-06 5.9471e-06 8.43941e-06 8.43081e-06 
dune-size 32 6.89331e-06 6.89081e-06 1.00117e-05 1.00041e-05 
dune-size 64 8.74881e-06 8.75091e-06 8.67461e-06 8.67581e-06 
dune-size 128 1.21638e-05 1.21643e-05 1.21259e-05 1.21231e-05 
dune-size 256 1.9426e-05 1.94195e-05 1.93667e-05 1.93553e-05 
dune-size 512 3.40855e-05 3.40732e-05 3.40853e-05 3.40845e-05 
dune-size 1024 0.000109281 0.000109258 0.000108823 0.000108814 
dune-size 2048 0.000208909 0.000208888 0.000205528 0.000205485 
dune-size 4096 0.000393943 0.000393921 0.000386764 0.000386753 
dune-size 8192 0.000658207 0.000658194 0.00065068 0.000650653 
dune-size 16384 0.000942135 0.000942068 0.000912338 0.000912318 
dune-size 32768 0.00166561 0.00166549 0.00164418 0.0016441 
dune-size 65536 0.00324931 0.00324759 0.00326153 0.00326024 
dune-size 131072 0.00657728 0.00656745 0.00658954 0.00657969 
