 Data for JOB [56136,1] offset 0 Total slots allocated 8

 ========================   JOB MAP   ========================

 Data for node: n003	Num slots: 8	Max slots: 0	Num procs: 8
 	Process OMPI jobid: [56136,1] App: 0 Process rank: 0 Bound: socket 0[core 0[hwt 0-1]]:[BB/../../../../../../../../../../../../../../../../../../../../../../../../../../../../../../..][../../../../../../../../../../../../../../../../../../../../../../../../../../../../../../../..]
 	Process OMPI jobid: [56136,1] App: 0 Process rank: 1 Bound: socket 0[core 1[hwt 0-1]]:[../BB/../../../../../../../../../../../../../../../../../../../../../../../../../../../../../..][../../../../../../../../../../../../../../../../../../../../../../../../../../../../../../../..]
 	Process OMPI jobid: [56136,1] App: 0 Process rank: 2 Bound: socket 0[core 2[hwt 0-1]]:[../../BB/../../../../../../../../../../../../../../../../../../../../../../../../../../../../..][../../../../../../../../../../../../../../../../../../../../../../../../../../../../../../../..]
 	Process OMPI jobid: [56136,1] App: 0 Process rank: 3 Bound: socket 0[core 3[hwt 0-1]]:[../../../BB/../../../../../../../../../../../../../../../../../../../../../../../../../../../..][../../../../../../../../../../../../../../../../../../../../../../../../../../../../../../../..]
 	Process OMPI jobid: [56136,1] App: 0 Process rank: 4 Bound: socket 1[core 52[hwt 0-1]]:[../../../../../../../../../../../../../../../../../../../../../../../../../../../../../../../..][../../../../../../../../../../../../../../../../../../../../BB/../../../../../../../../../../..]
 	Process OMPI jobid: [56136,1] App: 0 Process rank: 5 Bound: socket 1[core 53[hwt 0-1]]:[../../../../../../../../../../../../../../../../../../../../../../../../../../../../../../../..][../../../../../../../../../../../../../../../../../../../../../BB/../../../../../../../../../..]
 	Process OMPI jobid: [56136,1] App: 0 Process rank: 6 Bound: socket 1[core 54[hwt 0-1]]:[../../../../../../../../../../../../../../../../../../../../../../../../../../../../../../../..][../../../../../../../../../../../../../../../../../../../../../../BB/../../../../../../../../..]
 	Process OMPI jobid: [56136,1] App: 0 Process rank: 7 Bound: socket 1[core 55[hwt 0-1]]:[../../../../../../../../../../../../../../../../../../../../../../../../../../../../../../../..][../../../../../../../../../../../../../../../../../../../../../../../BB/../../../../../../../..]

 =============================================================
1 2 0
1 3 3
1 0 2
2 3 1
2 0 0
2 1 3
3 0 2
3 1 1
3 2 0
Two group cota
0 1 3
0 2 2
0 3 1
4 5 7
4 6 6
4 7 5
5 6 4
5 7 7
5 4 6
6 7 5
6 4 4
6 5 7
7 4 6
7 5 5
7 6 4
dune-size 1 1.16716e-05 1.00622e-05 1.08134e-05 1.02729e-05 8.80298e-06 7.20338e-06 8.81468e-06 7.40038e-06 
dune-size 2 6.59228e-06 6.59148e-06 6.59558e-06 6.58818e-06 6.50088e-06 6.50818e-06 6.50758e-06 6.50608e-06 
dune-size 4 3.02408e-05 3.00888e-05 3.0169e-05 3.01382e-05 1.00012e-05 1.00138e-05 1.00074e-05 1.00131e-05 
dune-size 8 5.07084e-05 5.05318e-05 5.05776e-05 5.06393e-05 7.55459e-06 7.58449e-06 7.56079e-06 7.58339e-06 
dune-size 16 6.57325e-05 6.55553e-05 6.55778e-05 6.5664e-05 8.68549e-06 8.73289e-06 8.71539e-06 8.72229e-06 
dune-size 32 8.61792e-05 8.60901e-05 8.59216e-05 8.60559e-05 1.09507e-05 1.09828e-05 1.09734e-05 1.09773e-05 
dune-size 64 2.19647e-05 2.17454e-05 2.18086e-05 2.18729e-05 1.58775e-05 1.58769e-05 1.58716e-05 1.58822e-05 
dune-size 128 0.000201266 0.00020164 0.000201146 0.000201447 2.50774e-05 2.50244e-05 2.50539e-05 2.50553e-05 
dune-size 256 0.000320111 0.000320095 0.000320087 0.000320096 4.33351e-05 4.33157e-05 4.32981e-05 4.33526e-05 
dune-size 512 0.000456833 0.000456752 0.000456749 0.000456765 7.99155e-05 7.99184e-05 7.99017e-05 7.99416e-05 
dune-size 1024 0.000750579 0.000750142 0.000750369 0.00075014 0.000167656 0.00016766 0.000168064 0.000167887 
dune-size 2048 0.00152338 0.00152104 0.00151853 0.001515 0.000318389 0.00031924 0.00031838 0.000318828 
dune-size 4096 0.00352845 0.00351495 0.00350727 0.00352243 0.000616351 0.000618003 0.0006172 0.000616349 
dune-size 8192 0.00582639 0.00581776 0.00581128 0.00581044 0.00119239 0.00119089 0.00119271 0.00119088 
dune-size 16384 0.0118058 0.0118028 0.0117992 0.011799 0.00236785 0.00236699 0.00236495 0.00236509 
dune-size 32768 0.0240954 0.0240871 0.024037 0.0240802 0.00482376 0.0048294 0.00482244 0.00482245 
dune-size 65536 0.0441321 0.0437431 0.0435233 0.0435125 0.00966916 0.00970826 0.00968261 0.00966504 
dune-size 131072 0.0982955 0.0968236 0.0942554 0.0952857 0.0194465 0.0194479 0.019444 0.0194165 
