 Data for JOB [2941,1] offset 0 Total slots allocated 1

 ========================   JOB MAP   ========================

 Data for node: srl-mds1	Num slots: 1	Max slots: 0	Num procs: 1
 	Process OMPI jobid: [2941,1] App: 0 Process rank: 0 Bound: socket 0[core 0[hwt 0-1]]:[BB/../../../../../../../../../../../../../../..][../../../../../../../../../../../../../../../..]

 =============================================================
[1578561944.764536] [srl-mds1:41046:0]         mxm.c:196  MXM  WARN  The 'ulimit -s' on the system is set to 'unlimited'. This may have negative performance implications. Please set the stack size to the default value (10240) 
0: 11 

Rank 0 ghostCells: 0

Rank 0 numCells: 355407

Rank 0 interiorCells: 355407

MeasComm+1 1: 1.02e-06 
MeasComm+1 1: 1e-06 
MeasComm+1 1: 1.078e-06 
MeasComm+1 1: 1.045e-06 
MeasComm+1 1: 1.045e-06 
MeasComm+1 1: 1.062e-06 
MeasComm+1 1: 1.033e-06 
MeasComm+1 1: 1.062e-06 
MeasComm+1 1: 1.014e-06 
MeasComm+1 1: 1.079e-06 

ComTab rank 0: 0 

Edge-cut: 0

Wgt-cut: 0

