 Data for JOB [34743,1] offset 0 Total slots allocated 16

 ========================   JOB MAP   ========================

 Data for node: srl-login1	Num slots: 16	Max slots: 0	Num procs: 16
 	Process OMPI jobid: [34743,1] App: 0 Process rank: 0 Bound: socket 0[core 0[hwt 0-1]]:[BB/../../../../../../../../../../../../../../..][../../../../../../../../../../../../../../../..]
 	Process OMPI jobid: [34743,1] App: 0 Process rank: 1 Bound: socket 0[core 1[hwt 0-1]]:[../BB/../../../../../../../../../../../../../..][../../../../../../../../../../../../../../../..]
 	Process OMPI jobid: [34743,1] App: 0 Process rank: 2 Bound: socket 0[core 2[hwt 0-1]]:[../../BB/../../../../../../../../../../../../..][../../../../../../../../../../../../../../../..]
 	Process OMPI jobid: [34743,1] App: 0 Process rank: 3 Bound: socket 0[core 3[hwt 0-1]]:[../../../BB/../../../../../../../../../../../..][../../../../../../../../../../../../../../../..]
 	Process OMPI jobid: [34743,1] App: 0 Process rank: 4 Bound: socket 0[core 8[hwt 0-1]]:[../../../../../../../../BB/../../../../../../..][../../../../../../../../../../../../../../../..]
 	Process OMPI jobid: [34743,1] App: 0 Process rank: 5 Bound: socket 0[core 9[hwt 0-1]]:[../../../../../../../../../BB/../../../../../..][../../../../../../../../../../../../../../../..]
 	Process OMPI jobid: [34743,1] App: 0 Process rank: 6 Bound: socket 0[core 10[hwt 0-1]]:[../../../../../../../../../../BB/../../../../..][../../../../../../../../../../../../../../../..]
 	Process OMPI jobid: [34743,1] App: 0 Process rank: 7 Bound: socket 0[core 11[hwt 0-1]]:[../../../../../../../../../../../BB/../../../..][../../../../../../../../../../../../../../../..]
 	Process OMPI jobid: [34743,1] App: 0 Process rank: 8 Bound: socket 1[core 16[hwt 0-1]]:[../../../../../../../../../../../../../../../..][BB/../../../../../../../../../../../../../../..]
 	Process OMPI jobid: [34743,1] App: 0 Process rank: 9 Bound: socket 1[core 17[hwt 0-1]]:[../../../../../../../../../../../../../../../..][../BB/../../../../../../../../../../../../../..]
 	Process OMPI jobid: [34743,1] App: 0 Process rank: 10 Bound: socket 1[core 18[hwt 0-1]]:[../../../../../../../../../../../../../../../..][../../BB/../../../../../../../../../../../../..]
 	Process OMPI jobid: [34743,1] App: 0 Process rank: 11 Bound: socket 1[core 19[hwt 0-1]]:[../../../../../../../../../../../../../../../..][../../../BB/../../../../../../../../../../../..]
 	Process OMPI jobid: [34743,1] App: 0 Process rank: 12 Bound: socket 1[core 24[hwt 0-1]]:[../../../../../../../../../../../../../../../..][../../../../../../../../BB/../../../../../../..]
 	Process OMPI jobid: [34743,1] App: 0 Process rank: 13 Bound: socket 1[core 25[hwt 0-1]]:[../../../../../../../../../../../../../../../..][../../../../../../../../../BB/../../../../../..]
 	Process OMPI jobid: [34743,1] App: 0 Process rank: 14 Bound: socket 1[core 26[hwt 0-1]]:[../../../../../../../../../../../../../../../..][../../../../../../../../../../BB/../../../../..]
 	Process OMPI jobid: [34743,1] App: 0 Process rank: 15 Bound: socket 1[core 27[hwt 0-1]]:[../../../../../../../../../../../../../../../..][../../../../../../../../../../../BB/../../../..]

 =============================================================
[1578647097.398781] [srl-login1:57341:0]         mxm.c:196  MXM  WARN  The 'ulimit -s' on the system is set to 'unlimited'. This may have negative performance implications. Please set the stack size to the default value (10240) 
[1578647097.398676] [srl-login1:57356:0]         mxm.c:196  MXM  WARN  The 'ulimit -s' on the system is set to 'unlimited'. This may have negative performance implications. Please set the stack size to the default value (10240) 
[1578647097.400604] [srl-login1:57353:0]         mxm.c:196  MXM  WARN  The 'ulimit -s' on the system is set to 'unlimited'. This may have negative performance implications. Please set the stack size to the default value (10240) 
[1578647097.400702] [srl-login1:57351:0]         mxm.c:196  MXM  WARN  The 'ulimit -s' on the system is set to 'unlimited'. This may have negative performance implications. Please set the stack size to the default value (10240) 
[1578647097.402814] [srl-login1:57344:0]         mxm.c:196  MXM  WARN  The 'ulimit -s' on the system is set to 'unlimited'. This may have negative performance implications. Please set the stack size to the default value (10240) 
[1578647097.403446] [srl-login1:57343:0]         mxm.c:196  MXM  WARN  The 'ulimit -s' on the system is set to 'unlimited'. This may have negative performance implications. Please set the stack size to the default value (10240) 
[1578647097.403810] [srl-login1:57354:0]         mxm.c:196  MXM  WARN  The 'ulimit -s' on the system is set to 'unlimited'. This may have negative performance implications. Please set the stack size to the default value (10240) 
[1578647097.404206] [srl-login1:57342:0]         mxm.c:196  MXM  WARN  The 'ulimit -s' on the system is set to 'unlimited'. This may have negative performance implications. Please set the stack size to the default value (10240) 
[1578647097.404745] [srl-login1:57345:0]         mxm.c:196  MXM  WARN  The 'ulimit -s' on the system is set to 'unlimited'. This may have negative performance implications. Please set the stack size to the default value (10240) 
[1578647097.404843] [srl-login1:57348:0]         mxm.c:196  MXM  WARN  The 'ulimit -s' on the system is set to 'unlimited'. This may have negative performance implications. Please set the stack size to the default value (10240) 
[1578647097.407442] [srl-login1:57350:0]         mxm.c:196  MXM  WARN  The 'ulimit -s' on the system is set to 'unlimited'. This may have negative performance implications. Please set the stack size to the default value (10240) 
[1578647097.407324] [srl-login1:57355:0]         mxm.c:196  MXM  WARN  The 'ulimit -s' on the system is set to 'unlimited'. This may have negative performance implications. Please set the stack size to the default value (10240) 
[1578647097.407733] [srl-login1:57352:0]         mxm.c:196  MXM  WARN  The 'ulimit -s' on the system is set to 'unlimited'. This may have negative performance implications. Please set the stack size to the default value (10240) 
[1578647097.408473] [srl-login1:57349:0]         mxm.c:196  MXM  WARN  The 'ulimit -s' on the system is set to 'unlimited'. This may have negative performance implications. Please set the stack size to the default value (10240) 
[1578647097.408564] [srl-login1:57346:0]         mxm.c:196  MXM  WARN  The 'ulimit -s' on the system is set to 'unlimited'. This may have negative performance implications. Please set the stack size to the default value (10240) 
[1578647097.408717] [srl-login1:57347:0]         mxm.c:196  MXM  WARN  The 'ulimit -s' on the system is set to 'unlimited'. This may have negative performance implications. Please set the stack size to the default value (10240) 
0: 11 
Edge Weight Method: 11
Cell on rank 0: 22163
Cell on rank 1: 24382
Cell on rank 2: 21631
Cell on rank 3: 22684
Cell on rank 4: 23476
Cell on rank 5: 20192
Cell on rank 6: 22945
Cell on rank 7: 20509
Cell on rank 8: 20414
Cell on rank 9: 21580
Cell on rank 10: 24435
Cell on rank 11: 21436
Cell on rank 12: 21834
Cell on rank 13: 22386
Cell on rank 14: 24067
Cell on rank 15: 21273
Edge-cut: 347888184

Rank 0 ghostCells: 4977
Rank 1 ghostCells: 4718
Rank 2 ghostCells: 3253
Rank 3 ghostCells: 2517
Rank 4 ghostCells: 7070
Rank 5 ghostCells: 8883
Rank 6 ghostCells: 5229
Rank 7 ghostCells: 5141
Rank 8 ghostCells: 3715
Rank 9 ghostCells: 4738
Rank 10 ghostCells: 2228
Rank 11 ghostCells: 1706
Rank 12 ghostCells: 1743
Rank 13 ghostCells: 902
Rank 14 ghostCells: 2870
Rank 15 ghostCells: 3537

Rank 0 numCells: 27140
Rank 1 numCells: 29100
Rank 2 numCells: 24884
Rank 3 numCells: 25201
Rank 4 numCells: 30546
Rank 5 numCells: 29075
Rank 6 numCells: 28174
Rank 7 numCells: 25650
Rank 8 numCells: 24129
Rank 9 numCells: 26318
Rank 10 numCells: 26663
Rank 11 numCells: 23142
Rank 12 numCells: 23577
Rank 13 numCells: 23288
Rank 14 numCells: 26937
Rank 15 numCells: 24810

Rank 0 interiorCells: 22163
Rank 1 interiorCells: 24382
Rank 2 interiorCells: 21631
Rank 3 interiorCells: 22684
Rank 4 interiorCells: 23476
Rank 5 interiorCells: 20192
Rank 6 interiorCells: 22945
Rank 7 interiorCells: 20509
Rank 8 interiorCells: 20414
Rank 9 interiorCells: 21580
Rank 10 interiorCells: 24435
Rank 11 interiorCells: 21436
Rank 12 interiorCells: 21834
Rank 13 interiorCells: 22386
Rank 14 interiorCells: 24067
Rank 15 interiorCells: 21273

MeasComm+1 16: 0.000221284 0.000214082 0.000155617 0.000147631 0.000296564 0.000350201 0.000259029 0.000254902 0.000181848 0.000218877 0.000141341 0.000142186 0.000108726 6.3472e-05 0.000150485 0.000207636 
MeasComm+1 16: 0.000218885 0.00021394 0.000156854 0.000147602 0.000296442 0.000350612 0.00026233 0.00025475 0.000182649 0.000220061 0.000142527 0.000141303 0.000108257 7.3726e-05 0.000151245 0.000207442 
MeasComm+1 16: 0.000218139 0.000213759 0.000155039 0.000147807 0.000297002 0.000350552 0.000257262 0.000253899 0.0001825 0.000219859 0.000141778 0.000141232 0.000108144 7.3584e-05 0.000149975 0.000207462 
MeasComm+1 16: 0.000218805 0.000213429 0.000154928 0.000147029 0.000296764 0.000349557 0.000248718 0.00025417 0.000181563 0.00021954 0.000142348 0.000141484 0.000107911 7.3522e-05 0.000151194 0.000207274 
MeasComm+1 16: 0.000219288 0.000214312 0.000153996 0.000145392 0.000296721 0.000349946 0.000261877 0.000254414 0.00018302 0.000219405 0.000131693 0.000141712 0.000107854 7.3539e-05 0.000151216 0.00020735 
MeasComm+1 16: 0.000219493 0.000214021 0.000155144 0.000148117 0.000296827 0.000350045 0.000258414 0.000254897 0.000169291 0.000200868 0.000131976 0.000141046 9.9813e-05 6.833e-05 0.000138672 0.000206631 
MeasComm+1 16: 0.000218169 0.000214078 0.000154644 0.000115279 0.0002962 0.000350439 0.000255755 0.000255701 0.000183291 0.000219982 0.000142115 0.000141697 0.000108044 7.334e-05 0.000151114 0.000207248 
MeasComm+1 16: 0.000218491 0.000214318 0.000155899 0.000146038 0.000297926 0.000350297 0.000256688 0.000254768 0.000170092 0.000201784 0.000131808 0.000141072 9.9309e-05 5.4988e-05 0.000138871 0.000207065 
MeasComm+1 16: 0.000219328 0.000213533 0.000155084 0.000147916 0.000297593 0.000350446 0.000255679 0.000254759 0.000170073 0.000202934 0.000131914 0.000141253 9.954e-05 6.7926e-05 0.000139951 0.000207292 
MeasComm+1 16: 0.000219706 0.000214517 0.00015316 0.000147312 0.000296684 0.000350806 0.00025082 0.000255036 0.000169166 0.000202382 0.000130258 0.000140925 9.9429e-05 6.014e-05 0.000139608 0.00020711 

ComTab rank 0: 0 2243 1277 866 401 52 0 191 0 0 0 211 0 0 0 0 
ComTab rank 1: 2268 0 548 0 1225 610 0 510 0 0 0 0 0 0 0 0 
ComTab rank 2: 1275 568 0 1494 0 0 0 12 0 0 0 99 0 0 0 0 
ComTab rank 3: 853 0 1541 0 0 0 0 0 0 0 0 220 0 0 0 0 
ComTab rank 4: 400 1242 0 0 0 4489 193 1532 0 0 0 0 0 0 0 83 
ComTab rank 5: 51 566 0 0 4659 0 1974 2428 0 0 0 0 0 0 0 187 
ComTab rank 6: 0 0 0 0 169 1835 0 498 67 1803 0 0 0 0 214 1169 
ComTab rank 7: 187 510 18 0 1458 2237 489 0 0 0 0 115 0 0 0 1044 
ComTab rank 8: 0 0 0 0 0 0 97 0 0 2296 1260 0 19 0 221 0 
ComTab rank 9: 0 0 0 0 0 0 1790 0 2306 0 502 100 0 0 248 0 
ComTab rank 10: 0 0 0 0 0 0 0 0 1229 468 0 605 0 0 0 0 
ComTab rank 11: 209 0 141 220 0 0 0 112 0 99 603 0 61 152 0 144 
ComTab rank 12: 0 0 0 0 0 0 0 0 24 0 0 43 0 723 942 51 
ComTab rank 13: 0 0 0 0 0 0 0 0 0 0 0 152 752 0 0 0 
ComTab rank 14: 0 0 0 0 0 0 210 0 237 258 0 0 935 0 0 1394 
ComTab rank 15: 0 0 0 0 75 164 1022 1053 0 0 0 142 34 0 1387 0 

Edge-cut: 52073

Wgt-cut: 3.78565e-07

[1578647130.893716] [srl-login1:57343:0]          mpool.c:38   UCX  WARN  object 0x55555c4bdfc0 was not returned to mpool ucp_am_bufs
[1578647130.944787] [srl-login1:57342:0]          mpool.c:38   UCX  WARN  object 0x555562c355c0 was not returned to mpool ucp_am_bufs
[1578647130.945108] [srl-login1:57349:0]          mpool.c:38   UCX  WARN  object 0x155544106860 was not returned to mpool mm_recv_desc
[1578647130.944981] [srl-login1:57345:0]          mpool.c:38   UCX  WARN  object 0x55555b83b700 was not returned to mpool ucp_am_bufs
