 Data for JOB [4643,1] offset 0 Total slots allocated 64

 ========================   JOB MAP   ========================

 Data for node: n003	Num slots: 32	Max slots: 0	Num procs: 32
 	Process OMPI jobid: [4643,1] App: 0 Process rank: 0 Bound: socket 0[core 0[hwt 0-1]]:[BB/../../../../../../../../../../../../../../../../../../../../../../../../../../../../../../..][../../../../../../../../../../../../../../../../../../../../../../../../../../../../../../../..]
 	Process OMPI jobid: [4643,1] App: 0 Process rank: 1 Bound: socket 0[core 1[hwt 0-1]]:[../BB/../../../../../../../../../../../../../../../../../../../../../../../../../../../../../..][../../../../../../../../../../../../../../../../../../../../../../../../../../../../../../../..]
 	Process OMPI jobid: [4643,1] App: 0 Process rank: 2 Bound: socket 0[core 2[hwt 0-1]]:[../../BB/../../../../../../../../../../../../../../../../../../../../../../../../../../../../..][../../../../../../../../../../../../../../../../../../../../../../../../../../../../../../../..]
 	Process OMPI jobid: [4643,1] App: 0 Process rank: 3 Bound: socket 0[core 3[hwt 0-1]]:[../../../BB/../../../../../../../../../../../../../../../../../../../../../../../../../../../..][../../../../../../../../../../../../../../../../../../../../../../../../../../../../../../../..]
 	Process OMPI jobid: [4643,1] App: 0 Process rank: 4 Bound: socket 0[core 4[hwt 0-1]]:[../../../../BB/../../../../../../../../../../../../../../../../../../../../../../../../../../..][../../../../../../../../../../../../../../../../../../../../../../../../../../../../../../../..]
 	Process OMPI jobid: [4643,1] App: 0 Process rank: 5 Bound: socket 0[core 5[hwt 0-1]]:[../../../../../BB/../../../../../../../../../../../../../../../../../../../../../../../../../..][../../../../../../../../../../../../../../../../../../../../../../../../../../../../../../../..]
 	Process OMPI jobid: [4643,1] App: 0 Process rank: 6 Bound: socket 0[core 6[hwt 0-1]]:[../../../../../../BB/../../../../../../../../../../../../../../../../../../../../../../../../..][../../../../../../../../../../../../../../../../../../../../../../../../../../../../../../../..]
 	Process OMPI jobid: [4643,1] App: 0 Process rank: 7 Bound: socket 0[core 7[hwt 0-1]]:[../../../../../../../BB/../../../../../../../../../../../../../../../../../../../../../../../..][../../../../../../../../../../../../../../../../../../../../../../../../../../../../../../../..]
 	Process OMPI jobid: [4643,1] App: 0 Process rank: 8 Bound: socket 0[core 8[hwt 0-1]]:[../../../../../../../../BB/../../../../../../../../../../../../../../../../../../../../../../..][../../../../../../../../../../../../../../../../../../../../../../../../../../../../../../../..]
 	Process OMPI jobid: [4643,1] App: 0 Process rank: 9 Bound: socket 0[core 9[hwt 0-1]]:[../../../../../../../../../BB/../../../../../../../../../../../../../../../../../../../../../..][../../../../../../../../../../../../../../../../../../../../../../../../../../../../../../../..]
 	Process OMPI jobid: [4643,1] App: 0 Process rank: 10 Bound: socket 0[core 10[hwt 0-1]]:[../../../../../../../../../../BB/../../../../../../../../../../../../../../../../../../../../..][../../../../../../../../../../../../../../../../../../../../../../../../../../../../../../../..]
 	Process OMPI jobid: [4643,1] App: 0 Process rank: 11 Bound: socket 0[core 11[hwt 0-1]]:[../../../../../../../../../../../BB/../../../../../../../../../../../../../../../../../../../..][../../../../../../../../../../../../../../../../../../../../../../../../../../../../../../../..]
 	Process OMPI jobid: [4643,1] App: 0 Process rank: 12 Bound: socket 0[core 12[hwt 0-1]]:[../../../../../../../../../../../../BB/../../../../../../../../../../../../../../../../../../..][../../../../../../../../../../../../../../../../../../../../../../../../../../../../../../../..]
 	Process OMPI jobid: [4643,1] App: 0 Process rank: 13 Bound: socket 0[core 13[hwt 0-1]]:[../../../../../../../../../../../../../BB/../../../../../../../../../../../../../../../../../..][../../../../../../../../../../../../../../../../../../../../../../../../../../../../../../../..]
 	Process OMPI jobid: [4643,1] App: 0 Process rank: 14 Bound: socket 0[core 14[hwt 0-1]]:[../../../../../../../../../../../../../../BB/../../../../../../../../../../../../../../../../..][../../../../../../../../../../../../../../../../../../../../../../../../../../../../../../../..]
 	Process OMPI jobid: [4643,1] App: 0 Process rank: 15 Bound: socket 0[core 15[hwt 0-1]]:[../../../../../../../../../../../../../../../BB/../../../../../../../../../../../../../../../..][../../../../../../../../../../../../../../../../../../../../../../../../../../../../../../../..]
 	Process OMPI jobid: [4643,1] App: 0 Process rank: 16 Bound: socket 0[core 16[hwt 0-1]]:[../../../../../../../../../../../../../../../../BB/../../../../../../../../../../../../../../..][../../../../../../../../../../../../../../../../../../../../../../../../../../../../../../../..]
 	Process OMPI jobid: [4643,1] App: 0 Process rank: 17 Bound: socket 0[core 17[hwt 0-1]]:[../../../../../../../../../../../../../../../../../BB/../../../../../../../../../../../../../..][../../../../../../../../../../../../../../../../../../../../../../../../../../../../../../../..]
 	Process OMPI jobid: [4643,1] App: 0 Process rank: 18 Bound: socket 0[core 18[hwt 0-1]]:[../../../../../../../../../../../../../../../../../../BB/../../../../../../../../../../../../..][../../../../../../../../../../../../../../../../../../../../../../../../../../../../../../../..]
 	Process OMPI jobid: [4643,1] App: 0 Process rank: 19 Bound: socket 0[core 19[hwt 0-1]]:[../../../../../../../../../../../../../../../../../../../BB/../../../../../../../../../../../..][../../../../../../../../../../../../../../../../../../../../../../../../../../../../../../../..]
 	Process OMPI jobid: [4643,1] App: 0 Process rank: 20 Bound: socket 0[core 20[hwt 0-1]]:[../../../../../../../../../../../../../../../../../../../../BB/../../../../../../../../../../..][../../../../../../../../../../../../../../../../../../../../../../../../../../../../../../../..]
 	Process OMPI jobid: [4643,1] App: 0 Process rank: 21 Bound: socket 0[core 21[hwt 0-1]]:[../../../../../../../../../../../../../../../../../../../../../BB/../../../../../../../../../..][../../../../../../../../../../../../../../../../../../../../../../../../../../../../../../../..]
 	Process OMPI jobid: [4643,1] App: 0 Process rank: 22 Bound: socket 0[core 22[hwt 0-1]]:[../../../../../../../../../../../../../../../../../../../../../../BB/../../../../../../../../..][../../../../../../../../../../../../../../../../../../../../../../../../../../../../../../../..]
 	Process OMPI jobid: [4643,1] App: 0 Process rank: 23 Bound: socket 0[core 23[hwt 0-1]]:[../../../../../../../../../../../../../../../../../../../../../../../BB/../../../../../../../..][../../../../../../../../../../../../../../../../../../../../../../../../../../../../../../../..]
 	Process OMPI jobid: [4643,1] App: 0 Process rank: 24 Bound: socket 0[core 24[hwt 0-1]]:[../../../../../../../../../../../../../../../../../../../../../../../../BB/../../../../../../..][../../../../../../../../../../../../../../../../../../../../../../../../../../../../../../../..]
 	Process OMPI jobid: [4643,1] App: 0 Process rank: 25 Bound: socket 0[core 25[hwt 0-1]]:[../../../../../../../../../../../../../../../../../../../../../../../../../BB/../../../../../..][../../../../../../../../../../../../../../../../../../../../../../../../../../../../../../../..]
 	Process OMPI jobid: [4643,1] App: 0 Process rank: 26 Bound: socket 0[core 26[hwt 0-1]]:[../../../../../../../../../../../../../../../../../../../../../../../../../../BB/../../../../..][../../../../../../../../../../../../../../../../../../../../../../../../../../../../../../../..]
 	Process OMPI jobid: [4643,1] App: 0 Process rank: 27 Bound: socket 0[core 27[hwt 0-1]]:[../../../../../../../../../../../../../../../../../../../../../../../../../../../BB/../../../..][../../../../../../../../../../../../../../../../../../../../../../../../../../../../../../../..]
 	Process OMPI jobid: [4643,1] App: 0 Process rank: 28 Bound: socket 0[core 28[hwt 0-1]]:[../../../../../../../../../../../../../../../../../../../../../../../../../../../../BB/../../..][../../../../../../../../../../../../../../../../../../../../../../../../../../../../../../../..]
 	Process OMPI jobid: [4643,1] App: 0 Process rank: 29 Bound: socket 0[core 29[hwt 0-1]]:[../../../../../../../../../../../../../../../../../../../../../../../../../../../../../BB/../..][../../../../../../../../../../../../../../../../../../../../../../../../../../../../../../../..]
 	Process OMPI jobid: [4643,1] App: 0 Process rank: 30 Bound: socket 0[core 30[hwt 0-1]]:[../../../../../../../../../../../../../../../../../../../../../../../../../../../../../../BB/..][../../../../../../../../../../../../../../../../../../../../../../../../../../../../../../../..]
 	Process OMPI jobid: [4643,1] App: 0 Process rank: 31 Bound: socket 0[core 31[hwt 0-1]]:[../../../../../../../../../../../../../../../../../../../../../../../../../../../../../../../BB][../../../../../../../../../../../../../../../../../../../../../../../../../../../../../../../..]

 Data for node: n004	Num slots: 32	Max slots: 0	Num procs: 32
 	Process OMPI jobid: [4643,1] App: 0 Process rank: 32 Bound: socket 0[core 0[hwt 0-1]]:[BB/../../../../../../../../../../../../../../../../../../../../../../../../../../../../../../..][../../../../../../../../../../../../../../../../../../../../../../../../../../../../../../../..]
 	Process OMPI jobid: [4643,1] App: 0 Process rank: 33 Bound: socket 0[core 1[hwt 0-1]]:[../BB/../../../../../../../../../../../../../../../../../../../../../../../../../../../../../..][../../../../../../../../../../../../../../../../../../../../../../../../../../../../../../../..]
 	Process OMPI jobid: [4643,1] App: 0 Process rank: 34 Bound: socket 0[core 2[hwt 0-1]]:[../../BB/../../../../../../../../../../../../../../../../../../../../../../../../../../../../..][../../../../../../../../../../../../../../../../../../../../../../../../../../../../../../../..]
 	Process OMPI jobid: [4643,1] App: 0 Process rank: 35 Bound: socket 0[core 3[hwt 0-1]]:[../../../BB/../../../../../../../../../../../../../../../../../../../../../../../../../../../..][../../../../../../../../../../../../../../../../../../../../../../../../../../../../../../../..]
 	Process OMPI jobid: [4643,1] App: 0 Process rank: 36 Bound: socket 0[core 4[hwt 0-1]]:[../../../../BB/../../../../../../../../../../../../../../../../../../../../../../../../../../..][../../../../../../../../../../../../../../../../../../../../../../../../../../../../../../../..]
 	Process OMPI jobid: [4643,1] App: 0 Process rank: 37 Bound: socket 0[core 5[hwt 0-1]]:[../../../../../BB/../../../../../../../../../../../../../../../../../../../../../../../../../..][../../../../../../../../../../../../../../../../../../../../../../../../../../../../../../../..]
 	Process OMPI jobid: [4643,1] App: 0 Process rank: 38 Bound: socket 0[core 6[hwt 0-1]]:[../../../../../../BB/../../../../../../../../../../../../../../../../../../../../../../../../..][../../../../../../../../../../../../../../../../../../../../../../../../../../../../../../../..]
 	Process OMPI jobid: [4643,1] App: 0 Process rank: 39 Bound: socket 0[core 7[hwt 0-1]]:[../../../../../../../BB/../../../../../../../../../../../../../../../../../../../../../../../..][../../../../../../../../../../../../../../../../../../../../../../../../../../../../../../../..]
 	Process OMPI jobid: [4643,1] App: 0 Process rank: 40 Bound: socket 0[core 8[hwt 0-1]]:[../../../../../../../../BB/../../../../../../../../../../../../../../../../../../../../../../..][../../../../../../../../../../../../../../../../../../../../../../../../../../../../../../../..]
 	Process OMPI jobid: [4643,1] App: 0 Process rank: 41 Bound: socket 0[core 9[hwt 0-1]]:[../../../../../../../../../BB/../../../../../../../../../../../../../../../../../../../../../..][../../../../../../../../../../../../../../../../../../../../../../../../../../../../../../../..]
 	Process OMPI jobid: [4643,1] App: 0 Process rank: 42 Bound: socket 0[core 10[hwt 0-1]]:[../../../../../../../../../../BB/../../../../../../../../../../../../../../../../../../../../..][../../../../../../../../../../../../../../../../../../../../../../../../../../../../../../../..]
 	Process OMPI jobid: [4643,1] App: 0 Process rank: 43 Bound: socket 0[core 11[hwt 0-1]]:[../../../../../../../../../../../BB/../../../../../../../../../../../../../../../../../../../..][../../../../../../../../../../../../../../../../../../../../../../../../../../../../../../../..]
 	Process OMPI jobid: [4643,1] App: 0 Process rank: 44 Bound: socket 0[core 12[hwt 0-1]]:[../../../../../../../../../../../../BB/../../../../../../../../../../../../../../../../../../..][../../../../../../../../../../../../../../../../../../../../../../../../../../../../../../../..]
 	Process OMPI jobid: [4643,1] App: 0 Process rank: 45 Bound: socket 0[core 13[hwt 0-1]]:[../../../../../../../../../../../../../BB/../../../../../../../../../../../../../../../../../..][../../../../../../../../../../../../../../../../../../../../../../../../../../../../../../../..]
 	Process OMPI jobid: [4643,1] App: 0 Process rank: 46 Bound: socket 0[core 14[hwt 0-1]]:[../../../../../../../../../../../../../../BB/../../../../../../../../../../../../../../../../..][../../../../../../../../../../../../../../../../../../../../../../../../../../../../../../../..]
 	Process OMPI jobid: [4643,1] App: 0 Process rank: 47 Bound: socket 0[core 15[hwt 0-1]]:[../../../../../../../../../../../../../../../BB/../../../../../../../../../../../../../../../..][../../../../../../../../../../../../../../../../../../../../../../../../../../../../../../../..]
 	Process OMPI jobid: [4643,1] App: 0 Process rank: 48 Bound: socket 0[core 16[hwt 0-1]]:[../../../../../../../../../../../../../../../../BB/../../../../../../../../../../../../../../..][../../../../../../../../../../../../../../../../../../../../../../../../../../../../../../../..]
 	Process OMPI jobid: [4643,1] App: 0 Process rank: 49 Bound: socket 0[core 17[hwt 0-1]]:[../../../../../../../../../../../../../../../../../BB/../../../../../../../../../../../../../..][../../../../../../../../../../../../../../../../../../../../../../../../../../../../../../../..]
 	Process OMPI jobid: [4643,1] App: 0 Process rank: 50 Bound: socket 0[core 18[hwt 0-1]]:[../../../../../../../../../../../../../../../../../../BB/../../../../../../../../../../../../..][../../../../../../../../../../../../../../../../../../../../../../../../../../../../../../../..]
 	Process OMPI jobid: [4643,1] App: 0 Process rank: 51 Bound: socket 0[core 19[hwt 0-1]]:[../../../../../../../../../../../../../../../../../../../BB/../../../../../../../../../../../..][../../../../../../../../../../../../../../../../../../../../../../../../../../../../../../../..]
 	Process OMPI jobid: [4643,1] App: 0 Process rank: 52 Bound: socket 0[core 20[hwt 0-1]]:[../../../../../../../../../../../../../../../../../../../../BB/../../../../../../../../../../..][../../../../../../../../../../../../../../../../../../../../../../../../../../../../../../../..]
 	Process OMPI jobid: [4643,1] App: 0 Process rank: 53 Bound: socket 0[core 21[hwt 0-1]]:[../../../../../../../../../../../../../../../../../../../../../BB/../../../../../../../../../..][../../../../../../../../../../../../../../../../../../../../../../../../../../../../../../../..]
 	Process OMPI jobid: [4643,1] App: 0 Process rank: 54 Bound: socket 0[core 22[hwt 0-1]]:[../../../../../../../../../../../../../../../../../../../../../../BB/../../../../../../../../..][../../../../../../../../../../../../../../../../../../../../../../../../../../../../../../../..]
 	Process OMPI jobid: [4643,1] App: 0 Process rank: 55 Bound: socket 0[core 23[hwt 0-1]]:[../../../../../../../../../../../../../../../../../../../../../../../BB/../../../../../../../..][../../../../../../../../../../../../../../../../../../../../../../../../../../../../../../../..]
 	Process OMPI jobid: [4643,1] App: 0 Process rank: 56 Bound: socket 0[core 24[hwt 0-1]]:[../../../../../../../../../../../../../../../../../../../../../../../../BB/../../../../../../..][../../../../../../../../../../../../../../../../../../../../../../../../../../../../../../../..]
 	Process OMPI jobid: [4643,1] App: 0 Process rank: 57 Bound: socket 0[core 25[hwt 0-1]]:[../../../../../../../../../../../../../../../../../../../../../../../../../BB/../../../../../..][../../../../../../../../../../../../../../../../../../../../../../../../../../../../../../../..]
 	Process OMPI jobid: [4643,1] App: 0 Process rank: 58 Bound: socket 0[core 26[hwt 0-1]]:[../../../../../../../../../../../../../../../../../../../../../../../../../../BB/../../../../..][../../../../../../../../../../../../../../../../../../../../../../../../../../../../../../../..]
 	Process OMPI jobid: [4643,1] App: 0 Process rank: 59 Bound: socket 0[core 27[hwt 0-1]]:[../../../../../../../../../../../../../../../../../../../../../../../../../../../BB/../../../..][../../../../../../../../../../../../../../../../../../../../../../../../../../../../../../../..]
 	Process OMPI jobid: [4643,1] App: 0 Process rank: 60 Bound: socket 0[core 28[hwt 0-1]]:[../../../../../../../../../../../../../../../../../../../../../../../../../../../../BB/../../..][../../../../../../../../../../../../../../../../../../../../../../../../../../../../../../../..]
 	Process OMPI jobid: [4643,1] App: 0 Process rank: 61 Bound: socket 0[core 29[hwt 0-1]]:[../../../../../../../../../../../../../../../../../../../../../../../../../../../../../BB/../..][../../../../../../../../../../../../../../../../../../../../../../../../../../../../../../../..]
 	Process OMPI jobid: [4643,1] App: 0 Process rank: 62 Bound: socket 0[core 30[hwt 0-1]]:[../../../../../../../../../../../../../../../../../../../../../../../../../../../../../../BB/..][../../../../../../../../../../../../../../../../../../../../../../../../../../../../../../../..]
 	Process OMPI jobid: [4643,1] App: 0 Process rank: 63 Bound: socket 0[core 31[hwt 0-1]]:[../../../../../../../../../../../../../../../../../../../../../../../../../../../../../../../BB][../../../../../../../../../../../../../../../../../../../../../../../../../../../../../../../..]

 =============================================================
Single Size change topo
dune-size 249984-1.1 0.113765 0.110807 0.104488 0.0945495 0.0878984 0.0761456 0.0704605 0.0634891 0.0606921 0.046665 0.0375244 0.0323159 0.0192264 0.0176395 0.0175532 0.0172577 0.0166416 0.0171231 0.0175179 0.0174125 0.0168316 0.0165249 0.0172824 0.0193547 0.0238087 0.026378 0.0280516 0.0308953 0.0330579 0.0351258 0.0371843 0.0376447 0.0376398 0.0359632 0.0342217 0.0326164 0.0296414 0.0278242 0.0260901 0.0228432 0.0207787 0.0202194 0.0176398 0.0170918 0.016476 0.0162967 0.016036 0.0160356 0.0156848 0.0156393 0.016139 0.0164772 0.0164814 0.0258465 0.0347841 0.0447237 0.0542851 0.0626959 0.0698932 0.0761421 0.0854627 0.095289 0.103844 0.112692 
dune-size 249984-1.2 0.0668702 0.0681773 0.0130503 0.0130502 0.0134604 0.0134562 0.0132746 0.0131874 0.0135467 0.0135478 0.0135669 0.0135662 0.0133853 0.0133877 0.013273 0.013273 0.0133818 0.013382 0.013667 0.0135623 0.0133248 0.0133265 0.0136083 0.0136077 0.0137519 0.0137524 0.0133707 0.0133754 0.0133903 0.0133928 0.0133234 0.0133222 0.0125912 0.0125837 0.0125307 0.012536 0.0124158 0.0124135 0.0136371 0.0136993 0.012534 0.0125344 0.0127705 0.0127263 0.0124906 0.0124924 0.0126965 0.0127014 0.0126128 0.012591 0.0130191 0.0130199 0.0129651 0.0129493 0.0128966 0.012894 0.0128567 0.0128545 0.0128443 0.0128429 0.0126561 0.0126601 0.0124573 0.0124545 
dune-size 249984-1.3 0.186092 0.0713502 0.17335 0.18609 0.0257143 0.0267451 0.175278 0.0262689 0.0338131 0.173084 0.186086 0.0267505 0.0251323 0.173493 0.0267462 0.173728 0.17533 0.0267181 0.0267433 0.0262476 0.026243 0.161873 0.186775 0.0262146 0.0262617 0.176442 0.173426 0.173456 0.0273109 0.173438 0.18677 0.173516 0.186139 0.0703832 0.173051 0.186117 0.0256923 0.0270204 0.17508 0.0262654 0.03126 0.172992 0.185941 0.0270181 0.0254264 0.173162 0.0270148 0.173702 0.17508 0.0269714 0.0270104 0.0259062 0.0258938 0.161869 0.186841 0.02586 0.0259263 0.176562 0.173159 0.173232 0.0273195 0.173233 0.186839 0.173232 
dune-size 8064-31 0.0711363 0.0714015 0.0711871 0.0712119 0.0711496 0.0711419 0.0713407 0.0713842 0.0711798 0.0711816 0.0711694 0.0711835 0.0712887 0.0711853 0.0711602 0.0712325 0.0711908 0.0713695 0.071189 0.0711963 0.0712018 0.071223 0.0711927 0.071244 0.0712727 0.0712565 0.0713548 0.0711982 0.0713066 0.0712 0.0711945 0.071324 0.0140852 0.0140841 0.0141421 0.0140869 0.0140887 0.0140938 0.0140903 0.0140957 0.0141146 0.0141075 0.0140922 0.0141017 0.0140992 0.0140974 0.0141357 0.0141375 0.0141093 0.0141057 0.0141393 0.0141111 0.0141128 0.0141181 0.0141251 0.0141163 0.0141199 0.0141233 0.0141217 0.0141286 0.0141322 0.0141304 0.0141339 0.0141269 
dune-size 8064-31.5 0.529051 0.528697 0.528702 0.528704 0.528706 0.528709 0.528707 0.528711 0.529031 0.528756 0.528713 0.528766 0.528732 0.528744 0.528785 0.528997 0.528732 0.528807 0.528901 0.52901 0.528823 0.52893 0.528838 0.528887 0.528856 0.528871 0.528917 0.528942 0.528954 0.528984 0.528971 0.529023 0.529038 0.528732 0.528727 0.528729 0.528733 0.528731 0.528733 0.528733 0.528736 0.528738 0.52874 0.528903 0.528932 0.528956 0.528986 0.529039 0.529051 0.529051 0.529051 0.529052 0.529051 0.529051 0.529051 0.529052 0.529052 0.529052 0.529052 0.529052 0.529052 0.529052 0.529052 0.52874 
dune-size 3968-63 0.0703445 0.0700559 0.0700559 0.0700559 0.070056 0.070056 0.070056 0.070056 0.0700562 0.0700561 0.0700562 0.0700561 0.0700563 0.0700563 0.0700562 0.0700562 0.0700564 0.0700564 0.0700564 0.0700564 0.0700565 0.0700564 0.0700565 0.0700565 0.0700566 0.0700566 0.0700566 0.0700566 0.0700567 0.0700567 0.0700567 0.0700568 0.0700566 0.0700567 0.0700567 0.0700568 0.0700569 0.070057 0.070057 0.0703441 0.0703439 0.070344 0.070344 0.070344 0.0703442 0.0703444 0.0703447 0.0703444 0.0703445 0.0703445 0.0703445 0.0703445 0.0703447 0.0703447 0.0703448 0.0703449 0.070345 0.0703451 0.0703452 0.0703452 0.0703452 0.0703451 0.0703437 0.0703305 
dune-size 999936-1.1 0.184836 0.185729 0.187491 0.18921 0.189469 0.189469 0.188939 0.18673 0.165205 0.138273 0.117457 0.0948777 0.085714 0.0745719 0.0736588 0.0735869 0.0725881 0.0728576 0.0733937 0.0733858 0.0728719 0.0724523 0.0729911 0.0741292 0.074456 0.0819136 0.0865069 0.0949914 0.103251 0.111004 0.115966 0.1233 0.123196 0.117798 0.114244 0.107788 0.101065 0.0947571 0.0901212 0.0849925 0.080095 0.0736031 0.0685648 0.0654368 0.0661387 0.066118 0.0660491 0.0659994 0.0660223 0.0660389 0.0665449 0.0669649 0.0663777 0.066041 0.0672829 0.082467 0.100597 0.108629 0.117138 0.132087 0.149935 0.155628 0.161221 0.182906 
dune-size 999936-1.2 0.0537924 0.0537905 0.0532374 0.053009 0.0524461 0.0524376 0.262345 0.256154 0.0575332 0.0575443 0.0537228 0.0536779 0.0540066 0.054021 0.0530468 0.0531209 0.0532509 0.0532544 0.0542705 0.0542405 0.0544152 0.05448 0.0548789 0.0548795 0.0546099 0.0546082 0.0533731 0.0532183 0.0549857 0.054914 0.0542162 0.0542063 0.0559264 0.0557068 0.0505705 0.0506021 0.0517365 0.051756 0.0514363 0.0514528 0.0506085 0.0506026 0.05226 0.0522835 0.0520994 0.0520519 0.0513081 0.0512981 0.0524598 0.0524046 0.0527703 0.0527614 0.0518899 0.0518899 0.0511252 0.0511271 0.0512793 0.0512905 0.0510839 0.0510586 0.0524823 0.0524615 0.0521933 0.0522054 
dune-size 999936-1.3 0.0807753 0.231937 0.0850887 0.540311 0.384362 0.52546 0.209283 0.0806826 0.538884 0.527401 0.218364 0.205029 0.534596 0.0792465 0.398487 0.497106 0.529912 0.076578 0.362469 0.0807636 0.214008 0.0754603 0.389076 0.389246 0.401093 0.388759 0.376502 0.508802 0.389132 0.35784 0.525336 0.525347 0.0803088 0.229754 0.0850976 0.540375 0.38413 0.52547 0.209976 0.0799328 0.53877 0.527653 0.218445 0.205 0.534479 0.0797784 0.398559 0.498754 0.530231 0.0767958 0.364162 0.0802029 0.213998 0.0753522 0.389937 0.389927 0.401014 0.38969 0.377835 0.508221 0.389907 0.357706 0.524394 0.524431 
dune-size 32256-31 0.24864 0.250261 0.249719 0.24864 0.248641 0.248641 0.248641 0.248641 0.248642 0.248642 0.249651 0.249548 0.248642 0.248642 0.24961 0.249712 0.248642 0.248643 0.249698 0.248643 0.248643 0.248643 0.249496 0.248643 0.249691 0.248643 0.248643 0.249705 0.249436 0.248643 0.248643 0.248644 0.0580091 0.0579574 0.0579643 0.0579192 0.0581208 0.0580329 0.0579782 0.0580159 0.0578998 0.0579714 0.0580464 0.0580834 0.0580699 0.0580534 0.0581073 0.0580766 0.0579052 0.0581273 0.0581141 0.0579122 0.0579888 0.05809 0.0579956 0.0580397 0.058097 0.0579408 0.0579263 0.0579503 0.0580261 0.0579333 0.0580024 0.0580603 
