 Data for JOB [13623,1] offset 0 Total slots allocated 2

 ========================   JOB MAP   ========================

 Data for node: srl-mds1	Num slots: 2	Max slots: 0	Num procs: 2
 	Process OMPI jobid: [13623,1] App: 0 Process rank: 0 Bound: socket 0[core 0[hwt 0-1]]:[BB/../../../../../../../../../../../../../../..][../../../../../../../../../../../../../../../..]
 	Process OMPI jobid: [13623,1] App: 0 Process rank: 1 Bound: socket 1[core 16[hwt 0-1]]:[../../../../../../../../../../../../../../../..][BB/../../../../../../../../../../../../../../..]

 =============================================================
[1578561856.389715] [srl-mds1:40460:0]         mxm.c:196  MXM  WARN  The 'ulimit -s' on the system is set to 'unlimited'. This may have negative performance implications. Please set the stack size to the default value (10240) 
[1578561856.392556] [srl-mds1:40459:0]         mxm.c:196  MXM  WARN  The 'ulimit -s' on the system is set to 'unlimited'. This may have negative performance implications. Please set the stack size to the default value (10240) 
0: 0 

Rank 0 ghostCells: 2196
Rank 1 ghostCells: 2157

Rank 0 numCells: 180974
Rank 1 numCells: 178786

Rank 0 interiorCells: 178778
Rank 1 interiorCells: 176629

MeasComm+1 2: 0.000110472 0.000112954 
MeasComm+1 2: 0.000109637 0.000110803 
MeasComm+1 2: 0.000109367 0.000109663 
MeasComm+1 2: 0.000109084 0.000109478 
MeasComm+1 2: 0.000111921 0.0001106 
MeasComm+1 2: 0.000109368 0.000111014 
MeasComm+1 2: 0.000110019 0.000109813 
MeasComm+1 2: 0.000110318 0.000111184 
MeasComm+1 2: 0.000108739 0.000111997 
MeasComm+1 2: 0.000111515 0.000114657 

ComTab rank 0: 0 2196 
ComTab rank 1: 2157 0 

Edge-cut: 2643

Wgt-cut: 8.67629e-09

[1578561902.790879] [srl-mds1:40460:0]          mpool.c:38   UCX  WARN  object 0x155539500f60 was not returned to mpool mm_recv_desc
