 Data for JOB [16039,1] offset 0 Total slots allocated 8

 ========================   JOB MAP   ========================

 Data for node: n003	Num slots: 8	Max slots: 0	Num procs: 8
 	Process OMPI jobid: [16039,1] App: 0 Process rank: 0 Bound: socket 1[core 48[hwt 0-1]]:[../../../../../../../../../../../../../../../../../../../../../../../../../../../../../../../..][../../../../../../../../../../../../../../../../BB/../../../../../../../../../../../../../../..]
 	Process OMPI jobid: [16039,1] App: 0 Process rank: 1 Bound: socket 1[core 49[hwt 0-1]]:[../../../../../../../../../../../../../../../../../../../../../../../../../../../../../../../..][../../../../../../../../../../../../../../../../../BB/../../../../../../../../../../../../../..]
 	Process OMPI jobid: [16039,1] App: 0 Process rank: 2 Bound: socket 1[core 50[hwt 0-1]]:[../../../../../../../../../../../../../../../../../../../../../../../../../../../../../../../..][../../../../../../../../../../../../../../../../../../BB/../../../../../../../../../../../../..]
 	Process OMPI jobid: [16039,1] App: 0 Process rank: 3 Bound: socket 1[core 51[hwt 0-1]]:[../../../../../../../../../../../../../../../../../../../../../../../../../../../../../../../..][../../../../../../../../../../../../../../../../../../../BB/../../../../../../../../../../../..]
 	Process OMPI jobid: [16039,1] App: 0 Process rank: 4 Bound: socket 0[core 4[hwt 0-1]]:[../../../../BB/../../../../../../../../../../../../../../../../../../../../../../../../../../..][../../../../../../../../../../../../../../../../../../../../../../../../../../../../../../../..]
 	Process OMPI jobid: [16039,1] App: 0 Process rank: 5 Bound: socket 0[core 5[hwt 0-1]]:[../../../../../BB/../../../../../../../../../../../../../../../../../../../../../../../../../..][../../../../../../../../../../../../../../../../../../../../../../../../../../../../../../../..]
 	Process OMPI jobid: [16039,1] App: 0 Process rank: 6 Bound: socket 0[core 6[hwt 0-1]]:[../../../../../../BB/../../../../../../../../../../../../../../../../../../../../../../../../..][../../../../../../../../../../../../../../../../../../../../../../../../../../../../../../../..]
 	Process OMPI jobid: [16039,1] App: 0 Process rank: 7 Bound: socket 0[core 7[hwt 0-1]]:[../../../../../../../BB/../../../../../../../../../../../../../../../../../../../../../../../..][../../../../../../../../../../../../../../../../../../../../../../../../../../../../../../../..]

 =============================================================
Two group cota
0 1 3
0 2 2
0 3 1
1 2 0
1 3 3
1 0 2
2 3 1
2 0 0
2 1 3
3 0 2
3 1 1
3 2 0
4 5 7
4 6 6
4 7 5
5 6 4
5 7 7
5 4 6
6 7 5
6 4 4
6 5 7
7 4 6
7 5 5
7 6 4
dune-size 1 7.28768e-06 9.47928e-06 8.75598e-06 8.94188e-06 7.27738e-06 9.46288e-06 8.73568e-06 8.92298e-06 
dune-size 2 1.16479e-05 1.16418e-05 1.16444e-05 1.16437e-05 1.18331e-05 1.18326e-05 1.18338e-05 1.18345e-05 
dune-size 4 8.72998e-06 6.95669e-06 8.72318e-06 8.72878e-06 8.64388e-06 6.90049e-06 8.65248e-06 8.65308e-06 
dune-size 8 7.62159e-06 7.61079e-06 7.61059e-06 7.62669e-06 7.56119e-06 7.57179e-06 7.56669e-06 7.57689e-06 
dune-size 16 1.0065e-05 1.00523e-05 1.00594e-05 1.00524e-05 8.75898e-06 8.77398e-06 8.76588e-06 8.75958e-06 
dune-size 32 1.09718e-05 1.09538e-05 1.09572e-05 1.09714e-05 1.09367e-05 1.09355e-05 1.09445e-05 1.09398e-05 
dune-size 64 1.58332e-05 1.58199e-05 1.5829e-05 1.58222e-05 1.57701e-05 1.57623e-05 1.57613e-05 1.57856e-05 
dune-size 128 2.49744e-05 2.49673e-05 2.49757e-05 2.49704e-05 2.48549e-05 2.48691e-05 2.48775e-05 2.48652e-05 
dune-size 256 4.53846e-05 4.53811e-05 4.53996e-05 4.54225e-05 4.33235e-05 4.33467e-05 4.33213e-05 4.33197e-05 
dune-size 512 8.26069e-05 8.25738e-05 8.26977e-05 8.25958e-05 7.98284e-05 7.98919e-05 7.98897e-05 7.98573e-05 
dune-size 1024 0.000168821 0.000169041 0.000169245 0.000168833 0.000176049 0.000176027 0.00017588 0.000175883 
dune-size 2048 0.000324448 0.00032455 0.000324007 0.000324009 0.000328215 0.000328241 0.000329072 0.000328673 
dune-size 4096 0.000620014 0.000621281 0.000620584 0.000619996 0.000618299 0.000619147 0.000618295 0.000619135 
dune-size 8192 0.0011969 0.001199 0.00119769 0.00119691 0.00120541 0.00120791 0.00120538 0.00120632 
dune-size 16384 0.0023878 0.00238962 0.00238716 0.00238712 0.00238781 0.00238989 0.00238512 0.00238507 
dune-size 32768 0.00478164 0.00478247 0.00477803 0.00477784 0.00481756 0.00481705 0.0048177 0.00481656 
dune-size 65536 0.00966957 0.00967098 0.0096907 0.0096673 0.00983022 0.00983009 0.00983013 0.00982952 
dune-size 131072 0.0193992 0.0194384 0.0193995 0.0194124 0.0197416 0.0197416 0.0197416 0.0197416 
