 Data for JOB [55558,1] offset 0 Total slots allocated 8

 ========================   JOB MAP   ========================

 Data for node: n003	Num slots: 8	Max slots: 0	Num procs: 8
 	Process OMPI jobid: [55558,1] App: 0 Process rank: 0 Bound: socket 0[core 8[hwt 0-1]]:[../../../../../../../../BB/../../../../../../../../../../../../../../../../../../../../../../..][../../../../../../../../../../../../../../../../../../../../../../../../../../../../../../../..]
 	Process OMPI jobid: [55558,1] App: 0 Process rank: 1 Bound: socket 0[core 9[hwt 0-1]]:[../../../../../../../../../BB/../../../../../../../../../../../../../../../../../../../../../..][../../../../../../../../../../../../../../../../../../../../../../../../../../../../../../../..]
 	Process OMPI jobid: [55558,1] App: 0 Process rank: 2 Bound: socket 0[core 10[hwt 0-1]]:[../../../../../../../../../../BB/../../../../../../../../../../../../../../../../../../../../..][../../../../../../../../../../../../../../../../../../../../../../../../../../../../../../../..]
 	Process OMPI jobid: [55558,1] App: 0 Process rank: 3 Bound: socket 0[core 11[hwt 0-1]]:[../../../../../../../../../../../BB/../../../../../../../../../../../../../../../../../../../..][../../../../../../../../../../../../../../../../../../../../../../../../../../../../../../../..]
 	Process OMPI jobid: [55558,1] App: 0 Process rank: 4 Bound: socket 0[core 4[hwt 0-1]]:[../../../../BB/../../../../../../../../../../../../../../../../../../../../../../../../../../..][../../../../../../../../../../../../../../../../../../../../../../../../../../../../../../../..]
 	Process OMPI jobid: [55558,1] App: 0 Process rank: 5 Bound: socket 0[core 5[hwt 0-1]]:[../../../../../BB/../../../../../../../../../../../../../../../../../../../../../../../../../..][../../../../../../../../../../../../../../../../../../../../../../../../../../../../../../../..]
 	Process OMPI jobid: [55558,1] App: 0 Process rank: 6 Bound: socket 0[core 6[hwt 0-1]]:[../../../../../../BB/../../../../../../../../../../../../../../../../../../../../../../../../..][../../../../../../../../../../../../../../../../../../../../../../../../../../../../../../../..]
 	Process OMPI jobid: [55558,1] App: 0 Process rank: 7 Bound: socket 0[core 7[hwt 0-1]]:[../../../../../../../BB/../../../../../../../../../../../../../../../../../../../../../../../..][../../../../../../../../../../../../../../../../../../../../../../../../../../../../../../../..]

 =============================================================
7 4 6
7 5 5
7 6 4
Two group cota
0 1 3
0 2 2
0 3 1
1 2 0
1 3 3
1 0 2
2 3 1
2 0 0
2 1 3
3 0 2
3 1 1
3 2 0
4 5 7
4 6 6
4 7 5
5 6 4
5 7 7
5 4 6
6 7 5
6 4 4
6 5 7
dune-size 1 7.20948e-06 8.78048e-06 8.75938e-06 8.77718e-06 7.26328e-06 8.83178e-06 8.83538e-06 8.81748e-06 
dune-size 2 1.41194e-05 1.23388e-05 1.41147e-05 1.41259e-05 1.46907e-05 1.29286e-05 1.47029e-05 1.46974e-05 
dune-size 4 6.90029e-06 6.89269e-06 6.89339e-06 6.89779e-06 6.91729e-06 6.92729e-06 6.92149e-06 6.91509e-06 
dune-size 8 7.64758e-06 7.63348e-06 7.63538e-06 7.64098e-06 7.57338e-06 7.57508e-06 7.58518e-06 7.57588e-06 
dune-size 16 8.64888e-06 8.63758e-06 8.64318e-06 8.65288e-06 8.76188e-06 8.77058e-06 8.77278e-06 8.76448e-06 
dune-size 32 1.09836e-05 1.09844e-05 1.09875e-05 1.09966e-05 1.0945e-05 1.09515e-05 1.09629e-05 1.09584e-05 
dune-size 64 1.6107e-05 1.6103e-05 1.60861e-05 1.61148e-05 1.58835e-05 1.58769e-05 1.58759e-05 1.58855e-05 
dune-size 128 2.49587e-05 2.49232e-05 2.49248e-05 2.49619e-05 2.5612e-05 2.56495e-05 2.56516e-05 2.5616e-05 
dune-size 256 4.33367e-05 4.33402e-05 4.33451e-05 4.3342e-05 4.37471e-05 4.37606e-05 4.37232e-05 4.3724e-05 
dune-size 512 7.99747e-05 7.99632e-05 7.99642e-05 8.00265e-05 8.21863e-05 8.23411e-05 8.22563e-05 8.21903e-05 
dune-size 1024 0.000173725 0.000173715 0.000173767 0.000173978 0.000176487 0.000176512 0.000176361 0.000176363 
dune-size 2048 0.000322161 0.000322156 0.000322584 0.000322996 0.000325792 0.000325021 0.000325428 0.000325019 
dune-size 4096 0.000620444 0.000620463 0.000622098 0.000621303 0.000617887 0.000617046 0.00061868 0.000617034 
dune-size 8192 0.00125771 0.00125639 0.00125472 0.00125472 0.00121016 0.00121124 0.00120914 0.00120913 
dune-size 16384 0.00239639 0.00239638 0.00239616 0.00239656 0.00239499 0.00239651 0.00239493 0.002395 
dune-size 32768 0.00484666 0.00484665 0.00484622 0.00484621 0.00486241 0.00486163 0.00486217 0.00486344 
dune-size 65536 0.00985652 0.00985429 0.00984929 0.00984596 0.00973325 0.00973295 0.00973195 0.00973196 
dune-size 131072 0.0196712 0.0196831 0.0196755 0.0196778 0.0195184 0.0195288 0.0195175 0.0195268 
