 Data for JOB [54452,1] offset 0 Total slots allocated 1

 ========================   JOB MAP   ========================

 Data for node: n003	Num slots: 1	Max slots: 0	Num procs: 1
 	Process OMPI jobid: [54452,1] App: 0 Process rank: 0 Bound: socket 0[core 0[hwt 0-1]]:[BB/../../../../../../../../../../../../../../../../../../../../../../../../../../../../../../..][../../../../../../../../../../../../../../../../../../../../../../../../../../../../../../../..]

 =============================================================
[1579248548.926424] [n003:90674:0]         mxm.c:196  MXM  WARN  The 'ulimit -s' on the system is set to 'unlimited'. This may have negative performance implications. Please set the stack size to the default value (10240) 
0: 12 

Rank 0 ghostCells: 0

Rank 0 numCells: 44431

Rank 0 interiorCells: 44431

MeasComm+1 1: 7e-07 
MeasComm+1 1: 7e-07 
MeasComm+1 1: 6.9e-07 
MeasComm+1 1: 6.8e-07 
MeasComm+1 1: 6.7e-07 
MeasComm+1 1: 6.8e-07 
MeasComm+1 1: 6.9e-07 
MeasComm+1 1: 7e-07 
MeasComm+1 1: 6.9e-07 
MeasComm+1 1: 7e-07 

MeasCopy 1: 3e-08 
MeasCopy 1: 3e-08 
MeasCopy 1: 3e-08 
MeasCopy 1: 3e-08 
MeasCopy 1: 3e-08 
MeasCopy 1: 3e-08 
MeasCopy 1: 3e-08 
MeasCopy 1: 3e-08 
MeasCopy 1: 3e-08 
MeasCopy 1: 3e-08 

ComTab rank 0: 0 

Edge-cut: 0

Wgt-cut: 0

