 Data for JOB [54738,1] offset 0 Total slots allocated 32

 ========================   JOB MAP   ========================

 Data for node: n003	Num slots: 32	Max slots: 0	Num procs: 32
 	Process OMPI jobid: [54738,1] App: 0 Process rank: 0 Bound: socket 0[core 0[hwt 0-1]]:[BB/../../../../../../../../../../../../../../../../../../../../../../../../../../../../../../..][../../../../../../../../../../../../../../../../../../../../../../../../../../../../../../../..]
 	Process OMPI jobid: [54738,1] App: 0 Process rank: 1 Bound: socket 0[core 1[hwt 0-1]]:[../BB/../../../../../../../../../../../../../../../../../../../../../../../../../../../../../..][../../../../../../../../../../../../../../../../../../../../../../../../../../../../../../../..]
 	Process OMPI jobid: [54738,1] App: 0 Process rank: 2 Bound: socket 0[core 2[hwt 0-1]]:[../../BB/../../../../../../../../../../../../../../../../../../../../../../../../../../../../..][../../../../../../../../../../../../../../../../../../../../../../../../../../../../../../../..]
 	Process OMPI jobid: [54738,1] App: 0 Process rank: 3 Bound: socket 0[core 3[hwt 0-1]]:[../../../BB/../../../../../../../../../../../../../../../../../../../../../../../../../../../..][../../../../../../../../../../../../../../../../../../../../../../../../../../../../../../../..]
 	Process OMPI jobid: [54738,1] App: 0 Process rank: 4 Bound: socket 0[core 8[hwt 0-1]]:[../../../../../../../../BB/../../../../../../../../../../../../../../../../../../../../../../..][../../../../../../../../../../../../../../../../../../../../../../../../../../../../../../../..]
 	Process OMPI jobid: [54738,1] App: 0 Process rank: 5 Bound: socket 0[core 9[hwt 0-1]]:[../../../../../../../../../BB/../../../../../../../../../../../../../../../../../../../../../..][../../../../../../../../../../../../../../../../../../../../../../../../../../../../../../../..]
 	Process OMPI jobid: [54738,1] App: 0 Process rank: 6 Bound: socket 0[core 10[hwt 0-1]]:[../../../../../../../../../../BB/../../../../../../../../../../../../../../../../../../../../..][../../../../../../../../../../../../../../../../../../../../../../../../../../../../../../../..]
 	Process OMPI jobid: [54738,1] App: 0 Process rank: 7 Bound: socket 0[core 11[hwt 0-1]]:[../../../../../../../../../../../BB/../../../../../../../../../../../../../../../../../../../..][../../../../../../../../../../../../../../../../../../../../../../../../../../../../../../../..]
 	Process OMPI jobid: [54738,1] App: 0 Process rank: 8 Bound: socket 0[core 16[hwt 0-1]]:[../../../../../../../../../../../../../../../../BB/../../../../../../../../../../../../../../..][../../../../../../../../../../../../../../../../../../../../../../../../../../../../../../../..]
 	Process OMPI jobid: [54738,1] App: 0 Process rank: 9 Bound: socket 0[core 17[hwt 0-1]]:[../../../../../../../../../../../../../../../../../BB/../../../../../../../../../../../../../..][../../../../../../../../../../../../../../../../../../../../../../../../../../../../../../../..]
 	Process OMPI jobid: [54738,1] App: 0 Process rank: 10 Bound: socket 0[core 18[hwt 0-1]]:[../../../../../../../../../../../../../../../../../../BB/../../../../../../../../../../../../..][../../../../../../../../../../../../../../../../../../../../../../../../../../../../../../../..]
 	Process OMPI jobid: [54738,1] App: 0 Process rank: 11 Bound: socket 0[core 19[hwt 0-1]]:[../../../../../../../../../../../../../../../../../../../BB/../../../../../../../../../../../..][../../../../../../../../../../../../../../../../../../../../../../../../../../../../../../../..]
 	Process OMPI jobid: [54738,1] App: 0 Process rank: 12 Bound: socket 0[core 24[hwt 0-1]]:[../../../../../../../../../../../../../../../../../../../../../../../../BB/../../../../../../..][../../../../../../../../../../../../../../../../../../../../../../../../../../../../../../../..]
 	Process OMPI jobid: [54738,1] App: 0 Process rank: 13 Bound: socket 0[core 25[hwt 0-1]]:[../../../../../../../../../../../../../../../../../../../../../../../../../BB/../../../../../..][../../../../../../../../../../../../../../../../../../../../../../../../../../../../../../../..]
 	Process OMPI jobid: [54738,1] App: 0 Process rank: 14 Bound: socket 0[core 26[hwt 0-1]]:[../../../../../../../../../../../../../../../../../../../../../../../../../../BB/../../../../..][../../../../../../../../../../../../../../../../../../../../../../../../../../../../../../../..]
 	Process OMPI jobid: [54738,1] App: 0 Process rank: 15 Bound: socket 0[core 27[hwt 0-1]]:[../../../../../../../../../../../../../../../../../../../../../../../../../../../BB/../../../..][../../../../../../../../../../../../../../../../../../../../../../../../../../../../../../../..]
 	Process OMPI jobid: [54738,1] App: 0 Process rank: 16 Bound: socket 1[core 32[hwt 0-1]]:[../../../../../../../../../../../../../../../../../../../../../../../../../../../../../../../..][BB/../../../../../../../../../../../../../../../../../../../../../../../../../../../../../../..]
 	Process OMPI jobid: [54738,1] App: 0 Process rank: 17 Bound: socket 1[core 33[hwt 0-1]]:[../../../../../../../../../../../../../../../../../../../../../../../../../../../../../../../..][../BB/../../../../../../../../../../../../../../../../../../../../../../../../../../../../../..]
 	Process OMPI jobid: [54738,1] App: 0 Process rank: 18 Bound: socket 1[core 34[hwt 0-1]]:[../../../../../../../../../../../../../../../../../../../../../../../../../../../../../../../..][../../BB/../../../../../../../../../../../../../../../../../../../../../../../../../../../../..]
 	Process OMPI jobid: [54738,1] App: 0 Process rank: 19 Bound: socket 1[core 35[hwt 0-1]]:[../../../../../../../../../../../../../../../../../../../../../../../../../../../../../../../..][../../../BB/../../../../../../../../../../../../../../../../../../../../../../../../../../../..]
 	Process OMPI jobid: [54738,1] App: 0 Process rank: 20 Bound: socket 1[core 40[hwt 0-1]]:[../../../../../../../../../../../../../../../../../../../../../../../../../../../../../../../..][../../../../../../../../BB/../../../../../../../../../../../../../../../../../../../../../../..]
 	Process OMPI jobid: [54738,1] App: 0 Process rank: 21 Bound: socket 1[core 41[hwt 0-1]]:[../../../../../../../../../../../../../../../../../../../../../../../../../../../../../../../..][../../../../../../../../../BB/../../../../../../../../../../../../../../../../../../../../../..]
 	Process OMPI jobid: [54738,1] App: 0 Process rank: 22 Bound: socket 1[core 42[hwt 0-1]]:[../../../../../../../../../../../../../../../../../../../../../../../../../../../../../../../..][../../../../../../../../../../BB/../../../../../../../../../../../../../../../../../../../../..]
 	Process OMPI jobid: [54738,1] App: 0 Process rank: 23 Bound: socket 1[core 43[hwt 0-1]]:[../../../../../../../../../../../../../../../../../../../../../../../../../../../../../../../..][../../../../../../../../../../../BB/../../../../../../../../../../../../../../../../../../../..]
 	Process OMPI jobid: [54738,1] App: 0 Process rank: 24 Bound: socket 1[core 48[hwt 0-1]]:[../../../../../../../../../../../../../../../../../../../../../../../../../../../../../../../..][../../../../../../../../../../../../../../../../BB/../../../../../../../../../../../../../../..]
 	Process OMPI jobid: [54738,1] App: 0 Process rank: 25 Bound: socket 1[core 49[hwt 0-1]]:[../../../../../../../../../../../../../../../../../../../../../../../../../../../../../../../..][../../../../../../../../../../../../../../../../../BB/../../../../../../../../../../../../../..]
 	Process OMPI jobid: [54738,1] App: 0 Process rank: 26 Bound: socket 1[core 50[hwt 0-1]]:[../../../../../../../../../../../../../../../../../../../../../../../../../../../../../../../..][../../../../../../../../../../../../../../../../../../BB/../../../../../../../../../../../../..]
 	Process OMPI jobid: [54738,1] App: 0 Process rank: 27 Bound: socket 1[core 51[hwt 0-1]]:[../../../../../../../../../../../../../../../../../../../../../../../../../../../../../../../..][../../../../../../../../../../../../../../../../../../../BB/../../../../../../../../../../../..]
 	Process OMPI jobid: [54738,1] App: 0 Process rank: 28 Bound: socket 1[core 56[hwt 0-1]]:[../../../../../../../../../../../../../../../../../../../../../../../../../../../../../../../..][../../../../../../../../../../../../../../../../../../../../../../../../BB/../../../../../../..]
 	Process OMPI jobid: [54738,1] App: 0 Process rank: 29 Bound: socket 1[core 57[hwt 0-1]]:[../../../../../../../../../../../../../../../../../../../../../../../../../../../../../../../..][../../../../../../../../../../../../../../../../../../../../../../../../../BB/../../../../../..]
 	Process OMPI jobid: [54738,1] App: 0 Process rank: 30 Bound: socket 1[core 58[hwt 0-1]]:[../../../../../../../../../../../../../../../../../../../../../../../../../../../../../../../..][../../../../../../../../../../../../../../../../../../../../../../../../../../BB/../../../../..]
 	Process OMPI jobid: [54738,1] App: 0 Process rank: 31 Bound: socket 1[core 59[hwt 0-1]]:[../../../../../../../../../../../../../../../../../../../../../../../../../../../../../../../..][../../../../../../../../../../../../../../../../../../../../../../../../../../../BB/../../../..]

 =============================================================
[1579248581.569462] [n003:90981:0]         mxm.c:196  MXM  WARN  The 'ulimit -s' on the system is set to 'unlimited'. This may have negative performance implications. Please set the stack size to the default value (10240) 
[1579248581.571089] [n003:90983:0]         mxm.c:196  MXM  WARN  The 'ulimit -s' on the system is set to 'unlimited'. This may have negative performance implications. Please set the stack size to the default value (10240) 
[1579248581.571187] [n003:90980:0]         mxm.c:196  MXM  WARN  The 'ulimit -s' on the system is set to 'unlimited'. This may have negative performance implications. Please set the stack size to the default value (10240) 
[1579248581.572415] [n003:90975:0]         mxm.c:196  MXM  WARN  The 'ulimit -s' on the system is set to 'unlimited'. This may have negative performance implications. Please set the stack size to the default value (10240) 
[1579248581.572438] [n003:90972:0]         mxm.c:196  MXM  WARN  The 'ulimit -s' on the system is set to 'unlimited'. This may have negative performance implications. Please set the stack size to the default value (10240) 
[1579248581.573483] [n003:90974:0]         mxm.c:196  MXM  WARN  The 'ulimit -s' on the system is set to 'unlimited'. This may have negative performance implications. Please set the stack size to the default value (10240) 
[1579248581.573850] [n003:90976:0]         mxm.c:196  MXM  WARN  The 'ulimit -s' on the system is set to 'unlimited'. This may have negative performance implications. Please set the stack size to the default value (10240) 
[1579248581.573984] [n003:90978:0]         mxm.c:196  MXM  WARN  The 'ulimit -s' on the system is set to 'unlimited'. This may have negative performance implications. Please set the stack size to the default value (10240) 
[1579248581.576087] [n003:90971:0]         mxm.c:196  MXM  WARN  The 'ulimit -s' on the system is set to 'unlimited'. This may have negative performance implications. Please set the stack size to the default value (10240) 
[1579248581.576082] [n003:90969:0]         mxm.c:196  MXM  WARN  The 'ulimit -s' on the system is set to 'unlimited'. This may have negative performance implications. Please set the stack size to the default value (10240) 
[1579248581.576085] [n003:90973:0]         mxm.c:196  MXM  WARN  The 'ulimit -s' on the system is set to 'unlimited'. This may have negative performance implications. Please set the stack size to the default value (10240) 
[1579248581.577195] [n003:90965:0]         mxm.c:196  MXM  WARN  The 'ulimit -s' on the system is set to 'unlimited'. This may have negative performance implications. Please set the stack size to the default value (10240) 
[1579248581.577195] [n003:90964:0]         mxm.c:196  MXM  WARN  The 'ulimit -s' on the system is set to 'unlimited'. This may have negative performance implications. Please set the stack size to the default value (10240) 
[1579248581.577213] [n003:90966:0]         mxm.c:196  MXM  WARN  The 'ulimit -s' on the system is set to 'unlimited'. This may have negative performance implications. Please set the stack size to the default value (10240) 
[1579248581.577805] [n003:90995:0]         mxm.c:196  MXM  WARN  The 'ulimit -s' on the system is set to 'unlimited'. This may have negative performance implications. Please set the stack size to the default value (10240) 
[1579248581.577902] [n003:90994:0]         mxm.c:196  MXM  WARN  The 'ulimit -s' on the system is set to 'unlimited'. This may have negative performance implications. Please set the stack size to the default value (10240) 
[1579248581.577933] [n003:90987:0]         mxm.c:196  MXM  WARN  The 'ulimit -s' on the system is set to 'unlimited'. This may have negative performance implications. Please set the stack size to the default value (10240) 
[1579248581.578057] [n003:90968:0]         mxm.c:196  MXM  WARN  The 'ulimit -s' on the system is set to 'unlimited'. This may have negative performance implications. Please set the stack size to the default value (10240) 
[1579248581.579090] [n003:90970:0]         mxm.c:196  MXM  WARN  The 'ulimit -s' on the system is set to 'unlimited'. This may have negative performance implications. Please set the stack size to the default value (10240) 
[1579248581.579326] [n003:90988:0]         mxm.c:196  MXM  WARN  The 'ulimit -s' on the system is set to 'unlimited'. This may have negative performance implications. Please set the stack size to the default value (10240) 
[1579248581.579332] [n003:90990:0]         mxm.c:196  MXM  WARN  The 'ulimit -s' on the system is set to 'unlimited'. This may have negative performance implications. Please set the stack size to the default value (10240) 
[1579248581.579770] [n003:90982:0]         mxm.c:196  MXM  WARN  The 'ulimit -s' on the system is set to 'unlimited'. This may have negative performance implications. Please set the stack size to the default value (10240) 
[1579248581.580061] [n003:90977:0]         mxm.c:196  MXM  WARN  The 'ulimit -s' on the system is set to 'unlimited'. This may have negative performance implications. Please set the stack size to the default value (10240) 
[1579248581.580352] [n003:90984:0]         mxm.c:196  MXM  WARN  The 'ulimit -s' on the system is set to 'unlimited'. This may have negative performance implications. Please set the stack size to the default value (10240) 
[1579248581.580387] [n003:90986:0]         mxm.c:196  MXM  WARN  The 'ulimit -s' on the system is set to 'unlimited'. This may have negative performance implications. Please set the stack size to the default value (10240) 
[1579248581.580528] [n003:90991:0]         mxm.c:196  MXM  WARN  The 'ulimit -s' on the system is set to 'unlimited'. This may have negative performance implications. Please set the stack size to the default value (10240) 
[1579248581.580407] [n003:90992:0]         mxm.c:196  MXM  WARN  The 'ulimit -s' on the system is set to 'unlimited'. This may have negative performance implications. Please set the stack size to the default value (10240) 
[1579248581.580683] [n003:90989:0]         mxm.c:196  MXM  WARN  The 'ulimit -s' on the system is set to 'unlimited'. This may have negative performance implications. Please set the stack size to the default value (10240) 
[1579248581.580884] [n003:90967:0]         mxm.c:196  MXM  WARN  The 'ulimit -s' on the system is set to 'unlimited'. This may have negative performance implications. Please set the stack size to the default value (10240) 
[1579248581.581158] [n003:90985:0]         mxm.c:196  MXM  WARN  The 'ulimit -s' on the system is set to 'unlimited'. This may have negative performance implications. Please set the stack size to the default value (10240) 
[1579248581.581380] [n003:90979:0]         mxm.c:196  MXM  WARN  The 'ulimit -s' on the system is set to 'unlimited'. This may have negative performance implications. Please set the stack size to the default value (10240) 
[1579248581.581533] [n003:90993:0]         mxm.c:196  MXM  WARN  The 'ulimit -s' on the system is set to 'unlimited'. This may have negative performance implications. Please set the stack size to the default value (10240) 
0: 12 
Edge Weight Method: 12
Cell on rank 0: 1372
Cell on rank 1: 1462
Cell on rank 2: 1296
Cell on rank 3: 1526
Cell on rank 4: 1415
Cell on rank 5: 1262
Cell on rank 6: 1508
Cell on rank 7: 1262
Cell on rank 8: 1375
Cell on rank 9: 1356
Cell on rank 10: 1416
Cell on rank 11: 1334
Cell on rank 12: 1406
Cell on rank 13: 1503
Cell on rank 14: 1292
Cell on rank 15: 1370
Cell on rank 16: 1372
Cell on rank 17: 1343
Cell on rank 18: 1370
Cell on rank 19: 1388
Cell on rank 20: 1527
Cell on rank 21: 1340
Cell on rank 22: 1527
Cell on rank 23: 1517
Cell on rank 24: 1267
Cell on rank 25: 1331
Cell on rank 26: 1450
Cell on rank 27: 1265
Cell on rank 28: 1516
Cell on rank 29: 1262
Cell on rank 30: 1457
Cell on rank 31: 1344
Edge-cut: 311047

Rank 0 ghostCells: 879
Rank 1 ghostCells: 586
Rank 2 ghostCells: 646
Rank 3 ghostCells: 719
Rank 4 ghostCells: 574
Rank 5 ghostCells: 647
Rank 6 ghostCells: 768
Rank 7 ghostCells: 694
Rank 8 ghostCells: 541
Rank 9 ghostCells: 626
Rank 10 ghostCells: 381
Rank 11 ghostCells: 374
Rank 12 ghostCells: 621
Rank 13 ghostCells: 627
Rank 14 ghostCells: 658
Rank 15 ghostCells: 425
Rank 16 ghostCells: 159
Rank 17 ghostCells: 395
Rank 18 ghostCells: 395
Rank 19 ghostCells: 503
Rank 20 ghostCells: 598
Rank 21 ghostCells: 679
Rank 22 ghostCells: 554
Rank 23 ghostCells: 781
Rank 24 ghostCells: 260
Rank 25 ghostCells: 472
Rank 26 ghostCells: 498
Rank 27 ghostCells: 439
Rank 28 ghostCells: 199
Rank 29 ghostCells: 397
Rank 30 ghostCells: 357
Rank 31 ghostCells: 342

Rank 0 numCells: 2251
Rank 1 numCells: 2048
Rank 2 numCells: 1942
Rank 3 numCells: 2245
Rank 4 numCells: 1989
Rank 5 numCells: 1909
Rank 6 numCells: 2276
Rank 7 numCells: 1956
Rank 8 numCells: 1916
Rank 9 numCells: 1982
Rank 10 numCells: 1797
Rank 11 numCells: 1708
Rank 12 numCells: 2027
Rank 13 numCells: 2130
Rank 14 numCells: 1950
Rank 15 numCells: 1795
Rank 16 numCells: 1531
Rank 17 numCells: 1738
Rank 18 numCells: 1765
Rank 19 numCells: 1891
Rank 20 numCells: 2125
Rank 21 numCells: 2019
Rank 22 numCells: 2081
Rank 23 numCells: 2298
Rank 24 numCells: 1527
Rank 25 numCells: 1803
Rank 26 numCells: 1948
Rank 27 numCells: 1704
Rank 28 numCells: 1715
Rank 29 numCells: 1659
Rank 30 numCells: 1814
Rank 31 numCells: 1686

Rank 0 interiorCells: 1372
Rank 1 interiorCells: 1462
Rank 2 interiorCells: 1296
Rank 3 interiorCells: 1526
Rank 4 interiorCells: 1415
Rank 5 interiorCells: 1262
Rank 6 interiorCells: 1508
Rank 7 interiorCells: 1262
Rank 8 interiorCells: 1375
Rank 9 interiorCells: 1356
Rank 10 interiorCells: 1416
Rank 11 interiorCells: 1334
Rank 12 interiorCells: 1406
Rank 13 interiorCells: 1503
Rank 14 interiorCells: 1292
Rank 15 interiorCells: 1370
Rank 16 interiorCells: 1372
Rank 17 interiorCells: 1343
Rank 18 interiorCells: 1370
Rank 19 interiorCells: 1388
Rank 20 interiorCells: 1527
Rank 21 interiorCells: 1340
Rank 22 interiorCells: 1527
Rank 23 interiorCells: 1517
Rank 24 interiorCells: 1267
Rank 25 interiorCells: 1331
Rank 26 interiorCells: 1450
Rank 27 interiorCells: 1265
Rank 28 interiorCells: 1516
Rank 29 interiorCells: 1262
Rank 30 interiorCells: 1457
Rank 31 interiorCells: 1344

MeasComm+1 32: 8.952e-05 7.138e-05 7.795e-05 7.611e-05 7.468e-05 7.3759e-05 9.381e-05 8.338e-05 4.992e-05 5.439e-05 3.64e-05 3.723e-05 5.322e-05 6.3479e-05 6.747e-05 5.514e-05 1.902e-05 2.775e-05 3.63e-05 4.6899e-05 7.7989e-05 4.831e-05 5.801e-05 6.497e-05 4.1679e-05 5.3179e-05 4.825e-05 6.261e-05 2.277e-05 3.763e-05 3.386e-05 2.574e-05 
MeasComm+1 32: 8.462e-05 6.828e-05 7.684e-05 7.125e-05 7.329e-05 7.374e-05 9.41e-05 8.34e-05 4.973e-05 5.383e-05 3.591e-05 3.663e-05 5.287e-05 6.293e-05 6.655e-05 5.493e-05 1.8749e-05 2.755e-05 3.551e-05 4.495e-05 7.702e-05 4.8189e-05 5.526e-05 6.5949e-05 3.99e-05 5.133e-05 4.855e-05 6.175e-05 2.175e-05 3.737e-05 3.338e-05 2.542e-05 
MeasComm+1 32: 8.625e-05 6.55e-05 7.696e-05 7.59e-05 7.418e-05 7.273e-05 9.371e-05 8.224e-05 4.973e-05 5.3559e-05 3.622e-05 3.69e-05 5.304e-05 6.267e-05 6.644e-05 5.489e-05 1.893e-05 2.732e-05 3.63e-05 4.533e-05 7.756e-05 4.827e-05 5.759e-05 6.422e-05 4.116e-05 5.2e-05 4.792e-05 6.059e-05 2.162e-05 3.587e-05 3.326e-05 2.556e-05 
MeasComm+1 32: 8.598e-05 6.705e-05 7.9329e-05 7.703e-05 7.344e-05 7.354e-05 9.463e-05 8.222e-05 4.966e-05 5.382e-05 3.652e-05 3.671e-05 5.305e-05 6.263e-05 6.613e-05 5.486e-05 1.922e-05 2.743e-05 3.6759e-05 4.545e-05 7.679e-05 4.724e-05 5.748e-05 6.516e-05 4.134e-05 5.315e-05 4.823e-05 6.147e-05 2.25e-05 3.597e-05 3.382e-05 2.544e-05 
MeasComm+1 32: 8.333e-05 6.398e-05 7.349e-05 7.422e-05 7.455e-05 7.3609e-05 9.405e-05 8.3039e-05 4.996e-05 5.394e-05 3.654e-05 3.693e-05 5.313e-05 6.311e-05 6.586e-05 5.475e-05 1.889e-05 2.762e-05 3.458e-05 4.608e-05 7.686e-05 4.812e-05 5.77e-05 6.533e-05 4.15e-05 5.253e-05 4.8409e-05 6.238e-05 2.23e-05 3.681e-05 3.288e-05 2.559e-05 
MeasComm+1 32: 8.482e-05 6.428e-05 7.568e-05 7.577e-05 7.092e-05 7.296e-05 9.373e-05 8.32e-05 4.953e-05 5.346e-05 3.624e-05 3.591e-05 5.309e-05 6.2719e-05 6.623e-05 5.466e-05 1.454e-05 2.743e-05 3.636e-05 4.55e-05 7.733e-05 4.798e-05 5.7439e-05 6.494e-05 4.109e-05 5.43e-05 4.805e-05 6.153e-05 1.549e-05 3.532e-05 3.323e-05 2.565e-05 
MeasComm+1 32: 8.375e-05 6.841e-05 7.649e-05 7.367e-05 7.28e-05 7.292e-05 9.407e-05 8.27e-05 4.9169e-05 5.344e-05 3.646e-05 3.659e-05 5.292e-05 6.329e-05 6.636e-05 5.471e-05 1.865e-05 2.746e-05 3.329e-05 4.576e-05 7.5769e-05 4.789e-05 5.703e-05 6.523e-05 4.081e-05 5.154e-05 4.798e-05 6.087e-05 1.59e-05 3.554e-05 3.3289e-05 2.537e-05 
MeasComm+1 32: 8.385e-05 6.538e-05 7.474e-05 7.492e-05 7.344e-05 7.361e-05 9.4009e-05 8.125e-05 5.002e-05 5.367e-05 3.629e-05 3.706e-05 5.166e-05 6.222e-05 6.627e-05 5.372e-05 1.861e-05 2.765e-05 3.593e-05 4.553e-05 7.72e-05 4.819e-05 5.719e-05 6.42e-05 4.042e-05 5.079e-05 4.852e-05 6.153e-05 2.092e-05 3.578e-05 3.322e-05 2.549e-05 
MeasComm+1 32: 8.49e-05 6.5529e-05 7.96e-05 7.603e-05 7.452e-05 7.321e-05 9.448e-05 8.16e-05 4.9939e-05 5.4e-05 3.656e-05 3.706e-05 5.268e-05 6.2849e-05 6.607e-05 5.461e-05 1.927e-05 2.751e-05 3.689e-05 4.549e-05 7.686e-05 4.79e-05 5.7089e-05 6.359e-05 4.107e-05 5.133e-05 4.812e-05 6.098e-05 2.213e-05 3.505e-05 3.3369e-05 2.548e-05 
MeasComm+1 32: 8.775e-05 6.755e-05 7.857e-05 7.645e-05 7.365e-05 7.28e-05 9.478e-05 8.312e-05 4.9899e-05 5.385e-05 3.658e-05 3.6499e-05 5.326e-05 6.306e-05 6.624e-05 5.456e-05 1.799e-05 2.7439e-05 3.697e-05 4.544e-05 7.7019e-05 4.778e-05 5.706e-05 6.581e-05 4.104e-05 5.265e-05 4.828e-05 6.151e-05 2.051e-05 3.599e-05 3.397e-05 2.5299e-05 

MeasCopy 32: 4.119e-05 2.747e-05 3.026e-05 3.3679e-05 2.689e-05 3.032e-05 3.598e-05 3.252e-05 2.535e-05 2.932e-05 1.787e-05 1.753e-05 2.9069e-05 2.936e-05 3.084e-05 1.992e-05 7.469e-06 1.849e-05 1.85e-05 2.358e-05 2.804e-05 3.183e-05 2.595e-05 3.656e-05 1.219e-05 2.213e-05 2.331e-05 2.059e-05 9.33e-06 1.862e-05 1.672e-05 1.5999e-05 
MeasCopy 32: 4.124e-05 2.739e-05 3.028e-05 3.371e-05 2.69e-05 3.033e-05 3.601e-05 3.255e-05 2.537e-05 2.933e-05 1.786e-05 1.753e-05 2.905e-05 2.94e-05 3.086e-05 1.993e-05 7.49e-06 1.849e-05 1.851e-05 2.3579e-05 2.8e-05 3.179e-05 2.598e-05 3.662e-05 1.22e-05 2.215e-05 2.334e-05 2.059e-05 9.349e-06 1.862e-05 1.674e-05 1.6e-05 
MeasCopy 32: 4.122e-05 2.746e-05 3.027e-05 3.368e-05 2.691e-05 3.032e-05 3.6e-05 3.251e-05 2.536e-05 2.933e-05 1.787e-05 1.751e-05 2.911e-05 2.937e-05 3.081e-05 1.994e-05 7.48e-06 1.849e-05 1.849e-05 2.358e-05 2.802e-05 3.184e-05 2.596e-05 3.658e-05 1.217e-05 2.212e-05 2.334e-05 2.056e-05 9.35e-06 1.861e-05 1.67e-05 1.602e-05 
MeasCopy 32: 4.123e-05 2.746e-05 3.025e-05 3.37e-05 2.69e-05 3.031e-05 3.596e-05 3.251e-05 2.536e-05 2.937e-05 1.785e-05 1.754e-05 2.911e-05 2.939e-05 3.084e-05 1.992e-05 7.46e-06 1.854e-05 1.849e-05 2.355e-05 2.804e-05 3.183e-05 2.595e-05 3.66e-05 1.219e-05 2.213e-05 2.336e-05 2.056e-05 9.32e-06 1.858e-05 1.674e-05 1.603e-05 
MeasCopy 32: 4.123e-05 2.744e-05 3.027e-05 3.372e-05 2.691e-05 3.033e-05 3.599e-05 3.254e-05 2.536e-05 2.934e-05 1.787e-05 1.751e-05 2.9129e-05 2.937e-05 3.082e-05 1.991e-05 7.48e-06 1.853e-05 1.852e-05 2.357e-05 2.802e-05 3.184e-05 2.595e-05 3.6629e-05 1.218e-05 2.214e-05 2.335e-05 2.056e-05 9.36e-06 1.862e-05 1.674e-05 1.603e-05 
MeasCopy 32: 4.1229e-05 2.744e-05 3.031e-05 3.365e-05 2.691e-05 3.035e-05 3.599e-05 3.254e-05 2.538e-05 2.936e-05 1.784e-05 1.756e-05 2.91e-05 2.939e-05 3.084e-05 1.991e-05 7.48e-06 1.852e-05 1.853e-05 2.357e-05 2.805e-05 3.182e-05 2.597e-05 3.661e-05 1.22e-05 2.212e-05 2.336e-05 2.057e-05 9.34e-06 1.86e-05 1.676e-05 1.604e-05 
MeasCopy 32: 4.118e-05 2.745e-05 3.025e-05 3.368e-05 2.694e-05 3.032e-05 3.601e-05 3.255e-05 2.538e-05 2.934e-05 1.786e-05 1.753e-05 2.911e-05 2.938e-05 3.079e-05 1.991e-05 7.47e-06 1.853e-05 1.852e-05 2.3589e-05 2.8029e-05 3.1839e-05 2.597e-05 3.66e-05 1.218e-05 2.213e-05 2.334e-05 2.058e-05 9.329e-06 1.862e-05 1.676e-05 1.601e-05 
MeasCopy 32: 4.12e-05 2.744e-05 3.029e-05 3.368e-05 2.692e-05 3.033e-05 3.603e-05 3.2529e-05 2.536e-05 2.934e-05 1.786e-05 1.754e-05 2.909e-05 2.939e-05 3.0869e-05 1.989e-05 7.5e-06 1.851e-05 1.851e-05 2.358e-05 2.8029e-05 3.1799e-05 2.598e-05 3.66e-05 1.217e-05 2.212e-05 2.335e-05 2.057e-05 9.34e-06 1.857e-05 1.676e-05 1.605e-05 
MeasCopy 32: 4.118e-05 2.744e-05 3.0299e-05 3.3719e-05 2.689e-05 3.032e-05 3.599e-05 3.25e-05 2.535e-05 2.933e-05 1.785e-05 1.75e-05 2.908e-05 2.938e-05 3.084e-05 1.991e-05 7.47e-06 1.853e-05 1.852e-05 2.356e-05 2.805e-05 3.179e-05 2.598e-05 3.661e-05 1.22e-05 2.214e-05 2.334e-05 2.059e-05 9.31e-06 1.864e-05 1.671e-05 1.601e-05 
MeasCopy 32: 4.121e-05 2.746e-05 3.028e-05 3.371e-05 2.6949e-05 3.031e-05 3.597e-05 3.25e-05 2.5359e-05 2.935e-05 1.786e-05 1.753e-05 2.904e-05 2.937e-05 3.084e-05 1.992e-05 7.45e-06 1.851e-05 1.852e-05 2.358e-05 2.804e-05 3.184e-05 2.597e-05 3.661e-05 1.219e-05 2.213e-05 2.337e-05 2.059e-05 9.34e-06 1.859e-05 1.675e-05 1.604e-05 

ComTab rank 0: 0 148 125 224 182 88 90 192 0 0 0 0 0 0 76 30 0 0 0 0 0 0 0 0 0 0 0 0 0 0 0 0 
ComTab rank 1: 123 0 14 194 93 0 28 0 123 0 0 0 0 67 93 0 0 0 0 0 0 0 0 0 0 0 0 0 0 0 0 0 
ComTab rank 2: 139 17 0 128 25 268 11 136 0 0 0 0 0 0 0 0 0 0 0 0 0 0 0 0 0 24 0 81 0 0 0 0 
ComTab rank 3: 215 200 125 0 7 0 23 51 0 0 0 0 0 35 235 0 0 0 0 0 0 0 0 0 0 0 0 0 0 0 0 0 
ComTab rank 4: 182 92 25 7 0 62 175 73 0 0 0 0 0 2 6 48 0 0 0 0 0 0 3 0 0 0 0 0 0 0 0 0 
ComTab rank 5: 85 0 272 0 61 0 85 91 0 0 0 0 0 0 0 0 0 0 0 0 17 0 0 0 0 171 0 62 0 0 0 0 
ComTab rank 6: 78 26 11 23 166 79 0 236 0 0 0 0 0 0 0 0 0 0 0 0 113 0 203 19 0 0 0 5 0 0 0 0 
ComTab rank 7: 200 0 142 52 69 79 245 0 0 0 0 0 0 0 7 0 0 0 0 0 11 0 34 0 0 0 0 64 0 0 0 0 
ComTab rank 8: 0 123 0 0 0 0 0 0 0 219 0 0 0 139 99 49 0 0 0 0 0 0 0 0 0 0 0 0 0 0 0 0 
ComTab rank 9: 0 0 0 0 0 0 0 0 215 0 151 103 179 77 0 39 0 0 0 0 0 0 0 0 0 0 0 0 0 0 0 0 
ComTab rank 10: 0 0 0 0 0 0 0 0 0 150 0 120 86 0 0 74 0 0 0 0 0 0 0 0 0 0 0 0 0 0 0 0 
ComTab rank 11: 0 0 0 0 0 0 0 0 0 107 122 0 204 0 0 8 0 0 0 0 0 0 0 0 0 0 0 0 0 0 0 0 
ComTab rank 12: 0 0 0 0 0 0 0 0 0 187 94 203 0 182 0 94 0 0 0 0 0 0 0 0 0 0 0 0 0 0 0 0 
ComTab rank 13: 0 69 0 35 2 0 0 0 142 63 0 0 181 0 193 94 0 0 0 0 0 0 0 0 0 0 0 0 0 0 0 0 
ComTab rank 14: 77 96 0 243 6 0 0 7 112 0 0 0 0 193 0 93 0 0 0 0 0 0 0 0 0 0 0 0 0 0 0 0 
ComTab rank 15: 30 0 0 0 45 0 0 0 49 42 74 8 96 100 94 0 0 0 0 0 0 0 0 0 0 0 0 0 0 0 0 0 
ComTab rank 16: 0 0 0 0 0 0 0 0 0 0 0 0 0 0 0 0 0 126 47 0 0 0 0 0 0 0 0 0 0 0 0 0 
ComTab rank 17: 0 0 0 0 0 0 0 0 0 0 0 0 0 0 0 0 125 0 182 131 0 0 0 0 0 0 0 0 0 0 0 0 
ComTab rank 18: 0 0 0 0 0 0 0 0 0 0 0 0 0 0 0 0 57 172 0 141 0 0 0 87 0 0 0 0 0 0 0 0 
ComTab rank 19: 0 0 0 0 0 0 0 0 0 0 0 0 0 0 0 0 0 127 137 0 35 38 0 244 6 0 0 0 0 0 0 0 
ComTab rank 20: 0 0 0 0 0 14 123 9 0 0 0 0 0 0 0 0 0 0 0 32 0 199 137 77 69 50 15 28 0 0 0 0 
ComTab rank 21: 0 0 0 0 0 0 0 0 0 0 0 0 0 0 0 0 0 0 0 34 212 0 177 351 0 0 0 0 0 0 0 0 
ComTab rank 22: 0 0 0 0 3 0 226 30 0 0 0 0 0 0 0 0 0 0 0 0 137 163 0 94 0 0 0 0 0 0 0 0 
ComTab rank 23: 0 0 0 0 0 0 19 0 0 0 0 0 0 0 0 0 0 0 87 240 76 368 100 0 0 0 0 0 0 0 0 0 
ComTab rank 24: 0 0 0 0 0 0 0 0 0 0 0 0 0 0 0 0 0 0 0 6 41 0 0 0 0 159 83 0 0 0 0 0 
ComTab rank 25: 0 0 24 0 0 174 0 0 0 0 0 0 0 0 0 0 0 0 0 0 18 0 0 0 158 0 77 104 0 0 0 0 
ComTab rank 26: 0 0 0 0 0 0 0 0 0 0 0 0 0 0 0 0 0 0 0 0 15 0 0 0 77 76 0 178 0 28 181 0 
ComTab rank 27: 0 0 84 0 0 56 6 62 0 0 0 0 0 0 0 0 0 0 0 0 34 0 0 0 0 101 184 0 0 21 0 0 
ComTab rank 28: 0 0 0 0 0 0 0 0 0 0 0 0 0 0 0 0 0 0 0 0 0 0 0 0 0 0 0 0 0 181 0 32 
ComTab rank 29: 0 0 0 0 0 0 0 0 0 0 0 0 0 0 0 0 0 0 0 0 0 0 0 0 0 0 26 21 184 0 17 172 
ComTab rank 30: 0 0 0 0 0 0 0 0 0 0 0 0 0 0 0 0 0 0 0 0 0 0 0 0 0 0 181 0 0 13 0 172 
ComTab rank 31: 0 0 0 0 0 0 0 0 0 0 0 0 0 0 0 0 0 0 0 0 0 0 0 0 0 0 0 0 26 157 175 0 

Edge-cut: 12422

Wgt-cut: 1.87386e-07

[1579248587.576876] [n003:90983:0]          mpool.c:38   UCX  WARN  object 0x1555440ea160 was not returned to mpool mm_recv_desc
[1579248587.689554] [n003:90975:0]          mpool.c:38   UCX  WARN  object 0x155544122f60 was not returned to mpool mm_recv_desc
[1579248587.714672] [n003:90964:0]          mpool.c:38   UCX  WARN  object 0x15554410a960 was not returned to mpool mm_recv_desc
[1579248587.730387] [n003:90966:0]          mpool.c:38   UCX  WARN  object 0x155544110ae0 was not returned to mpool mm_recv_desc
[1579248587.759453] [n003:90971:0]          mpool.c:38   UCX  WARN  object 0x1555441047e0 was not returned to mpool mm_recv_desc
