 Data for JOB [55032,1] offset 0 Total slots allocated 2

 ========================   JOB MAP   ========================

 Data for node: n004	Num slots: 2	Max slots: 0	Num procs: 2
 	Process OMPI jobid: [55032,1] App: 0 Process rank: 0 Bound: socket 0[core 0[hwt 0-1]]:[BB/../../../../../../../../../../../../../../../../../../../../../../../../../../../../../../..][../../../../../../../../../../../../../../../../../../../../../../../../../../../../../../../..]
 	Process OMPI jobid: [55032,1] App: 0 Process rank: 1 Bound: socket 0[core 8[hwt 0-1]]:[../../../../../../../../BB/../../../../../../../../../../../../../../../../../../../../../../..][../../../../../../../../../../../../../../../../../../../../../../../../../../../../../../../..]

 =============================================================
[1579248548.917643] [n004:55302:0]         mxm.c:196  MXM  WARN  The 'ulimit -s' on the system is set to 'unlimited'. This may have negative performance implications. Please set the stack size to the default value (10240) 
[1579248548.917718] [n004:55301:0]         mxm.c:196  MXM  WARN  The 'ulimit -s' on the system is set to 'unlimited'. This may have negative performance implications. Please set the stack size to the default value (10240) 
0: 12 
Edge Weight Method: 12
Cell on rank 0: 21921
Cell on rank 1: 22510
Edge-cut: 20345

Rank 0 ghostCells: 547
Rank 1 ghostCells: 536

Rank 0 numCells: 22468
Rank 1 numCells: 23046

Rank 0 interiorCells: 21921
Rank 1 interiorCells: 22510

MeasComm+1 2: 4.4291e-05 4.439e-05 
MeasComm+1 2: 4.399e-05 4.398e-05 
MeasComm+1 2: 4.463e-05 4.367e-05 
MeasComm+1 2: 4.417e-05 4.35e-05 
MeasComm+1 2: 4.427e-05 4.388e-05 
MeasComm+1 2: 4.421e-05 4.423e-05 
MeasComm+1 2: 4.397e-05 4.402e-05 
MeasComm+1 2: 4.442e-05 4.36e-05 
MeasComm+1 2: 4.393e-05 4.359e-05 
MeasComm+1 2: 4.356e-05 4.339e-05 

MeasCopy 2: 2.564e-05 2.515e-05 
MeasCopy 2: 2.562e-05 2.51e-05 
MeasCopy 2: 2.56e-05 2.516e-05 
MeasCopy 2: 2.566e-05 2.513e-05 
MeasCopy 2: 2.561e-05 2.51e-05 
MeasCopy 2: 2.561e-05 2.513e-05 
MeasCopy 2: 2.557e-05 2.512e-05 
MeasCopy 2: 2.564e-05 2.514e-05 
MeasCopy 2: 2.565e-05 2.508e-05 
MeasCopy 2: 2.564e-05 2.512e-05 

ComTab rank 0: 0 547 
ComTab rank 1: 536 0 

Edge-cut: 723

Wgt-cut: 4.11639e-09

[1579248557.206672] [n004:55302:0]          mpool.c:38   UCX  WARN  object 0x155544122f60 was not returned to mpool mm_recv_desc
