 Data for JOB [28098,1] offset 0 Total slots allocated 8

 ========================   JOB MAP   ========================

 Data for node: n004	Num slots: 8	Max slots: 0	Num procs: 8
 	Process OMPI jobid: [28098,1] App: 0 Process rank: 0 Bound: socket 1[core 48[hwt 0-1]]:[../../../../../../../../../../../../../../../../../../../../../../../../../../../../../../../..][../../../../../../../../../../../../../../../../BB/../../../../../../../../../../../../../../..]
 	Process OMPI jobid: [28098,1] App: 0 Process rank: 1 Bound: socket 1[core 53[hwt 0-1]]:[../../../../../../../../../../../../../../../../../../../../../../../../../../../../../../../..][../../../../../../../../../../../../../../../../../../../../../BB/../../../../../../../../../..]
 	Process OMPI jobid: [28098,1] App: 0 Process rank: 2 Bound: socket 1[core 50[hwt 0-1]]:[../../../../../../../../../../../../../../../../../../../../../../../../../../../../../../../..][../../../../../../../../../../../../../../../../../../BB/../../../../../../../../../../../../..]
 	Process OMPI jobid: [28098,1] App: 0 Process rank: 3 Bound: socket 1[core 55[hwt 0-1]]:[../../../../../../../../../../../../../../../../../../../../../../../../../../../../../../../..][../../../../../../../../../../../../../../../../../../../../../../../BB/../../../../../../../..]
 	Process OMPI jobid: [28098,1] App: 0 Process rank: 4 Bound: socket 1[core 52[hwt 0-1]]:[../../../../../../../../../../../../../../../../../../../../../../../../../../../../../../../..][../../../../../../../../../../../../../../../../../../../../BB/../../../../../../../../../../..]
 	Process OMPI jobid: [28098,1] App: 0 Process rank: 5 Bound: socket 1[core 49[hwt 0-1]]:[../../../../../../../../../../../../../../../../../../../../../../../../../../../../../../../..][../../../../../../../../../../../../../../../../../BB/../../../../../../../../../../../../../..]
 	Process OMPI jobid: [28098,1] App: 0 Process rank: 6 Bound: socket 1[core 54[hwt 0-1]]:[../../../../../../../../../../../../../../../../../../../../../../../../../../../../../../../..][../../../../../../../../../../../../../../../../../../../../../../BB/../../../../../../../../..]
 	Process OMPI jobid: [28098,1] App: 0 Process rank: 7 Bound: socket 1[core 51[hwt 0-1]]:[../../../../../../../../../../../../../../../../../../../../../../../../../../../../../../../..][../../../../../../../../../../../../../../../../../../../BB/../../../../../../../../../../../..]

 =============================================================
Two group cota
0 1 3
0 2 2
0 3 1
3 0 2
3 1 1
3 2 0
7 4 6
7 5 5
7 6 4
1 2 0
1 3 3
1 0 2
2 3 1
4 5 7
4 6 6
4 7 5
5 6 4
5 7 7
5 4 6
2 0 0
2 1 3
6 7 5
6 4 4
6 5 7
dune-size 1 1.85654e-05 1.85703e-05 1.85369e-05 1.85312e-05 1.82277e-05 1.82071e-05 1.81741e-05 1.81896e-05 
dune-size 2 1.59845e-05 1.60046e-05 1.59897e-05 1.60042e-05 1.60313e-05 1.60124e-05 1.60288e-05 1.60307e-05 
dune-size 4 1.32537e-05 1.32795e-05 1.32907e-05 1.32647e-05 1.32349e-05 1.32256e-05 1.32346e-05 1.32461e-05 
dune-size 8 1.46661e-05 1.46957e-05 1.46837e-05 1.46486e-05 1.48587e-05 1.48272e-05 1.48603e-05 1.48453e-05 
dune-size 16 1.7013e-05 1.70462e-05 1.70287e-05 1.69915e-05 1.73468e-05 1.73691e-05 1.74038e-05 1.73865e-05 
dune-size 32 2.08236e-05 2.08909e-05 2.08459e-05 2.08621e-05 2.09055e-05 2.08557e-05 2.0834e-05 2.08776e-05 
dune-size 64 1.84397e-05 1.84554e-05 1.847e-05 1.84579e-05 1.82013e-05 1.82161e-05 1.82039e-05 1.82158e-05 
dune-size 128 2.75324e-05 2.759e-05 2.75499e-05 2.75779e-05 2.75528e-05 2.75467e-05 2.75352e-05 2.75425e-05 
dune-size 256 4.72352e-05 4.72515e-05 4.72395e-05 4.7247e-05 4.73029e-05 4.7323e-05 4.72855e-05 4.72872e-05 
dune-size 512 8.46629e-05 8.46393e-05 8.46752e-05 8.4672e-05 8.46571e-05 8.46669e-05 8.4654e-05 8.46686e-05 
dune-size 1024 0.000198022 0.000197568 0.000197574 0.000197807 0.000198284 0.000197843 0.000197837 0.000198077 
dune-size 2048 0.000371378 0.00037145 0.00037093 0.00037095 0.000372477 0.000372878 0.00037199 0.000372029 
dune-size 4096 0.000669844 0.00067012 0.000668982 0.00066897 0.000658812 0.00065873 0.000659694 0.000660488 
dune-size 8192 0.00122702 0.00122522 0.00122585 0.00122862 0.00125968 0.00125967 0.00125788 0.0012579 
dune-size 16384 0.00240498 0.00240437 0.00240114 0.00240109 0.00239285 0.00239754 0.00239278 0.00239438 
dune-size 32768 0.00483906 0.00483868 0.00483802 0.00483819 0.00483777 0.00483902 0.00483751 0.0048368 
dune-size 65536 0.00980681 0.00968458 0.00976906 0.00967929 0.00974158 0.0098055 0.00974071 0.00976867 
dune-size 131072 0.0201383 0.0200429 0.0200248 0.0200378 0.0200943 0.0201442 0.0200913 0.0201376 
