 Data for JOB [12335,1] offset 0 Total slots allocated 8

 ========================   JOB MAP   ========================

 Data for node: n003	Num slots: 8	Max slots: 0	Num procs: 8
 	Process OMPI jobid: [12335,1] App: 0 Process rank: 0 Bound: socket 1[core 40[hwt 0-1]]:[../../../../../../../../../../../../../../../../../../../../../../../../../../../../../../../..][../../../../../../../../BB/../../../../../../../../../../../../../../../../../../../../../../..]
 	Process OMPI jobid: [12335,1] App: 0 Process rank: 1 Bound: socket 1[core 41[hwt 0-1]]:[../../../../../../../../../../../../../../../../../../../../../../../../../../../../../../../..][../../../../../../../../../BB/../../../../../../../../../../../../../../../../../../../../../..]
 	Process OMPI jobid: [12335,1] App: 0 Process rank: 2 Bound: socket 1[core 42[hwt 0-1]]:[../../../../../../../../../../../../../../../../../../../../../../../../../../../../../../../..][../../../../../../../../../../BB/../../../../../../../../../../../../../../../../../../../../..]
 	Process OMPI jobid: [12335,1] App: 0 Process rank: 3 Bound: socket 1[core 43[hwt 0-1]]:[../../../../../../../../../../../../../../../../../../../../../../../../../../../../../../../..][../../../../../../../../../../../BB/../../../../../../../../../../../../../../../../../../../..]
 	Process OMPI jobid: [12335,1] App: 0 Process rank: 4 Bound: socket 1[core 52[hwt 0-1]]:[../../../../../../../../../../../../../../../../../../../../../../../../../../../../../../../..][../../../../../../../../../../../../../../../../../../../../BB/../../../../../../../../../../..]
 	Process OMPI jobid: [12335,1] App: 0 Process rank: 5 Bound: socket 1[core 53[hwt 0-1]]:[../../../../../../../../../../../../../../../../../../../../../../../../../../../../../../../..][../../../../../../../../../../../../../../../../../../../../../BB/../../../../../../../../../..]
 	Process OMPI jobid: [12335,1] App: 0 Process rank: 6 Bound: socket 1[core 54[hwt 0-1]]:[../../../../../../../../../../../../../../../../../../../../../../../../../../../../../../../..][../../../../../../../../../../../../../../../../../../../../../../BB/../../../../../../../../..]
 	Process OMPI jobid: [12335,1] App: 0 Process rank: 7 Bound: socket 1[core 55[hwt 0-1]]:[../../../../../../../../../../../../../../../../../../../../../../../../../../../../../../../..][../../../../../../../../../../../../../../../../../../../../../../../BB/../../../../../../../..]

 =============================================================
5 6 4
5 7 7
5 4 6
6 7 5
6 4 4
6 5 7
7 4 6
7 5 5
7 6 4
4 5 7
4 6 6
4 7 5
Two group cota
0 1 3
0 2 2
0 3 1
1 2 0
1 3 3
1 0 2
2 3 1
2 0 0
2 1 3
3 0 2
3 1 1
3 2 0
dune-size 1 7.16049e-06 7.16429e-06 7.15469e-06 7.17049e-06 7.91488e-06 7.91028e-06 7.91478e-06 7.92468e-06 
dune-size 2 6.50278e-06 6.49778e-06 6.50328e-06 6.50328e-06 6.53178e-06 6.52408e-06 6.53588e-06 6.53098e-06 
dune-size 4 1.00035e-05 9.99688e-06 1.00014e-05 1.00072e-05 1.00146e-05 1.00083e-05 1.0009e-05 1.00191e-05 
dune-size 8 7.59469e-06 7.59149e-06 7.60549e-06 7.59949e-06 7.60009e-06 7.58369e-06 7.58529e-06 7.59109e-06 
dune-size 16 8.68528e-06 8.66778e-06 8.67838e-06 8.67108e-06 9.53428e-06 9.52168e-06 9.52828e-06 9.52338e-06 
dune-size 32 1.09808e-05 1.09689e-05 1.09763e-05 1.09813e-05 1.09297e-05 1.09076e-05 1.09111e-05 1.09222e-05 
dune-size 64 1.58664e-05 1.58712e-05 1.58959e-05 1.58794e-05 1.58976e-05 1.58969e-05 1.58963e-05 1.5911e-05 
dune-size 128 2.49693e-05 2.49746e-05 2.50125e-05 2.50091e-05 2.49776e-05 2.49926e-05 2.49888e-05 2.5006e-05 
dune-size 256 4.33349e-05 4.33479e-05 4.33426e-05 4.33424e-05 4.33247e-05 4.33484e-05 4.3366e-05 4.33296e-05 
dune-size 512 8.01261e-05 8.01169e-05 8.01221e-05 8.01198e-05 7.98898e-05 7.98945e-05 7.99369e-05 7.98955e-05 
dune-size 1024 0.000165183 0.000165167 0.000165181 0.00016517 0.000173184 0.00017307 0.000173166 0.000173079 
dune-size 2048 0.000324949 0.000324294 0.000324297 0.000324545 0.000326584 0.000327032 0.000327421 0.000326591 
dune-size 4096 0.000615978 0.000617116 0.000615975 0.0006165 0.00062403 0.000622345 0.000623229 0.000622398 
dune-size 8192 0.00135853 0.0013601 0.00135847 0.00135839 0.00120833 0.00121055 0.00120832 0.00120897 
dune-size 16384 0.002375 0.00237837 0.00237504 0.00238155 0.00236861 0.00236537 0.00236877 0.00236537 
dune-size 32768 0.00480717 0.00480699 0.00480699 0.00480904 0.00479856 0.0047983 0.00479899 0.00479833 
dune-size 65536 0.00979636 0.00979603 0.00979197 0.00979139 0.00971044 0.00971043 0.00970794 0.00970791 
dune-size 131072 0.0196199 0.0196195 0.01962 0.0196202 0.0195685 0.0195489 0.0195546 0.0195486 
