 Data for JOB [47966,1] offset 0 Total slots allocated 2

 ========================   JOB MAP   ========================

 Data for node: n004	Num slots: 2	Max slots: 0	Num procs: 2
 	Process OMPI jobid: [47966,1] App: 0 Process rank: 0 Bound: socket 1[core 40[hwt 0-1]]:[../../../../../../../../../../../../../../../../../../../../../../../../../../../../../../../..][../../../../../../../../BB/../../../../../../../../../../../../../../../../../../../../../../..]
 	Process OMPI jobid: [47966,1] App: 0 Process rank: 1 Bound: socket 1[core 41[hwt 0-1]]:[../../../../../../../../../../../../../../../../../../../../../../../../../../../../../../../..][../../../../../../../../../BB/../../../../../../../../../../../../../../../../../../../../../..]

 =============================================================
[1579600389.737576] [n004:113262:0]         mxm.c:196  MXM  WARN  The 'ulimit -s' on the system is set to 'unlimited'. This may have negative performance implications. Please set the stack size to the default value (10240) 
[1579600389.737576] [n004:113264:0]         mxm.c:196  MXM  WARN  The 'ulimit -s' on the system is set to 'unlimited'. This may have negative performance implications. Please set the stack size to the default value (10240) 
0: 1 

Rank 0 ghostCells: 12469
Rank 1 ghostCells: 13431

Rank 0 numCells: 206192
Rank 1 numCells: 175115

Rank 0 interiorCells: 193723
Rank 1 interiorCells: 161684

MeasComm+1 2: 0.000927751 0.000917971 
MeasComm+1 2: 0.000928381 0.000918531 
MeasComm+1 2: 0.000925651 0.000918401 
MeasComm+1 2: 0.000927801 0.000915881 
MeasComm+1 2: 0.000929611 0.000922691 
MeasComm+1 2: 0.000926491 0.000920351 
MeasComm+1 2: 0.000930801 0.000922701 
MeasComm+1 2: 0.000926721 0.000919601 
MeasComm+1 2: 0.000927231 0.000919741 
MeasComm+1 2: 0.000925612 0.000921751 

MeasCopy 2: 0.000584971 0.00063036 
MeasCopy 2: 0.000584911 0.000630201 
MeasCopy 2: 0.000584921 0.00063009 
MeasCopy 2: 0.000585021 0.00063018 
MeasCopy 2: 0.00058501 0.000629951 
MeasCopy 2: 0.000585011 0.000630211 
MeasCopy 2: 0.00058484 0.000630241 
MeasCopy 2: 0.000584871 0.00063026 
MeasCopy 2: 0.00058488 0.00063014 
MeasCopy 2: 0.000585131 0.000630061 

ComTab rank 0: 0 12469 
ComTab rank 1: 13431 0 

Edge-cut: 21788

Wgt-cut: 2.68323e-09

[1579600462.893593] [n004:113264:0]          mpool.c:38   UCX  WARN  object 0x5555620ae100 was not returned to mpool ucp_am_bufs
