 Data for JOB [54647,1] offset 0 Total slots allocated 2

 ========================   JOB MAP   ========================

 Data for node: n001	Num slots: 2	Max slots: 0	Num procs: 2
 	Process OMPI jobid: [54647,1] App: 0 Process rank: 0 Bound: socket 0[core 9[hwt 0-1]]:[../../../../../../../../../BB/../../../../../../../../../../../../../../../../../../../../../..][../../../../../../../../../../../../../../../../../../../../../../../../../../../../../../../..]
 	Process OMPI jobid: [54647,1] App: 0 Process rank: 1 Bound: socket 0[core 10[hwt 0-1]]:[../../../../../../../../../../BB/../../../../../../../../../../../../../../../../../../../../..][../../../../../../../../../../../../../../../../../../../../../../../../../../../../../../../..]

 =============================================================
dune-size 1 2.6735e-06 2.6727e-06 
dune-size 2 2.49219e-06 2.49169e-06 
dune-size 4 2.61899e-06 2.61889e-06 
dune-size 8 4.25809e-06 4.25829e-06 
dune-size 16 3.2262e-06 3.2262e-06 
dune-size 32 4.04619e-06 4.04629e-06 
dune-size 64 5.56708e-06 5.56578e-06 
dune-size 128 8.67368e-06 8.67318e-06 
dune-size 256 1.48869e-05 1.48862e-05 
dune-size 512 2.712e-05 2.71189e-05 
dune-size 1024 5.66253e-05 5.66258e-05 
dune-size 2048 0.000107175 0.000107177 
dune-size 4096 0.000213165 0.000213167 
dune-size 8192 0.000410187 0.000410183 
dune-size 16384 0.000796451 0.000796445 
dune-size 32768 0.00155581 0.00155582 
dune-size 65536 0.00318259 0.00318315 
dune-size 131072 0.00631925 0.00631978 
dune-size 262144 0.0126749 0.0126756 
dune-size 524288 0.025398 0.0253984 
dune-size 1048576 0.0512872 0.0513165 
