 Data for JOB [34823,1] offset 0 Total slots allocated 4

 ========================   JOB MAP   ========================

 Data for node: n004	Num slots: 4	Max slots: 0	Num procs: 4
 	Process OMPI jobid: [34823,1] App: 0 Process rank: 0 Bound: socket 1[core 49[hwt 0-1]]:[../../../../../../../../../../../../../../../../../../../../../../../../../../../../../../../..][../../../../../../../../../../../../../../../../../BB/../../../../../../../../../../../../../..]
 	Process OMPI jobid: [34823,1] App: 0 Process rank: 1 Bound: socket 1[core 51[hwt 0-1]]:[../../../../../../../../../../../../../../../../../../../../../../../../../../../../../../../..][../../../../../../../../../../../../../../../../../../../BB/../../../../../../../../../../../..]
 	Process OMPI jobid: [34823,1] App: 0 Process rank: 2 Bound: socket 1[core 50[hwt 0-1]]:[../../../../../../../../../../../../../../../../../../../../../../../../../../../../../../../..][../../../../../../../../../../../../../../../../../../BB/../../../../../../../../../../../../..]
 	Process OMPI jobid: [34823,1] App: 0 Process rank: 3 Bound: socket 1[core 52[hwt 0-1]]:[../../../../../../../../../../../../../../../../../../../../../../../../../../../../../../../..][../../../../../../../../../../../../../../../../../../../../BB/../../../../../../../../../../..]

 =============================================================
Two group cota
0 1 1
1 0 0
2 3 3
3 2 2
dune-size 1 8.40581e-06 6.3734e-06 9.20882e-06 7.17831e-06 
dune-size 2 6.8658e-06 6.8587e-06 7.4638e-06 7.4706e-06 
dune-size 4 6.23711e-06 6.23161e-06 5.2128e-06 5.2162e-06 
dune-size 8 6.82451e-06 6.82221e-06 5.64621e-06 5.65261e-06 
dune-size 16 7.62901e-06 7.62251e-06 6.21341e-06 6.21481e-06 
dune-size 32 6.97921e-06 6.99001e-06 7.78211e-06 7.76821e-06 
dune-size 64 9.69252e-06 9.70642e-06 1.0394e-05 1.03792e-05 
dune-size 128 8.67511e-06 8.67331e-06 1.582e-05 1.57918e-05 
dune-size 256 1.52225e-05 1.52181e-05 1.65015e-05 1.64988e-05 
dune-size 512 2.71834e-05 2.71801e-05 2.88853e-05 2.88858e-05 
dune-size 1024 5.56667e-05 5.5662e-05 7.00851e-05 7.00857e-05 
dune-size 2048 0.000107478 0.000107474 0.000134099 0.000134098 
dune-size 4096 0.000210048 0.000210047 0.000259763 0.000259764 
dune-size 8192 0.000411199 0.000411147 0.000494895 0.000494892 
dune-size 16384 0.000790878 0.000790865 0.0008217 0.000821705 
dune-size 32768 0.00155105 0.00155106 0.00157973 0.00157974 
dune-size 65536 0.00315505 0.0031543 0.00315297 0.00315154 
dune-size 131072 0.00642286 0.00642168 0.00642333 0.00641017 
