 Data for JOB [23774,1] offset 0 Total slots allocated 2

 ========================   JOB MAP   ========================

 Data for node: n004	Num slots: 2	Max slots: 0	Num procs: 2
 	Process OMPI jobid: [23774,1] App: 0 Process rank: 0 Bound: socket 1[core 49[hwt 0-1]]:[../../../../../../../../../../../../../../../../../../../../../../../../../../../../../../../..][../../../../../../../../../../../../../../../../../BB/../../../../../../../../../../../../../..]
 	Process OMPI jobid: [23774,1] App: 0 Process rank: 1 Bound: socket 0[core 26[hwt 0-1]]:[../../../../../../../../../../../../../../../../../../../../../../../../../../BB/../../../../..][../../../../../../../../../../../../../../../../../../../../../../../../../../../../../../../..]

 =============================================================
dune-size 1 8.83991e-06 8.83071e-06 
dune-size 2 8.54431e-06 8.53491e-06 
dune-size 4 9.10541e-06 9.09921e-06 
dune-size 8 9.28561e-06 9.27461e-06 
dune-size 16 1.02038e-05 1.01923e-05 
dune-size 32 8.42571e-06 8.42071e-06 
dune-size 64 8.68541e-06 8.68521e-06 
dune-size 128 1.21428e-05 1.21427e-05 
dune-size 256 1.95212e-05 1.95158e-05 
dune-size 512 3.34416e-05 3.34395e-05 
dune-size 1024 0.000109156 0.000109147 
dune-size 2048 0.000205951 0.00020593 
dune-size 4096 0.000395318 0.000395354 
dune-size 8192 0.000666085 0.000666021 
dune-size 16384 0.000935238 0.000935122 
dune-size 32768 0.00168397 0.00168373 
dune-size 65536 0.00325984 0.00325692 
dune-size 131072 0.00648755 0.0064969 
dune-size 262144 0.0129576 0.012947 
dune-size 524288 0.025666 0.0256503 
dune-size 1048576 0.0512073 0.0512403 
