[1578471161.251087] [srl-mds1:16420:0]         mxm.c:196  MXM  WARN  The 'ulimit -s' on the system is set to 'unlimited'. This may have negative performance implications. Please set the stack size to the default value (10240) 
[1578471161.251004] [srl-mds1:16421:0]         mxm.c:196  MXM  WARN  The 'ulimit -s' on the system is set to 'unlimited'. This may have negative performance implications. Please set the stack size to the default value (10240) 
[1578471161.251000] [srl-mds1:16422:0]         mxm.c:196  MXM  WARN  The 'ulimit -s' on the system is set to 'unlimited'. This may have negative performance implications. Please set the stack size to the default value (10240) 
[1578471161.251187] [srl-mds1:16419:0]         mxm.c:196  MXM  WARN  The 'ulimit -s' on the system is set to 'unlimited'. This may have negative performance implications. Please set the stack size to the default value (10240) 
0: 10 
After loadbalancing process 3 has 11991 cells.
After loadbalancing process 2 has 14089 cells.
After loadbalancing process 0 has 15015 cells.
After loadbalancing process 1 has 13817 cells.

Rank 0 ghostCells: 2800
Rank 1 ghostCells: 3841
Rank 2 ghostCells: 2044
Rank 3 ghostCells: 1796

Rank 0 numCells: 15015
Rank 1 numCells: 13817
Rank 2 numCells: 14089
Rank 3 numCells: 11991

Rank 0 interiorCells: 12215
Rank 1 interiorCells: 9976
Rank 2 interiorCells: 12045
Rank 3 interiorCells: 10195

ComTab rank 0: 0 1786 565 753 
ComTab rank 1: 1933 0 1316 811 
ComTab rank 2: 489 1127 0 679 
ComTab rank 3: 568 657 705 0 

Edge-cut: 8822

Wgt-cut: 2.52833e-09

[1578471164.544645] [srl-mds1:16421:0]          mpool.c:38   UCX  WARN  object 0x555556acb380 was not returned to mpool ucp_am_bufs
[1578471164.544644] [srl-mds1:16422:0]          mpool.c:38   UCX  WARN  object 0x155544c6eee0 was not returned to mpool mm_recv_desc
[1578471164.546951] [srl-mds1:16420:0]          mpool.c:38   UCX  WARN  object 0x155544c70f60 was not returned to mpool mm_recv_desc
[1578476385.343437] [srl-adm2:3322 :0]         mxm.c:196  MXM  WARN  The 'ulimit -s' on the system is set to 'unlimited'. This may have negative performance implications. Please set the stack size to the default value (10240) 
[1578476385.343715] [srl-adm2:3326 :0]         mxm.c:196  MXM  WARN  The 'ulimit -s' on the system is set to 'unlimited'. This may have negative performance implications. Please set the stack size to the default value (10240) 
[1578476385.343728] [srl-adm2:3328 :0]         mxm.c:196  MXM  WARN  The 'ulimit -s' on the system is set to 'unlimited'. This may have negative performance implications. Please set the stack size to the default value (10240) 
[1578476385.343854] [srl-adm2:3324 :0]         mxm.c:196  MXM  WARN  The 'ulimit -s' on the system is set to 'unlimited'. This may have negative performance implications. Please set the stack size to the default value (10240) 
[1578476385.343864] [srl-adm2:3327 :0]         mxm.c:196  MXM  WARN  The 'ulimit -s' on the system is set to 'unlimited'. This may have negative performance implications. Please set the stack size to the default value (10240) 
[1578476385.343970] [srl-adm2:3323 :0]         mxm.c:196  MXM  WARN  The 'ulimit -s' on the system is set to 'unlimited'. This may have negative performance implications. Please set the stack size to the default value (10240) 
[1578476385.344284] [srl-adm2:3321 :0]         mxm.c:196  MXM  WARN  The 'ulimit -s' on the system is set to 'unlimited'. This may have negative performance implications. Please set the stack size to the default value (10240) 
[1578476385.344372] [srl-adm2:3320 :0]         mxm.c:196  MXM  WARN  The 'ulimit -s' on the system is set to 'unlimited'. This may have negative performance implications. Please set the stack size to the default value (10240) 
0: 10 
Edge Weight Method: 10
Cell on rank 0: 5689
Cell on rank 1: 5992
Cell on rank 2: 5148
Cell on rank 3: 5417
Cell on rank 4: 5818
Cell on rank 5: 5079
Cell on rank 6: 5664
Cell on rank 7: 5624
Edge-cut: 4368
After loadbalancing process 4 has 6371 cells.
After loadbalancing process 7 has 6019 cells.
After loadbalancing process 2 has 5869 cells.
After loadbalancing process 3 has 6081 cells.
After loadbalancing process 5 has 6105 cells.
After loadbalancing process 6 has 6310 cells.
After loadbalancing process 1 has 7164 cells.
After loadbalancing process 0 has 6873 cells.

Rank 0 ghostCells: 1184
Rank 1 ghostCells: 1172
Rank 2 ghostCells: 721
Rank 3 ghostCells: 664
Rank 4 ghostCells: 553
Rank 5 ghostCells: 1026
Rank 6 ghostCells: 646
Rank 7 ghostCells: 395

Rank 0 numCells: 6873
Rank 1 numCells: 7164
Rank 2 numCells: 5869
Rank 3 numCells: 6081
Rank 4 numCells: 6371
Rank 5 numCells: 6105
Rank 6 numCells: 6310
Rank 7 numCells: 6019

Rank 0 interiorCells: 5689
Rank 1 interiorCells: 5992
Rank 2 interiorCells: 5148
Rank 3 interiorCells: 5417
Rank 4 interiorCells: 5818
Rank 5 interiorCells: 5079
Rank 6 interiorCells: 5664
Rank 7 interiorCells: 5624

ComTab rank 0: 0 560 374 140 0 0 188 0 
ComTab rank 1: 582 0 0 102 0 455 0 68 
ComTab rank 2: 378 0 0 276 0 0 88 0 
ComTab rank 3: 151 105 276 0 0 0 187 0 
ComTab rank 4: 0 0 0 0 0 503 0 57 
ComTab rank 5: 0 456 0 0 522 0 0 61 
ComTab rank 6: 187 0 112 180 0 0 0 223 
ComTab rank 7: 0 69 0 0 57 58 226 0 

Edge-cut: 4805

Wgt-cut: 8.34927e-08

[1578476389.240791] [srl-adm2:3326 :0]          mpool.c:38   UCX  WARN  object 0x55555c488b00 was not returned to mpool ucp_am_bufs
[1578476389.240873] [srl-adm2:3321 :0]          mpool.c:38   UCX  WARN  object 0x5555589a5b80 was not returned to mpool ucp_am_bufs
[1578476389.241135] [srl-adm2:3327 :0]          mpool.c:38   UCX  WARN  object 0x555558833700 was not returned to mpool ucp_am_bufs
[1578476389.241107] [srl-adm2:3322 :0]          mpool.c:38   UCX  WARN  object 0x5555588ef900 was not returned to mpool ucp_am_bufs
[1578476389.241143] [srl-adm2:3324 :0]          mpool.c:38   UCX  WARN  object 0x55555c4a8bc0 was not returned to mpool ucp_am_bufs
[1578476389.241225] [srl-adm2:3328 :0]          mpool.c:38   UCX  WARN  object 0x55555c341d00 was not returned to mpool ucp_am_bufs
[1578476389.241235] [srl-adm2:3323 :0]          mpool.c:38   UCX  WARN  object 0x55555c3423c0 was not returned to mpool ucp_am_bufs
