 Data for JOB [34565,1] offset 0 Total slots allocated 32

 ========================   JOB MAP   ========================

 Data for node: n004	Num slots: 32	Max slots: 0	Num procs: 32
 	Process OMPI jobid: [34565,1] App: 0 Process rank: 0 Bound: socket 1[core 32[hwt 0-1]]:[../../../../../../../../../../../../../../../../../../../../../../../../../../../../../../../..][BB/../../../../../../../../../../../../../../../../../../../../../../../../../../../../../../..]
 	Process OMPI jobid: [34565,1] App: 0 Process rank: 1 Bound: socket 1[core 33[hwt 0-1]]:[../../../../../../../../../../../../../../../../../../../../../../../../../../../../../../../..][../BB/../../../../../../../../../../../../../../../../../../../../../../../../../../../../../..]
 	Process OMPI jobid: [34565,1] App: 0 Process rank: 2 Bound: socket 1[core 34[hwt 0-1]]:[../../../../../../../../../../../../../../../../../../../../../../../../../../../../../../../..][../../BB/../../../../../../../../../../../../../../../../../../../../../../../../../../../../..]
 	Process OMPI jobid: [34565,1] App: 0 Process rank: 3 Bound: socket 1[core 35[hwt 0-1]]:[../../../../../../../../../../../../../../../../../../../../../../../../../../../../../../../..][../../../BB/../../../../../../../../../../../../../../../../../../../../../../../../../../../..]
 	Process OMPI jobid: [34565,1] App: 0 Process rank: 4 Bound: socket 1[core 40[hwt 0-1]]:[../../../../../../../../../../../../../../../../../../../../../../../../../../../../../../../..][../../../../../../../../BB/../../../../../../../../../../../../../../../../../../../../../../..]
 	Process OMPI jobid: [34565,1] App: 0 Process rank: 5 Bound: socket 1[core 41[hwt 0-1]]:[../../../../../../../../../../../../../../../../../../../../../../../../../../../../../../../..][../../../../../../../../../BB/../../../../../../../../../../../../../../../../../../../../../..]
 	Process OMPI jobid: [34565,1] App: 0 Process rank: 6 Bound: socket 1[core 42[hwt 0-1]]:[../../../../../../../../../../../../../../../../../../../../../../../../../../../../../../../..][../../../../../../../../../../BB/../../../../../../../../../../../../../../../../../../../../..]
 	Process OMPI jobid: [34565,1] App: 0 Process rank: 7 Bound: socket 1[core 43[hwt 0-1]]:[../../../../../../../../../../../../../../../../../../../../../../../../../../../../../../../..][../../../../../../../../../../../BB/../../../../../../../../../../../../../../../../../../../..]
 	Process OMPI jobid: [34565,1] App: 0 Process rank: 8 Bound: socket 1[core 48[hwt 0-1]]:[../../../../../../../../../../../../../../../../../../../../../../../../../../../../../../../..][../../../../../../../../../../../../../../../../BB/../../../../../../../../../../../../../../..]
 	Process OMPI jobid: [34565,1] App: 0 Process rank: 9 Bound: socket 1[core 49[hwt 0-1]]:[../../../../../../../../../../../../../../../../../../../../../../../../../../../../../../../..][../../../../../../../../../../../../../../../../../BB/../../../../../../../../../../../../../..]
 	Process OMPI jobid: [34565,1] App: 0 Process rank: 10 Bound: socket 1[core 50[hwt 0-1]]:[../../../../../../../../../../../../../../../../../../../../../../../../../../../../../../../..][../../../../../../../../../../../../../../../../../../BB/../../../../../../../../../../../../..]
 	Process OMPI jobid: [34565,1] App: 0 Process rank: 11 Bound: socket 1[core 51[hwt 0-1]]:[../../../../../../../../../../../../../../../../../../../../../../../../../../../../../../../..][../../../../../../../../../../../../../../../../../../../BB/../../../../../../../../../../../..]
 	Process OMPI jobid: [34565,1] App: 0 Process rank: 12 Bound: socket 1[core 56[hwt 0-1]]:[../../../../../../../../../../../../../../../../../../../../../../../../../../../../../../../..][../../../../../../../../../../../../../../../../../../../../../../../../BB/../../../../../../..]
 	Process OMPI jobid: [34565,1] App: 0 Process rank: 13 Bound: socket 1[core 57[hwt 0-1]]:[../../../../../../../../../../../../../../../../../../../../../../../../../../../../../../../..][../../../../../../../../../../../../../../../../../../../../../../../../../BB/../../../../../..]
 	Process OMPI jobid: [34565,1] App: 0 Process rank: 14 Bound: socket 1[core 58[hwt 0-1]]:[../../../../../../../../../../../../../../../../../../../../../../../../../../../../../../../..][../../../../../../../../../../../../../../../../../../../../../../../../../../BB/../../../../..]
 	Process OMPI jobid: [34565,1] App: 0 Process rank: 15 Bound: socket 1[core 59[hwt 0-1]]:[../../../../../../../../../../../../../../../../../../../../../../../../../../../../../../../..][../../../../../../../../../../../../../../../../../../../../../../../../../../../BB/../../../..]
 	Process OMPI jobid: [34565,1] App: 0 Process rank: 16 Bound: socket 1[core 36[hwt 0-1]]:[../../../../../../../../../../../../../../../../../../../../../../../../../../../../../../../..][../../../../BB/../../../../../../../../../../../../../../../../../../../../../../../../../../..]
 	Process OMPI jobid: [34565,1] App: 0 Process rank: 17 Bound: socket 1[core 37[hwt 0-1]]:[../../../../../../../../../../../../../../../../../../../../../../../../../../../../../../../..][../../../../../BB/../../../../../../../../../../../../../../../../../../../../../../../../../..]
 	Process OMPI jobid: [34565,1] App: 0 Process rank: 18 Bound: socket 1[core 38[hwt 0-1]]:[../../../../../../../../../../../../../../../../../../../../../../../../../../../../../../../..][../../../../../../BB/../../../../../../../../../../../../../../../../../../../../../../../../..]
 	Process OMPI jobid: [34565,1] App: 0 Process rank: 19 Bound: socket 1[core 39[hwt 0-1]]:[../../../../../../../../../../../../../../../../../../../../../../../../../../../../../../../..][../../../../../../../BB/../../../../../../../../../../../../../../../../../../../../../../../..]
 	Process OMPI jobid: [34565,1] App: 0 Process rank: 20 Bound: socket 1[core 44[hwt 0-1]]:[../../../../../../../../../../../../../../../../../../../../../../../../../../../../../../../..][../../../../../../../../../../../../BB/../../../../../../../../../../../../../../../../../../..]
 	Process OMPI jobid: [34565,1] App: 0 Process rank: 21 Bound: socket 1[core 45[hwt 0-1]]:[../../../../../../../../../../../../../../../../../../../../../../../../../../../../../../../..][../../../../../../../../../../../../../BB/../../../../../../../../../../../../../../../../../..]
 	Process OMPI jobid: [34565,1] App: 0 Process rank: 22 Bound: socket 1[core 46[hwt 0-1]]:[../../../../../../../../../../../../../../../../../../../../../../../../../../../../../../../..][../../../../../../../../../../../../../../BB/../../../../../../../../../../../../../../../../..]
 	Process OMPI jobid: [34565,1] App: 0 Process rank: 23 Bound: socket 1[core 47[hwt 0-1]]:[../../../../../../../../../../../../../../../../../../../../../../../../../../../../../../../..][../../../../../../../../../../../../../../../BB/../../../../../../../../../../../../../../../..]
 	Process OMPI jobid: [34565,1] App: 0 Process rank: 24 Bound: socket 1[core 52[hwt 0-1]]:[../../../../../../../../../../../../../../../../../../../../../../../../../../../../../../../..][../../../../../../../../../../../../../../../../../../../../BB/../../../../../../../../../../..]
 	Process OMPI jobid: [34565,1] App: 0 Process rank: 25 Bound: socket 1[core 53[hwt 0-1]]:[../../../../../../../../../../../../../../../../../../../../../../../../../../../../../../../..][../../../../../../../../../../../../../../../../../../../../../BB/../../../../../../../../../..]
 	Process OMPI jobid: [34565,1] App: 0 Process rank: 26 Bound: socket 1[core 54[hwt 0-1]]:[../../../../../../../../../../../../../../../../../../../../../../../../../../../../../../../..][../../../../../../../../../../../../../../../../../../../../../../BB/../../../../../../../../..]
 	Process OMPI jobid: [34565,1] App: 0 Process rank: 27 Bound: socket 1[core 55[hwt 0-1]]:[../../../../../../../../../../../../../../../../../../../../../../../../../../../../../../../..][../../../../../../../../../../../../../../../../../../../../../../../BB/../../../../../../../..]
 	Process OMPI jobid: [34565,1] App: 0 Process rank: 28 Bound: socket 1[core 60[hwt 0-1]]:[../../../../../../../../../../../../../../../../../../../../../../../../../../../../../../../..][../../../../../../../../../../../../../../../../../../../../../../../../../../../../BB/../../..]
 	Process OMPI jobid: [34565,1] App: 0 Process rank: 29 Bound: socket 1[core 61[hwt 0-1]]:[../../../../../../../../../../../../../../../../../../../../../../../../../../../../../../../..][../../../../../../../../../../../../../../../../../../../../../../../../../../../../../BB/../..]
 	Process OMPI jobid: [34565,1] App: 0 Process rank: 30 Bound: socket 1[core 62[hwt 0-1]]:[../../../../../../../../../../../../../../../../../../../../../../../../../../../../../../../..][../../../../../../../../../../../../../../../../../../../../../../../../../../../../../../BB/..]
 	Process OMPI jobid: [34565,1] App: 0 Process rank: 31 Bound: socket 1[core 63[hwt 0-1]]:[../../../../../../../../../../../../../../../../../../../../../../../../../../../../../../../..][../../../../../../../../../../../../../../../../../../../../../../../../../../../../../../../BB]

 =============================================================
Single Size change topo
dune-size 59520-1.1 0.00370898 0.00370019 0.00359647 0.00376073 0.00385683 0.00395387 0.00395328 0.00381662 0.00373063 0.00382109 0.00382495 0.00391332 0.00391519 0.00358244 0.00337615 0.00373515 0.00382662 0.00383462 0.00390458 0.00399213 0.00399268 0.00362992 0.00381633 0.00391307 0.00391552 0.0038882 0.00389237 0.00381074 0.00390552 0.00390954 0.00393313 0.00393316 
dune-size 59520-1.2 0.00295356 0.00295349 0.00293418 0.00293427 0.00294592 0.00294588 0.00292692 0.00292712 0.00294432 0.00294484 0.0029813 0.00298023 0.00293295 0.00293249 0.00295806 0.00295806 0.00295256 0.00295393 0.00293265 0.00293244 0.00297965 0.00297969 0.00297964 0.00297972 0.00298492 0.00298433 0.00294608 0.00294626 0.00293711 0.00293717 0.00290803 0.00290676 
dune-size 59520-1.3 0.00302942 0.00303983 0.00306393 0.00307842 0.00310599 0.00306964 0.00308385 0.00311158 0.00298618 0.00299647 0.00303145 0.00302409 0.00301016 0.00311257 0.00305729 0.00313374 0.003032 0.00303549 0.00306635 0.00307853 0.00310686 0.00306858 0.00308215 0.00311312 0.00298612 0.00299885 0.00302769 0.00302225 0.00300099 0.00311188 0.00306299 0.00312101 
dune-size 3968-15 0.00317717 0.00318231 0.0031718 0.00317284 0.00318058 0.00317455 0.0031789 0.00317541 0.00317631 0.00317973 0.00318317 0.00318154 0.00318418 0.003178 0.00317367 0.00317199 0.0031744 0.0031717 0.00316386 0.00316472 0.00316741 0.00316912 0.00317515 0.00317597 0.00317085 0.00317002 0.00317257 0.00317343 0.00316559 0.00316654 0.00316377 0.00316829 
dune-size 3968-15.5 0.00319574 0.00319135 0.00318897 0.0031893 0.0031983 0.00319487 0.0031966 0.00319223 0.00320183 0.00318897 0.00319308 0.00319927 0.00319493 0.00319842 0.00319132 0.0031905 0.00319405 0.00319581 0.00318939 0.00318936 0.00319667 0.0031922 0.00319752 0.00320173 0.00320011 0.00319043 0.00320093 0.00319917 0.0031931 0.00319745 0.00320004 0.00319395 
dune-size 1920-31 0.00335377 0.00335466 0.00335335 0.00336503 0.00336681 0.0033574 0.00335651 0.00335606 0.00335918 0.00335784 0.00336459 0.00335424 0.00336591 0.00336416 0.00336053 0.00336636 0.00335515 0.00335694 0.00336324 0.00336231 0.00335875 0.00336142 0.00336371 0.00336096 0.00336005 0.00336545 0.0033583 0.00336727 0.00336276 0.00335964 0.00335561 0.00336187 
dune-size 238080-1.1 0.0150593 0.0156865 0.0158881 0.0161447 0.0165134 0.0165125 0.0159911 0.016014 0.0160266 0.0158912 0.0152601 0.0151909 0.0156834 0.0152607 0.0156446 0.0158001 0.0160061 0.0160562 0.0160663 0.0157028 0.0153778 0.0156099 0.0156469 0.0160356 0.0160512 0.0157723 0.0153738 0.0156057 0.0157018 0.0155333 0.0148956 0.015047 
dune-size 238080-1.2 0.0120334 0.0120315 0.0121785 0.0121736 0.0120445 0.0120456 0.0121762 0.0121778 0.011775 0.0117788 0.0119866 0.0119863 0.0121657 0.0121705 0.0122191 0.0122219 0.0123403 0.0123416 0.01234 0.0123399 0.0120461 0.0120512 0.0121715 0.0121687 0.0121932 0.0121985 0.0121685 0.0121692 0.0118167 0.0118174 0.0119696 0.0119705 
dune-size 238080-1.3 0.0123187 0.0124491 0.0124462 0.0122767 0.0124483 0.0123102 0.012444 0.0121789 0.0124311 0.0124368 0.0122576 0.0121943 0.012388 0.0121496 0.0120629 0.0123903 0.0123151 0.0124481 0.0124489 0.012274 0.0124485 0.012309 0.0124434 0.0121798 0.0124319 0.0124368 0.0122611 0.0121967 0.0123863 0.0121462 0.0120635 0.01239 
dune-size 15872-15 0.0120761 0.0120674 0.0120686 0.0120707 0.0121024 0.0121022 0.0121022 0.0121028 0.0120787 0.0120885 0.0120816 0.0120851 0.0120702 0.0120702 0.0120702 0.0120702 0.0120566 0.0120568 0.0120562 0.0120536 0.0120619 0.0120635 0.0120621 0.0120633 0.0120493 0.0120493 0.0120495 0.0120502 0.0120476 0.0120475 0.0120481 0.0120482 
dune-size 15872-15.5 0.012025 0.0120079 0.0120165 0.0120086 0.0120417 0.0120386 0.0120388 0.0120381 0.012032 0.0120312 0.0120326 0.0120328 0.0120059 0.0120072 0.0120075 0.0120066 0.0120161 0.0120096 0.0120365 0.0120196 0.0120438 0.0120081 0.01202 0.0120269 0.0120318 0.0120074 0.0120371 0.0120093 0.0120137 0.0120104 0.0120078 0.0120356 
dune-size 7680-31 0.0123421 0.0123531 0.0123421 0.0123548 0.0123904 0.0123904 0.0123907 0.0123908 0.0123834 0.0123832 0.0123839 0.0123828 0.0123633 0.0123581 0.012365 0.0123423 0.0123473 0.0123423 0.0123565 0.012349 0.0123668 0.0123617 0.0123702 0.0123685 0.0123736 0.0123753 0.0123719 0.012377 0.0123453 0.0123598 0.0123436 0.0123507 
