 Data for JOB [19822,1] offset 0 Total slots allocated 8

 ========================   JOB MAP   ========================

 Data for node: n004	Num slots: 8	Max slots: 0	Num procs: 8
 	Process OMPI jobid: [19822,1] App: 0 Process rank: 0 Bound: socket 0[core 0[hwt 0-1]]:[BB/../../../../../../../../../../../../../../../../../../../../../../../../../../../../../../..][../../../../../../../../../../../../../../../../../../../../../../../../../../../../../../../..]
 	Process OMPI jobid: [19822,1] App: 0 Process rank: 1 Bound: socket 1[core 37[hwt 0-1]]:[../../../../../../../../../../../../../../../../../../../../../../../../../../../../../../../..][../../../../../BB/../../../../../../../../../../../../../../../../../../../../../../../../../..]
 	Process OMPI jobid: [19822,1] App: 0 Process rank: 2 Bound: socket 0[core 2[hwt 0-1]]:[../../BB/../../../../../../../../../../../../../../../../../../../../../../../../../../../../..][../../../../../../../../../../../../../../../../../../../../../../../../../../../../../../../..]
 	Process OMPI jobid: [19822,1] App: 0 Process rank: 3 Bound: socket 1[core 39[hwt 0-1]]:[../../../../../../../../../../../../../../../../../../../../../../../../../../../../../../../..][../../../../../../../BB/../../../../../../../../../../../../../../../../../../../../../../../..]
 	Process OMPI jobid: [19822,1] App: 0 Process rank: 4 Bound: socket 1[core 36[hwt 0-1]]:[../../../../../../../../../../../../../../../../../../../../../../../../../../../../../../../..][../../../../BB/../../../../../../../../../../../../../../../../../../../../../../../../../../..]
 	Process OMPI jobid: [19822,1] App: 0 Process rank: 5 Bound: socket 0[core 1[hwt 0-1]]:[../BB/../../../../../../../../../../../../../../../../../../../../../../../../../../../../../..][../../../../../../../../../../../../../../../../../../../../../../../../../../../../../../../..]
 	Process OMPI jobid: [19822,1] App: 0 Process rank: 6 Bound: socket 1[core 38[hwt 0-1]]:[../../../../../../../../../../../../../../../../../../../../../../../../../../../../../../../..][../../../../../../BB/../../../../../../../../../../../../../../../../../../../../../../../../..]
 	Process OMPI jobid: [19822,1] App: 0 Process rank: 7 Bound: socket 0[core 3[hwt 0-1]]:[../../../BB/../../../../../../../../../../../../../../../../../../../../../../../../../../../..][../../../../../../../../../../../../../../../../../../../../../../../../../../../../../../../..]

 =============================================================
Two group cota
0 1 3
3 0 2
5 6 4
5 7 7
5 4 6
0 2 2
0 3 1
3 1 1
3 2 0
6 7 5
6 4 4
6 5 7
7 4 6
7 5 5
7 6 4
4 5 7
4 6 6
4 7 5
1 2 0
1 3 3
1 0 2
2 3 1
2 0 0
2 1 3
dune-size 1 2.60519e-05 2.81191e-05 2.76763e-05 2.81729e-05 2.49068e-05 2.69834e-05 2.6509e-05 2.70316e-05 
dune-size 2 1.94056e-05 1.93757e-05 1.93997e-05 1.941e-05 2.27667e-05 2.28164e-05 2.284e-05 2.2791e-05 
dune-size 4 1.90741e-05 1.91276e-05 1.91427e-05 1.90983e-05 1.83722e-05 1.83737e-05 1.84096e-05 1.84176e-05 
dune-size 8 1.9834e-05 1.98932e-05 1.99179e-05 1.98646e-05 1.93339e-05 1.93627e-05 1.93609e-05 1.93871e-05 
dune-size 16 2.20805e-05 2.20922e-05 2.21197e-05 2.21155e-05 2.10082e-05 2.10153e-05 2.10114e-05 2.10153e-05 
dune-size 32 2.00936e-05 2.0054e-05 2.00768e-05 2.00709e-05 1.87116e-05 1.87291e-05 1.87145e-05 1.87356e-05 
dune-size 64 2.60539e-05 2.60711e-05 2.6047e-05 2.60626e-05 2.42395e-05 2.42723e-05 2.42985e-05 2.42811e-05 
dune-size 128 3.59166e-05 3.59472e-05 3.59162e-05 3.59231e-05 3.35692e-05 3.35897e-05 3.35742e-05 3.36103e-05 
dune-size 256 5.62375e-05 5.63524e-05 5.6288e-05 5.63572e-05 5.46824e-05 5.45859e-05 5.46795e-05 5.46152e-05 
dune-size 512 9.90944e-05 9.89362e-05 9.90942e-05 9.89805e-05 9.60639e-05 9.62443e-05 9.61271e-05 9.6256e-05 
dune-size 1024 0.000288635 0.000288142 0.000288125 0.000288411 0.000278313 0.000278029 0.00027805 0.000278517 
dune-size 2048 0.000508429 0.000508174 0.000507674 0.000507675 0.000493892 0.000493785 0.000494365 0.000494765 
dune-size 4096 0.000826097 0.000824818 0.000824815 0.000825615 0.000827375 0.000829081 0.000828269 0.000827265 
dune-size 8192 0.00142629 0.00142469 0.0014227 0.00142293 0.00138599 0.00138635 0.00138417 0.00138408 
dune-size 16384 0.00265961 0.00265867 0.00265494 0.0026551 0.00252388 0.00252291 0.00251942 0.0025194 
dune-size 32768 0.00525091 0.00524453 0.00523415 0.00523517 0.00486853 0.00486902 0.00487236 0.0048681 
dune-size 65536 0.0104575 0.0103516 0.0101974 0.0102359 0.00973896 0.00972825 0.00972862 0.0097315 
dune-size 131072 0.0207538 0.0202637 0.0202353 0.0205131 0.0198186 0.0195774 0.0198185 0.0195773 
