 Data for JOB [43889,1] offset 0 Total slots allocated 16

 ========================   JOB MAP   ========================

 Data for node: srl-adm2	Num slots: 16	Max slots: 0	Num procs: 16
 	Process OMPI jobid: [43889,1] App: 0 Process rank: 0 Bound: socket 0[core 0[hwt 0-1]]:[BB/../../../../../../../../../../../../../../..][../../../../../../../../../../../../../../../..]
 	Process OMPI jobid: [43889,1] App: 0 Process rank: 1 Bound: socket 0[core 1[hwt 0-1]]:[../BB/../../../../../../../../../../../../../..][../../../../../../../../../../../../../../../..]
 	Process OMPI jobid: [43889,1] App: 0 Process rank: 2 Bound: socket 0[core 2[hwt 0-1]]:[../../BB/../../../../../../../../../../../../..][../../../../../../../../../../../../../../../..]
 	Process OMPI jobid: [43889,1] App: 0 Process rank: 3 Bound: socket 0[core 3[hwt 0-1]]:[../../../BB/../../../../../../../../../../../..][../../../../../../../../../../../../../../../..]
 	Process OMPI jobid: [43889,1] App: 0 Process rank: 4 Bound: socket 0[core 8[hwt 0-1]]:[../../../../../../../../BB/../../../../../../..][../../../../../../../../../../../../../../../..]
 	Process OMPI jobid: [43889,1] App: 0 Process rank: 5 Bound: socket 0[core 9[hwt 0-1]]:[../../../../../../../../../BB/../../../../../..][../../../../../../../../../../../../../../../..]
 	Process OMPI jobid: [43889,1] App: 0 Process rank: 6 Bound: socket 0[core 10[hwt 0-1]]:[../../../../../../../../../../BB/../../../../..][../../../../../../../../../../../../../../../..]
 	Process OMPI jobid: [43889,1] App: 0 Process rank: 7 Bound: socket 0[core 11[hwt 0-1]]:[../../../../../../../../../../../BB/../../../..][../../../../../../../../../../../../../../../..]
 	Process OMPI jobid: [43889,1] App: 0 Process rank: 8 Bound: socket 1[core 16[hwt 0-1]]:[../../../../../../../../../../../../../../../..][BB/../../../../../../../../../../../../../../..]
 	Process OMPI jobid: [43889,1] App: 0 Process rank: 9 Bound: socket 1[core 17[hwt 0-1]]:[../../../../../../../../../../../../../../../..][../BB/../../../../../../../../../../../../../..]
 	Process OMPI jobid: [43889,1] App: 0 Process rank: 10 Bound: socket 1[core 18[hwt 0-1]]:[../../../../../../../../../../../../../../../..][../../BB/../../../../../../../../../../../../..]
 	Process OMPI jobid: [43889,1] App: 0 Process rank: 11 Bound: socket 1[core 19[hwt 0-1]]:[../../../../../../../../../../../../../../../..][../../../BB/../../../../../../../../../../../..]
 	Process OMPI jobid: [43889,1] App: 0 Process rank: 12 Bound: socket 1[core 24[hwt 0-1]]:[../../../../../../../../../../../../../../../..][../../../../../../../../BB/../../../../../../..]
 	Process OMPI jobid: [43889,1] App: 0 Process rank: 13 Bound: socket 1[core 25[hwt 0-1]]:[../../../../../../../../../../../../../../../..][../../../../../../../../../BB/../../../../../..]
 	Process OMPI jobid: [43889,1] App: 0 Process rank: 14 Bound: socket 1[core 26[hwt 0-1]]:[../../../../../../../../../../../../../../../..][../../../../../../../../../../BB/../../../../..]
 	Process OMPI jobid: [43889,1] App: 0 Process rank: 15 Bound: socket 1[core 27[hwt 0-1]]:[../../../../../../../../../../../../../../../..][../../../../../../../../../../../BB/../../../..]

 =============================================================
[1578562099.284394] [srl-adm2:60702:0]         mxm.c:196  MXM  WARN  The 'ulimit -s' on the system is set to 'unlimited'. This may have negative performance implications. Please set the stack size to the default value (10240) 
[1578562099.284778] [srl-adm2:60703:0]         mxm.c:196  MXM  WARN  The 'ulimit -s' on the system is set to 'unlimited'. This may have negative performance implications. Please set the stack size to the default value (10240) 
[1578562099.285981] [srl-adm2:60694:0]         mxm.c:196  MXM  WARN  The 'ulimit -s' on the system is set to 'unlimited'. This may have negative performance implications. Please set the stack size to the default value (10240) 
[1578562099.286012] [srl-adm2:60697:0]         mxm.c:196  MXM  WARN  The 'ulimit -s' on the system is set to 'unlimited'. This may have negative performance implications. Please set the stack size to the default value (10240) 
[1578562099.286005] [srl-adm2:60699:0]         mxm.c:196  MXM  WARN  The 'ulimit -s' on the system is set to 'unlimited'. This may have negative performance implications. Please set the stack size to the default value (10240) 
[1578562099.286584] [srl-adm2:60700:0]         mxm.c:196  MXM  WARN  The 'ulimit -s' on the system is set to 'unlimited'. This may have negative performance implications. Please set the stack size to the default value (10240) 
[1578562099.286663] [srl-adm2:60690:0]         mxm.c:196  MXM  WARN  The 'ulimit -s' on the system is set to 'unlimited'. This may have negative performance implications. Please set the stack size to the default value (10240) 
[1578562099.287262] [srl-adm2:60689:0]         mxm.c:196  MXM  WARN  The 'ulimit -s' on the system is set to 'unlimited'. This may have negative performance implications. Please set the stack size to the default value (10240) 
[1578562099.287407] [srl-adm2:60691:0]         mxm.c:196  MXM  WARN  The 'ulimit -s' on the system is set to 'unlimited'. This may have negative performance implications. Please set the stack size to the default value (10240) 
[1578562099.287368] [srl-adm2:60692:0]         mxm.c:196  MXM  WARN  The 'ulimit -s' on the system is set to 'unlimited'. This may have negative performance implications. Please set the stack size to the default value (10240) 
[1578562099.288297] [srl-adm2:60705:0]         mxm.c:196  MXM  WARN  The 'ulimit -s' on the system is set to 'unlimited'. This may have negative performance implications. Please set the stack size to the default value (10240) 
[1578562099.288919] [srl-adm2:60704:0]         mxm.c:196  MXM  WARN  The 'ulimit -s' on the system is set to 'unlimited'. This may have negative performance implications. Please set the stack size to the default value (10240) 
[1578562099.289047] [srl-adm2:60701:0]         mxm.c:196  MXM  WARN  The 'ulimit -s' on the system is set to 'unlimited'. This may have negative performance implications. Please set the stack size to the default value (10240) 
[1578562099.289688] [srl-adm2:60693:0]         mxm.c:196  MXM  WARN  The 'ulimit -s' on the system is set to 'unlimited'. This may have negative performance implications. Please set the stack size to the default value (10240) 
[1578562099.289695] [srl-adm2:60696:0]         mxm.c:196  MXM  WARN  The 'ulimit -s' on the system is set to 'unlimited'. This may have negative performance implications. Please set the stack size to the default value (10240) 
[1578562099.290062] [srl-adm2:60698:0]         mxm.c:196  MXM  WARN  The 'ulimit -s' on the system is set to 'unlimited'. This may have negative performance implications. Please set the stack size to the default value (10240) 
0: 12 
Edge Weight Method: 12
Cell on rank 0: 20302
Cell on rank 1: 22033
Cell on rank 2: 22710
Cell on rank 3: 23105
Cell on rank 4: 22896
Cell on rank 5: 23948
Cell on rank 6: 20322
Cell on rank 7: 20741
Cell on rank 8: 23276
Cell on rank 9: 23767
Cell on rank 10: 22668
Cell on rank 11: 20587
Cell on rank 12: 22904
Cell on rank 13: 21236
Cell on rank 14: 21579
Cell on rank 15: 23333
Edge-cut: 1021209

Rank 0 ghostCells: 2292
Rank 1 ghostCells: 2966
Rank 2 ghostCells: 2655
Rank 3 ghostCells: 2225
Rank 4 ghostCells: 3545
Rank 5 ghostCells: 4104
Rank 6 ghostCells: 4479
Rank 7 ghostCells: 4888
Rank 8 ghostCells: 2713
Rank 9 ghostCells: 2415
Rank 10 ghostCells: 830
Rank 11 ghostCells: 1775
Rank 12 ghostCells: 2612
Rank 13 ghostCells: 3112
Rank 14 ghostCells: 940
Rank 15 ghostCells: 2120

Rank 0 numCells: 22594
Rank 1 numCells: 24999
Rank 2 numCells: 25365
Rank 3 numCells: 25330
Rank 4 numCells: 26441
Rank 5 numCells: 28052
Rank 6 numCells: 24801
Rank 7 numCells: 25629
Rank 8 numCells: 25989
Rank 9 numCells: 26182
Rank 10 numCells: 23498
Rank 11 numCells: 22362
Rank 12 numCells: 25516
Rank 13 numCells: 24348
Rank 14 numCells: 22519
Rank 15 numCells: 25453

Rank 0 interiorCells: 20302
Rank 1 interiorCells: 22033
Rank 2 interiorCells: 22710
Rank 3 interiorCells: 23105
Rank 4 interiorCells: 22896
Rank 5 interiorCells: 23948
Rank 6 interiorCells: 20322
Rank 7 interiorCells: 20741
Rank 8 interiorCells: 23276
Rank 9 interiorCells: 23767
Rank 10 interiorCells: 22668
Rank 11 interiorCells: 20587
Rank 12 interiorCells: 22904
Rank 13 interiorCells: 21236
Rank 14 interiorCells: 21579
Rank 15 interiorCells: 23333

MeasComm+1 16: 0.000131469 0.00014386 0.000127982 0.000113023 0.000177495 0.000198596 0.000211054 0.000217885 0.00013939 0.000135707 7.2628e-05 9.7913e-05 0.00013886 0.000174668 8.3922e-05 0.000112485 
MeasComm+1 16: 0.000130567 0.000142379 0.000127276 0.000112649 0.000176755 0.000197885 0.000209962 0.000217357 0.000139991 0.000137812 7.2371e-05 9.8996e-05 0.000138418 0.000174867 8.3554e-05 0.000112576 
MeasComm+1 16: 0.000130935 0.000142632 0.000126828 0.000113196 0.000176256 0.000197536 0.00020908 0.000218294 0.000138794 0.000138153 6.6549e-05 9.957e-05 0.000138234 0.000174085 7.5646e-05 0.000113032 
MeasComm+1 16: 0.000131232 0.000142298 0.000127142 0.000112965 0.000177212 0.000196674 0.000210032 0.000217394 0.000139389 0.000137784 7.2311e-05 9.7919e-05 0.000138902 0.000174843 8.401e-05 0.000112527 
MeasComm+1 16: 0.000130195 0.000142328 0.000127253 0.000110218 0.000176589 0.000196428 0.000209976 0.000217035 0.000139655 0.000134672 7.2488e-05 9.0857e-05 0.000138978 0.000174984 8.2784e-05 0.00010688 
MeasComm+1 16: 0.000130805 0.000142261 0.000127008 0.000112992 0.000176543 0.000196834 0.000209554 0.000218385 0.0001399 0.000137406 7.2262e-05 9.9884e-05 0.000138821 0.000175414 8.3831e-05 0.000112916 
MeasComm+1 16: 0.000131551 0.000141501 0.000126817 0.000113151 0.000177099 0.000197225 0.000209119 0.000218446 0.000139282 0.000137235 7.1941e-05 9.9834e-05 0.000137751 0.000174656 8.3814e-05 0.000112522 
MeasComm+1 16: 0.000131292 0.00014237 0.000127274 0.000113283 0.000176975 0.000197861 0.000208932 0.000217814 0.000139848 0.000135147 7.2333e-05 9.848e-05 0.000138598 0.000174229 8.3966e-05 0.000112357 
MeasComm+1 16: 0.000130436 0.000141994 0.000126739 0.000113215 0.000177107 0.000196586 0.000210236 0.000218273 0.000139859 0.000136367 7.1909e-05 9.8968e-05 0.000137997 0.000174498 8.3914e-05 0.000112354 
MeasComm+1 16: 0.000130377 0.000142473 0.000127004 0.000113709 0.000177529 0.000196469 0.000210376 0.000217548 0.000139821 0.000133639 4.7321e-05 9.8959e-05 0.000139574 0.00017317 8.3644e-05 0.000106737 

ComTab rank 0: 0 562 536 112 0 863 300 35 0 0 0 0 0 0 0 0 
ComTab rank 1: 551 0 765 960 0 869 0 0 0 0 0 0 0 0 0 0 
ComTab rank 2: 504 768 0 1195 0 349 0 0 0 0 0 0 0 0 0 0 
ComTab rank 3: 118 958 1221 0 0 0 0 0 0 0 0 0 0 0 0 0 
ComTab rank 4: 0 0 0 0 0 578 571 1591 55 921 0 0 0 119 0 0 
ComTab rank 5: 829 852 343 0 597 0 351 1380 0 0 0 0 0 0 0 0 
ComTab rank 6: 299 0 0 0 632 364 0 1843 67 95 0 0 94 1449 0 0 
ComTab rank 7: 32 0 0 0 1609 1466 1843 0 0 0 0 0 0 382 0 0 
ComTab rank 8: 0 0 0 0 56 0 63 0 0 1410 0 934 116 191 0 0 
ComTab rank 9: 0 0 0 0 912 0 84 0 1378 0 0 0 0 107 0 0 
ComTab rank 10: 0 0 0 0 0 0 0 0 0 0 0 830 0 0 0 0 
ComTab rank 11: 0 0 0 0 0 0 0 0 923 0 852 0 0 0 0 0 
ComTab rank 12: 0 0 0 0 0 0 70 0 86 0 0 0 0 1310 0 1175 
ComTab rank 13: 0 0 0 0 121 0 1324 361 145 98 0 0 1325 0 0 0 
ComTab rank 14: 0 0 0 0 0 0 0 0 0 0 0 0 0 0 0 940 
ComTab rank 15: 0 0 0 0 0 0 0 0 0 0 0 0 1163 0 957 0 

Edge-cut: 33841

Wgt-cut: 3.96707e-07

[1578562132.425219] [srl-adm2:60690:0]          mpool.c:38   UCX  WARN  object 0x1555393fff60 was not returned to mpool mm_recv_desc
[1578562132.425335] [srl-adm2:60691:0]          mpool.c:38   UCX  WARN  object 0x1555393fdee0 was not returned to mpool mm_recv_desc
[1578562132.425307] [srl-adm2:60693:0]          mpool.c:38   UCX  WARN  object 0x1555393f5ce0 was not returned to mpool mm_recv_desc
[1578562132.425392] [srl-adm2:60698:0]          mpool.c:38   UCX  WARN  object 0x1555393f3c60 was not returned to mpool mm_recv_desc
