 Data for JOB [27169,1] offset 0 Total slots allocated 8

 ========================   JOB MAP   ========================

 Data for node: srl-mds1	Num slots: 8	Max slots: 0	Num procs: 8
 	Process OMPI jobid: [27169,1] App: 0 Process rank: 0 Bound: socket 0[core 0[hwt 0-1]]:[BB/../../../../../../../../../../../../../../..][../../../../../../../../../../../../../../../..]
 	Process OMPI jobid: [27169,1] App: 0 Process rank: 1 Bound: socket 0[core 1[hwt 0-1]]:[../BB/../../../../../../../../../../../../../..][../../../../../../../../../../../../../../../..]
 	Process OMPI jobid: [27169,1] App: 0 Process rank: 2 Bound: socket 0[core 2[hwt 0-1]]:[../../BB/../../../../../../../../../../../../..][../../../../../../../../../../../../../../../..]
 	Process OMPI jobid: [27169,1] App: 0 Process rank: 3 Bound: socket 0[core 3[hwt 0-1]]:[../../../BB/../../../../../../../../../../../..][../../../../../../../../../../../../../../../..]
 	Process OMPI jobid: [27169,1] App: 0 Process rank: 4 Bound: socket 1[core 16[hwt 0-1]]:[../../../../../../../../../../../../../../../..][BB/../../../../../../../../../../../../../../..]
 	Process OMPI jobid: [27169,1] App: 0 Process rank: 5 Bound: socket 1[core 17[hwt 0-1]]:[../../../../../../../../../../../../../../../..][../BB/../../../../../../../../../../../../../..]
 	Process OMPI jobid: [27169,1] App: 0 Process rank: 6 Bound: socket 1[core 18[hwt 0-1]]:[../../../../../../../../../../../../../../../..][../../BB/../../../../../../../../../../../../..]
 	Process OMPI jobid: [27169,1] App: 0 Process rank: 7 Bound: socket 1[core 19[hwt 0-1]]:[../../../../../../../../../../../../../../../..][../../../BB/../../../../../../../../../../../..]

 =============================================================
[1578650258.252543] [srl-mds1:49450:0]         mxm.c:196  MXM  WARN  The 'ulimit -s' on the system is set to 'unlimited'. This may have negative performance implications. Please set the stack size to the default value (10240) 
[1578650258.252665] [srl-mds1:49442:0]         mxm.c:196  MXM  WARN  The 'ulimit -s' on the system is set to 'unlimited'. This may have negative performance implications. Please set the stack size to the default value (10240) 
[1578650258.254348] [srl-mds1:49444:0]         mxm.c:196  MXM  WARN  The 'ulimit -s' on the system is set to 'unlimited'. This may have negative performance implications. Please set the stack size to the default value (10240) 
[1578650258.254314] [srl-mds1:49446:0]         mxm.c:196  MXM  WARN  The 'ulimit -s' on the system is set to 'unlimited'. This may have negative performance implications. Please set the stack size to the default value (10240) 
[1578650258.254440] [srl-mds1:49447:0]         mxm.c:196  MXM  WARN  The 'ulimit -s' on the system is set to 'unlimited'. This may have negative performance implications. Please set the stack size to the default value (10240) 
[1578650258.254455] [srl-mds1:49445:0]         mxm.c:196  MXM  WARN  The 'ulimit -s' on the system is set to 'unlimited'. This may have negative performance implications. Please set the stack size to the default value (10240) 
[1578650258.254529] [srl-mds1:49448:0]         mxm.c:196  MXM  WARN  The 'ulimit -s' on the system is set to 'unlimited'. This may have negative performance implications. Please set the stack size to the default value (10240) 
[1578650258.254684] [srl-mds1:49449:0]         mxm.c:196  MXM  WARN  The 'ulimit -s' on the system is set to 'unlimited'. This may have negative performance implications. Please set the stack size to the default value (10240) 
0: 12 
Edge Weight Method: 12
Cell on rank 0: 46076
Cell on rank 1: 44433
Cell on rank 2: 41192
Cell on rank 3: 44481
Cell on rank 4: 48181
Cell on rank 5: 45478
Cell on rank 6: 42267
Cell on rank 7: 43299
Edge-cut: 679774

Rank 0 ghostCells: 4272
Rank 1 ghostCells: 2153
Rank 2 ghostCells: 5711
Rank 3 ghostCells: 6456
Rank 4 ghostCells: 2339
Rank 5 ghostCells: 898
Rank 6 ghostCells: 2956
Rank 7 ghostCells: 1143

Rank 0 numCells: 50348
Rank 1 numCells: 46586
Rank 2 numCells: 46903
Rank 3 numCells: 50937
Rank 4 numCells: 50520
Rank 5 numCells: 46376
Rank 6 numCells: 45223
Rank 7 numCells: 44442

Rank 0 interiorCells: 46076
Rank 1 interiorCells: 44433
Rank 2 interiorCells: 41192
Rank 3 interiorCells: 44481
Rank 4 interiorCells: 48181
Rank 5 interiorCells: 45478
Rank 6 interiorCells: 42267
Rank 7 interiorCells: 43299

MeasComm+1 8: 0.000204937 0.000147527 0.000253165 0.000282869 0.000181115 8.7203e-05 0.000173169 0.000107095 
MeasComm+1 8: 0.000201695 0.000144454 0.000248998 0.000275332 0.000181988 8.5514e-05 0.000168822 0.000105803 
MeasComm+1 8: 0.000200734 0.00014489 0.000248265 0.000275528 0.000180098 8.7502e-05 0.000169403 0.000107229 
MeasComm+1 8: 0.000198614 0.000145281 0.000246896 0.00027508 0.000179494 8.7657e-05 0.000169621 6.3401e-05 
MeasComm+1 8: 0.000200433 0.000144742 0.000247725 0.0002752 0.000181376 8.7176e-05 0.000169369 0.000108158 
MeasComm+1 8: 0.000200123 0.000144073 0.000248514 0.000275462 0.000180185 8.756e-05 0.000168967 0.000106358 
MeasComm+1 8: 0.000199468 0.000145083 0.000247927 0.000275266 0.000179948 8.7167e-05 0.000169871 0.000107091 
MeasComm+1 8: 0.000199784 0.00014564 0.000247257 0.000275566 0.00018002 8.7565e-05 0.000168692 0.000105534 
MeasComm+1 8: 0.000199673 0.000145675 0.000248672 0.000274762 0.00018026 8.721e-05 0.00016951 0.000106866 
MeasComm+1 8: 0.000199921 0.000144625 0.000247769 0.000275741 0.000180737 8.8363e-05 0.000169482 0.000107527 

ComTab rank 0: 0 2173 0 2099 0 0 0 0 
ComTab rank 1: 2153 0 0 0 0 0 0 0 
ComTab rank 2: 0 0 0 3861 372 0 1529 0 
ComTab rank 3: 2061 0 3673 0 756 0 0 0 
ComTab rank 4: 0 0 401 761 0 911 328 0 
ComTab rank 5: 0 0 0 0 898 0 0 0 
ComTab rank 6: 0 0 1501 0 324 0 0 1154 
ComTab rank 7: 0 0 0 0 0 0 1143 0 

Edge-cut: 20684

Wgt-cut: 2.706e-07

[1578650290.738295] [srl-mds1:49448:0]          mpool.c:38   UCX  WARN  object 0x155544c70f60 was not returned to mpool mm_recv_desc
[1578650290.755436] [srl-mds1:49445:0]          mpool.c:38   UCX  WARN  object 0x155544c6ade0 was not returned to mpool mm_recv_desc
[1578650290.756467] [srl-mds1:49444:0]          mpool.c:38   UCX  WARN  object 0x555564656cc0 was not returned to mpool ucp_am_bufs
[1578650290.756882] [srl-mds1:49450:0]          mpool.c:38   UCX  WARN  object 0x155544c6eee0 was not returned to mpool mm_recv_desc
[1578650290.756836] [srl-mds1:49449:0]          mpool.c:38   UCX  WARN  object 0x155544c68d60 was not returned to mpool mm_recv_desc
[1578650290.757051] [srl-mds1:49447:0]          mpool.c:38   UCX  WARN  object 0x55555b9ede00 was not returned to mpool ucp_am_bufs
[1578650290.757085] [srl-mds1:49446:0]          mpool.c:38   UCX  WARN  object 0x155544c6ce60 was not returned to mpool mm_recv_desc
