 Data for JOB [57941,1] offset 0 Total slots allocated 32

 ========================   JOB MAP   ========================

 Data for node: n003	Num slots: 32	Max slots: 0	Num procs: 32
 	Process OMPI jobid: [57941,1] App: 0 Process rank: 0 Bound: socket 0[core 0[hwt 0-1]]:[BB/../../../../../../../../../../../../../../../../../../../../../../../../../../../../../../..][../../../../../../../../../../../../../../../../../../../../../../../../../../../../../../../..]
 	Process OMPI jobid: [57941,1] App: 0 Process rank: 1 Bound: socket 0[core 1[hwt 0-1]]:[../BB/../../../../../../../../../../../../../../../../../../../../../../../../../../../../../..][../../../../../../../../../../../../../../../../../../../../../../../../../../../../../../../..]
 	Process OMPI jobid: [57941,1] App: 0 Process rank: 2 Bound: socket 0[core 2[hwt 0-1]]:[../../BB/../../../../../../../../../../../../../../../../../../../../../../../../../../../../..][../../../../../../../../../../../../../../../../../../../../../../../../../../../../../../../..]
 	Process OMPI jobid: [57941,1] App: 0 Process rank: 3 Bound: socket 0[core 3[hwt 0-1]]:[../../../BB/../../../../../../../../../../../../../../../../../../../../../../../../../../../..][../../../../../../../../../../../../../../../../../../../../../../../../../../../../../../../..]
 	Process OMPI jobid: [57941,1] App: 0 Process rank: 4 Bound: socket 0[core 8[hwt 0-1]]:[../../../../../../../../BB/../../../../../../../../../../../../../../../../../../../../../../..][../../../../../../../../../../../../../../../../../../../../../../../../../../../../../../../..]
 	Process OMPI jobid: [57941,1] App: 0 Process rank: 5 Bound: socket 0[core 9[hwt 0-1]]:[../../../../../../../../../BB/../../../../../../../../../../../../../../../../../../../../../..][../../../../../../../../../../../../../../../../../../../../../../../../../../../../../../../..]
 	Process OMPI jobid: [57941,1] App: 0 Process rank: 6 Bound: socket 0[core 10[hwt 0-1]]:[../../../../../../../../../../BB/../../../../../../../../../../../../../../../../../../../../..][../../../../../../../../../../../../../../../../../../../../../../../../../../../../../../../..]
 	Process OMPI jobid: [57941,1] App: 0 Process rank: 7 Bound: socket 0[core 11[hwt 0-1]]:[../../../../../../../../../../../BB/../../../../../../../../../../../../../../../../../../../..][../../../../../../../../../../../../../../../../../../../../../../../../../../../../../../../..]
 	Process OMPI jobid: [57941,1] App: 0 Process rank: 8 Bound: socket 0[core 16[hwt 0-1]]:[../../../../../../../../../../../../../../../../BB/../../../../../../../../../../../../../../..][../../../../../../../../../../../../../../../../../../../../../../../../../../../../../../../..]
 	Process OMPI jobid: [57941,1] App: 0 Process rank: 9 Bound: socket 0[core 17[hwt 0-1]]:[../../../../../../../../../../../../../../../../../BB/../../../../../../../../../../../../../..][../../../../../../../../../../../../../../../../../../../../../../../../../../../../../../../..]
 	Process OMPI jobid: [57941,1] App: 0 Process rank: 10 Bound: socket 0[core 18[hwt 0-1]]:[../../../../../../../../../../../../../../../../../../BB/../../../../../../../../../../../../..][../../../../../../../../../../../../../../../../../../../../../../../../../../../../../../../..]
 	Process OMPI jobid: [57941,1] App: 0 Process rank: 11 Bound: socket 0[core 19[hwt 0-1]]:[../../../../../../../../../../../../../../../../../../../BB/../../../../../../../../../../../..][../../../../../../../../../../../../../../../../../../../../../../../../../../../../../../../..]
 	Process OMPI jobid: [57941,1] App: 0 Process rank: 12 Bound: socket 0[core 24[hwt 0-1]]:[../../../../../../../../../../../../../../../../../../../../../../../../BB/../../../../../../..][../../../../../../../../../../../../../../../../../../../../../../../../../../../../../../../..]
 	Process OMPI jobid: [57941,1] App: 0 Process rank: 13 Bound: socket 0[core 25[hwt 0-1]]:[../../../../../../../../../../../../../../../../../../../../../../../../../BB/../../../../../..][../../../../../../../../../../../../../../../../../../../../../../../../../../../../../../../..]
 	Process OMPI jobid: [57941,1] App: 0 Process rank: 14 Bound: socket 0[core 26[hwt 0-1]]:[../../../../../../../../../../../../../../../../../../../../../../../../../../BB/../../../../..][../../../../../../../../../../../../../../../../../../../../../../../../../../../../../../../..]
 	Process OMPI jobid: [57941,1] App: 0 Process rank: 15 Bound: socket 0[core 27[hwt 0-1]]:[../../../../../../../../../../../../../../../../../../../../../../../../../../../BB/../../../..][../../../../../../../../../../../../../../../../../../../../../../../../../../../../../../../..]
 	Process OMPI jobid: [57941,1] App: 0 Process rank: 16 Bound: socket 1[core 32[hwt 0-1]]:[../../../../../../../../../../../../../../../../../../../../../../../../../../../../../../../..][BB/../../../../../../../../../../../../../../../../../../../../../../../../../../../../../../..]
 	Process OMPI jobid: [57941,1] App: 0 Process rank: 17 Bound: socket 1[core 33[hwt 0-1]]:[../../../../../../../../../../../../../../../../../../../../../../../../../../../../../../../..][../BB/../../../../../../../../../../../../../../../../../../../../../../../../../../../../../..]
 	Process OMPI jobid: [57941,1] App: 0 Process rank: 18 Bound: socket 1[core 34[hwt 0-1]]:[../../../../../../../../../../../../../../../../../../../../../../../../../../../../../../../..][../../BB/../../../../../../../../../../../../../../../../../../../../../../../../../../../../..]
 	Process OMPI jobid: [57941,1] App: 0 Process rank: 19 Bound: socket 1[core 35[hwt 0-1]]:[../../../../../../../../../../../../../../../../../../../../../../../../../../../../../../../..][../../../BB/../../../../../../../../../../../../../../../../../../../../../../../../../../../..]
 	Process OMPI jobid: [57941,1] App: 0 Process rank: 20 Bound: socket 1[core 40[hwt 0-1]]:[../../../../../../../../../../../../../../../../../../../../../../../../../../../../../../../..][../../../../../../../../BB/../../../../../../../../../../../../../../../../../../../../../../..]
 	Process OMPI jobid: [57941,1] App: 0 Process rank: 21 Bound: socket 1[core 41[hwt 0-1]]:[../../../../../../../../../../../../../../../../../../../../../../../../../../../../../../../..][../../../../../../../../../BB/../../../../../../../../../../../../../../../../../../../../../..]
 	Process OMPI jobid: [57941,1] App: 0 Process rank: 22 Bound: socket 1[core 42[hwt 0-1]]:[../../../../../../../../../../../../../../../../../../../../../../../../../../../../../../../..][../../../../../../../../../../BB/../../../../../../../../../../../../../../../../../../../../..]
 	Process OMPI jobid: [57941,1] App: 0 Process rank: 23 Bound: socket 1[core 43[hwt 0-1]]:[../../../../../../../../../../../../../../../../../../../../../../../../../../../../../../../..][../../../../../../../../../../../BB/../../../../../../../../../../../../../../../../../../../..]
 	Process OMPI jobid: [57941,1] App: 0 Process rank: 24 Bound: socket 1[core 48[hwt 0-1]]:[../../../../../../../../../../../../../../../../../../../../../../../../../../../../../../../..][../../../../../../../../../../../../../../../../BB/../../../../../../../../../../../../../../..]
 	Process OMPI jobid: [57941,1] App: 0 Process rank: 25 Bound: socket 1[core 49[hwt 0-1]]:[../../../../../../../../../../../../../../../../../../../../../../../../../../../../../../../..][../../../../../../../../../../../../../../../../../BB/../../../../../../../../../../../../../..]
 	Process OMPI jobid: [57941,1] App: 0 Process rank: 26 Bound: socket 1[core 50[hwt 0-1]]:[../../../../../../../../../../../../../../../../../../../../../../../../../../../../../../../..][../../../../../../../../../../../../../../../../../../BB/../../../../../../../../../../../../..]
 	Process OMPI jobid: [57941,1] App: 0 Process rank: 27 Bound: socket 1[core 51[hwt 0-1]]:[../../../../../../../../../../../../../../../../../../../../../../../../../../../../../../../..][../../../../../../../../../../../../../../../../../../../BB/../../../../../../../../../../../..]
 	Process OMPI jobid: [57941,1] App: 0 Process rank: 28 Bound: socket 1[core 56[hwt 0-1]]:[../../../../../../../../../../../../../../../../../../../../../../../../../../../../../../../..][../../../../../../../../../../../../../../../../../../../../../../../../BB/../../../../../../..]
 	Process OMPI jobid: [57941,1] App: 0 Process rank: 29 Bound: socket 1[core 57[hwt 0-1]]:[../../../../../../../../../../../../../../../../../../../../../../../../../../../../../../../..][../../../../../../../../../../../../../../../../../../../../../../../../../BB/../../../../../..]
 	Process OMPI jobid: [57941,1] App: 0 Process rank: 30 Bound: socket 1[core 58[hwt 0-1]]:[../../../../../../../../../../../../../../../../../../../../../../../../../../../../../../../..][../../../../../../../../../../../../../../../../../../../../../../../../../../BB/../../../../..]
 	Process OMPI jobid: [57941,1] App: 0 Process rank: 31 Bound: socket 1[core 59[hwt 0-1]]:[../../../../../../../../../../../../../../../../../../../../../../../../../../../../../../../..][../../../../../../../../../../../../../../../../../../../../../../../../../../../BB/../../../..]

 =============================================================
[1579248403.132384] [n003:87271:0]         mxm.c:196  MXM  WARN  The 'ulimit -s' on the system is set to 'unlimited'. This may have negative performance implications. Please set the stack size to the default value (10240) 
[1579248403.132918] [n003:87261:0]         mxm.c:196  MXM  WARN  The 'ulimit -s' on the system is set to 'unlimited'. This may have negative performance implications. Please set the stack size to the default value (10240) 
[1579248403.132919] [n003:87263:0]         mxm.c:196  MXM  WARN  The 'ulimit -s' on the system is set to 'unlimited'. This may have negative performance implications. Please set the stack size to the default value (10240) 
[1579248403.133018] [n003:87262:0]         mxm.c:196  MXM  WARN  The 'ulimit -s' on the system is set to 'unlimited'. This may have negative performance implications. Please set the stack size to the default value (10240) 
[1579248403.133035] [n003:87272:0]         mxm.c:196  MXM  WARN  The 'ulimit -s' on the system is set to 'unlimited'. This may have negative performance implications. Please set the stack size to the default value (10240) 
[1579248403.134130] [n003:87273:0]         mxm.c:196  MXM  WARN  The 'ulimit -s' on the system is set to 'unlimited'. This may have negative performance implications. Please set the stack size to the default value (10240) 
[1579248403.134237] [n003:87264:0]         mxm.c:196  MXM  WARN  The 'ulimit -s' on the system is set to 'unlimited'. This may have negative performance implications. Please set the stack size to the default value (10240) 
[1579248403.135360] [n003:87270:0]         mxm.c:196  MXM  WARN  The 'ulimit -s' on the system is set to 'unlimited'. This may have negative performance implications. Please set the stack size to the default value (10240) 
[1579248403.135798] [n003:87254:0]         mxm.c:196  MXM  WARN  The 'ulimit -s' on the system is set to 'unlimited'. This may have negative performance implications. Please set the stack size to the default value (10240) 
[1579248403.135798] [n003:87255:0]         mxm.c:196  MXM  WARN  The 'ulimit -s' on the system is set to 'unlimited'. This may have negative performance implications. Please set the stack size to the default value (10240) 
[1579248403.136219] [n003:87257:0]         mxm.c:196  MXM  WARN  The 'ulimit -s' on the system is set to 'unlimited'. This may have negative performance implications. Please set the stack size to the default value (10240) 
[1579248403.136217] [n003:87260:0]         mxm.c:196  MXM  WARN  The 'ulimit -s' on the system is set to 'unlimited'. This may have negative performance implications. Please set the stack size to the default value (10240) 
[1579248403.138947] [n003:87277:0]         mxm.c:196  MXM  WARN  The 'ulimit -s' on the system is set to 'unlimited'. This may have negative performance implications. Please set the stack size to the default value (10240) 
[1579248403.140159] [n003:87280:0]         mxm.c:196  MXM  WARN  The 'ulimit -s' on the system is set to 'unlimited'. This may have negative performance implications. Please set the stack size to the default value (10240) 
[1579248403.140159] [n003:87279:0]         mxm.c:196  MXM  WARN  The 'ulimit -s' on the system is set to 'unlimited'. This may have negative performance implications. Please set the stack size to the default value (10240) 
[1579248403.140289] [n003:87275:0]         mxm.c:196  MXM  WARN  The 'ulimit -s' on the system is set to 'unlimited'. This may have negative performance implications. Please set the stack size to the default value (10240) 
[1579248403.140556] [n003:87284:0]         mxm.c:196  MXM  WARN  The 'ulimit -s' on the system is set to 'unlimited'. This may have negative performance implications. Please set the stack size to the default value (10240) 
[1579248403.141225] [n003:87259:0]         mxm.c:196  MXM  WARN  The 'ulimit -s' on the system is set to 'unlimited'. This may have negative performance implications. Please set the stack size to the default value (10240) 
[1579248403.141568] [n003:87276:0]         mxm.c:196  MXM  WARN  The 'ulimit -s' on the system is set to 'unlimited'. This may have negative performance implications. Please set the stack size to the default value (10240) 
[1579248403.141720] [n003:87266:0]         mxm.c:196  MXM  WARN  The 'ulimit -s' on the system is set to 'unlimited'. This may have negative performance implications. Please set the stack size to the default value (10240) 
[1579248403.143217] [n003:87269:0]         mxm.c:196  MXM  WARN  The 'ulimit -s' on the system is set to 'unlimited'. This may have negative performance implications. Please set the stack size to the default value (10240) 
[1579248403.143736] [n003:87281:0]         mxm.c:196  MXM  WARN  The 'ulimit -s' on the system is set to 'unlimited'. This may have negative performance implications. Please set the stack size to the default value (10240) 
[1579248403.143881] [n003:87256:0]         mxm.c:196  MXM  WARN  The 'ulimit -s' on the system is set to 'unlimited'. This may have negative performance implications. Please set the stack size to the default value (10240) 
[1579248403.143898] [n003:87253:0]         mxm.c:196  MXM  WARN  The 'ulimit -s' on the system is set to 'unlimited'. This may have negative performance implications. Please set the stack size to the default value (10240) 
[1579248403.144421] [n003:87283:0]         mxm.c:196  MXM  WARN  The 'ulimit -s' on the system is set to 'unlimited'. This may have negative performance implications. Please set the stack size to the default value (10240) 
[1579248403.144599] [n003:87258:0]         mxm.c:196  MXM  WARN  The 'ulimit -s' on the system is set to 'unlimited'. This may have negative performance implications. Please set the stack size to the default value (10240) 
[1579248403.144840] [n003:87268:0]         mxm.c:196  MXM  WARN  The 'ulimit -s' on the system is set to 'unlimited'. This may have negative performance implications. Please set the stack size to the default value (10240) 
[1579248403.144922] [n003:87274:0]         mxm.c:196  MXM  WARN  The 'ulimit -s' on the system is set to 'unlimited'. This may have negative performance implications. Please set the stack size to the default value (10240) 
[1579248403.144994] [n003:87282:0]         mxm.c:196  MXM  WARN  The 'ulimit -s' on the system is set to 'unlimited'. This may have negative performance implications. Please set the stack size to the default value (10240) 
[1579248403.145163] [n003:87278:0]         mxm.c:196  MXM  WARN  The 'ulimit -s' on the system is set to 'unlimited'. This may have negative performance implications. Please set the stack size to the default value (10240) 
[1579248403.147722] [n003:87285:0]         mxm.c:196  MXM  WARN  The 'ulimit -s' on the system is set to 'unlimited'. This may have negative performance implications. Please set the stack size to the default value (10240) 
[1579248403.148334] [n003:87265:0]         mxm.c:196  MXM  WARN  The 'ulimit -s' on the system is set to 'unlimited'. This may have negative performance implications. Please set the stack size to the default value (10240) 
0: 4 

Rank 0 ghostCells: 840
Rank 1 ghostCells: 979
Rank 2 ghostCells: 848
Rank 3 ghostCells: 797
Rank 4 ghostCells: 971
Rank 5 ghostCells: 1170
Rank 6 ghostCells: 942
Rank 7 ghostCells: 544
Rank 8 ghostCells: 670
Rank 9 ghostCells: 1477
Rank 10 ghostCells: 845
Rank 11 ghostCells: 1684
Rank 12 ghostCells: 327
Rank 13 ghostCells: 581
Rank 14 ghostCells: 641
Rank 15 ghostCells: 601
Rank 16 ghostCells: 1167
Rank 17 ghostCells: 894
Rank 18 ghostCells: 924
Rank 19 ghostCells: 851
Rank 20 ghostCells: 897
Rank 21 ghostCells: 491
Rank 22 ghostCells: 805
Rank 23 ghostCells: 352
Rank 24 ghostCells: 308
Rank 25 ghostCells: 952
Rank 26 ghostCells: 526
Rank 27 ghostCells: 405
Rank 28 ghostCells: 949
Rank 29 ghostCells: 584
Rank 30 ghostCells: 551
Rank 31 ghostCells: 479

Rank 0 numCells: 2366
Rank 1 numCells: 2411
Rank 2 numCells: 2283
Rank 3 numCells: 2309
Rank 4 numCells: 2485
Rank 5 numCells: 2680
Rank 6 numCells: 2371
Rank 7 numCells: 2040
Rank 8 numCells: 2167
Rank 9 numCells: 2923
Rank 10 numCells: 2164
Rank 11 numCells: 3192
Rank 12 numCells: 1619
Rank 13 numCells: 2058
Rank 14 numCells: 2072
Rank 15 numCells: 1714
Rank 16 numCells: 2642
Rank 17 numCells: 2421
Rank 18 numCells: 2425
Rank 19 numCells: 2283
Rank 20 numCells: 2410
Rank 21 numCells: 1945
Rank 22 numCells: 2271
Rank 23 numCells: 1467
Rank 24 numCells: 1822
Rank 25 numCells: 2001
Rank 26 numCells: 1882
Rank 27 numCells: 1204
Rank 28 numCells: 2393
Rank 29 numCells: 1661
Rank 30 numCells: 2041
Rank 31 numCells: 1761

Rank 0 interiorCells: 1526
Rank 1 interiorCells: 1432
Rank 2 interiorCells: 1435
Rank 3 interiorCells: 1512
Rank 4 interiorCells: 1514
Rank 5 interiorCells: 1510
Rank 6 interiorCells: 1429
Rank 7 interiorCells: 1496
Rank 8 interiorCells: 1497
Rank 9 interiorCells: 1446
Rank 10 interiorCells: 1319
Rank 11 interiorCells: 1508
Rank 12 interiorCells: 1292
Rank 13 interiorCells: 1477
Rank 14 interiorCells: 1431
Rank 15 interiorCells: 1113
Rank 16 interiorCells: 1475
Rank 17 interiorCells: 1527
Rank 18 interiorCells: 1501
Rank 19 interiorCells: 1432
Rank 20 interiorCells: 1513
Rank 21 interiorCells: 1454
Rank 22 interiorCells: 1466
Rank 23 interiorCells: 1115
Rank 24 interiorCells: 1514
Rank 25 interiorCells: 1049
Rank 26 interiorCells: 1356
Rank 27 interiorCells: 799
Rank 28 interiorCells: 1444
Rank 29 interiorCells: 1077
Rank 30 interiorCells: 1490
Rank 31 interiorCells: 1282

MeasComm+1 32: 0.0001594 0.00018392 0.00015504 0.00015182 0.00016153 0.00018424 0.000147 0.00013258 0.00014005 0.00017854 0.00014298 0.00021808 0.00011135 0.00011066 0.00014471 0.00010059 0.00011239 9.965e-05 0.00015921 0.00017015 9.136e-05 8.35e-05 0.000127289 0.00012404 7.2199e-05 0.00012618 6.51e-05 6.688e-05 0.00020486 0.00011407 7.726e-05 6.491e-05 
MeasComm+1 32: 0.00015814 0.00016708 0.00014771 0.00014601 0.00014662 0.000174599 0.00013659 0.00012629 0.00013338 0.00016875 0.00013368 0.00020924 0.000107079 0.000104479 0.00013789 9.9709e-05 0.000110349 8.8969e-05 0.00015034 0.00015716 8.5779e-05 7.4679e-05 0.000117949 0.00012471 6.2469e-05 0.00012479 6.565e-05 6.483e-05 0.00019494 0.000107189 7.6059e-05 6.383e-05 
MeasComm+1 32: 0.000159409 0.000164699 0.000146329 0.000142889 0.000150019 0.000178929 0.000138119 0.000122719 0.000130339 0.000165979 0.000133619 0.000208679 0.00010997 6.84e-05 0.000134699 9.83e-05 0.00011205 9.5379e-05 0.000154689 0.000161459 9.0799e-05 8.238e-05 0.000118539 0.000125479 7.016e-05 0.00012208 6.521e-05 6.524e-05 0.000192689 0.00010246 6.046e-05 6.425e-05 
MeasComm+1 32: 0.000153959 0.000171959 0.000141179 0.0001487 0.000147289 0.000174039 0.000135339 0.000121969 0.000128929 0.000175399 0.000133199 0.000210519 0.00010475 0.00010387 0.000133569 9.7419e-05 0.0001102 9.854e-05 0.000146019 0.000158919 9.122e-05 8.255e-05 0.00012165 0.00012882 7.255e-05 0.000125919 6.461e-05 6.633e-05 0.000196879 0.00010846 7.613e-05 6.445e-05 
MeasComm+1 32: 0.0001489 0.00016348 0.00014108 0.00013824 0.00015048 0.00017068 0.00013351 0.00011981 0.00012595 0.00016481 0.00013055 0.00020294 0.0001045 0.00010531 0.00013118 9.876e-05 0.00011014 9.662e-05 0.00014491 0.00015637 9.123e-05 8.392e-05 0.000120599 0.00011846 6.926e-05 0.00012595 6.501e-05 6.547e-05 0.00018708 0.0001085 7.709e-05 6.452e-05 
MeasComm+1 32: 0.0001627 0.0001743 0.00014992 0.00013967 0.00015595 0.00017834 0.00013936 0.00012679 0.00013249 0.00017228 0.00013777 0.00021291 0.000107569 0.000106919 0.00013741 9.756e-05 0.000113279 9.601e-05 0.00015366 0.00016485 9.177e-05 8.3169e-05 0.000123169 0.00012711 6.645e-05 0.00012527 6.506e-05 6.613e-05 0.00019726 0.000109759 7.685e-05 6.347e-05 
MeasComm+1 32: 0.00015751 0.00016714 0.00014494 0.00014135 0.00015105 0.00016988 0.00013701 0.00012283 0.00012952 0.00017289 0.00013306 0.00020604 0.000107889 0.000106229 0.00013493 9.426e-05 0.00011093 9.729e-05 0.00014875 0.00015841 9.137e-05 8.261e-05 0.000119949 0.00012101 7.1819e-05 0.00012516 6.554e-05 6.519e-05 0.00018961 0.000109529 7.215e-05 6.486e-05 
MeasComm+1 32: 0.000156729 0.000168159 0.000143699 0.000140349 0.000149819 0.000170999 0.000135449 0.000123219 0.000128919 0.000171439 0.000132479 0.000206709 0.00010575 0.000110379 0.000133069 9.789e-05 0.00010849 9.566e-05 0.000147519 0.000158429 9.077e-05 8.208e-05 0.000119149 0.000121209 6.957e-05 0.000126159 6.523e-05 6.638e-05 0.000190009 0.00011236 7.34e-05 6.343e-05 
MeasComm+1 32: 0.00015293 0.00017952 0.00014579 0.00014153 0.00015484 0.00017139 0.00013825 0.00012377 0.00013013 0.00016548 0.0001334 0.00020725 0.00010583 0.00010694 0.00013574 9.901e-05 0.00011185 9.769e-05 0.00014941 0.00015927 9.0339e-05 8.3319e-05 0.00012223 0.00012152 7.242e-05 0.00012631 6.519e-05 6.55e-05 0.00018945 0.00010975 7.644e-05 6.307e-05 
MeasComm+1 32: 0.000154479 0.000165559 0.0001412 0.00013772 0.00015072 0.00017218 0.00013339 0.00011932 0.00012659 0.00016754 0.00013171 0.00020659 0.00010868 0.00010816 0.00013094 9.692e-05 0.00011227 9.216e-05 0.000148499 0.00015895 8.609e-05 7.333e-05 0.00012099 0.00012058 6.498e-05 0.00012373 6.538e-05 6.478e-05 0.00019172 0.0001111 7.601e-05 6.418e-05 

MeasCopy 32: 3.938e-05 4.591e-05 3.969e-05 3.731e-05 4.553e-05 5.486e-05 4.414e-05 2.549e-05 3.142e-05 6.925e-05 3.959e-05 7.893e-05 1.532e-05 2.724e-05 3.005e-05 2.815e-05 5.471e-05 4.191e-05 4.327e-05 3.9889e-05 4.203e-05 2.297e-05 3.775e-05 1.649e-05 1.446e-05 4.462e-05 2.463e-05 1.8979e-05 4.449e-05 2.737e-05 2.58e-05 2.247e-05 
MeasCopy 32: 3.936e-05 4.588e-05 3.975e-05 3.734e-05 4.548e-05 5.486e-05 4.411e-05 2.55e-05 3.141e-05 6.926e-05 3.9619e-05 7.893e-05 1.533e-05 2.724e-05 3.003e-05 2.814e-05 5.467e-05 4.191e-05 4.3279e-05 3.988e-05 4.207e-05 2.3e-05 3.774e-05 1.65e-05 1.446e-05 4.462e-05 2.466e-05 1.898e-05 4.445e-05 2.737e-05 2.583e-05 2.244e-05 
MeasCopy 32: 3.939e-05 4.589e-05 3.973e-05 3.732e-05 4.552e-05 5.486e-05 4.413e-05 2.549e-05 3.1439e-05 6.922e-05 3.962e-05 7.894e-05 1.533e-05 2.724e-05 3.008e-05 2.815e-05 5.471e-05 4.194e-05 4.324e-05 3.992e-05 4.201e-05 2.3e-05 3.772e-05 1.647e-05 1.443e-05 4.463e-05 2.462e-05 1.894e-05 4.446e-05 2.74e-05 2.582e-05 2.244e-05 
MeasCopy 32: 3.936e-05 4.585e-05 3.973e-05 3.737e-05 4.547e-05 5.4849e-05 4.418e-05 2.549e-05 3.138e-05 6.918e-05 3.961e-05 7.8959e-05 1.533e-05 2.724e-05 3e-05 2.816e-05 5.467e-05 4.183e-05 4.332e-05 3.986e-05 4.208e-05 2.299e-05 3.775e-05 1.651e-05 1.4459e-05 4.458e-05 2.462e-05 1.897e-05 4.445e-05 2.74e-05 2.5829e-05 2.246e-05 
MeasCopy 32: 3.935e-05 4.587e-05 3.975e-05 3.733e-05 4.555e-05 5.481e-05 4.409e-05 2.55e-05 3.1429e-05 6.925e-05 3.961e-05 7.8919e-05 1.534e-05 2.723e-05 3.004e-05 2.813e-05 5.472e-05 4.191e-05 4.332e-05 3.99e-05 4.205e-05 2.303e-05 3.773e-05 1.6509e-05 1.442e-05 4.4609e-05 2.464e-05 1.899e-05 4.445e-05 2.7329e-05 2.579e-05 2.244e-05 
MeasCopy 32: 3.939e-05 4.584e-05 3.974e-05 3.732e-05 4.553e-05 5.486e-05 4.415e-05 2.55e-05 3.145e-05 6.926e-05 3.957e-05 7.891e-05 1.532e-05 2.7269e-05 3.004e-05 2.818e-05 5.465e-05 4.189e-05 4.333e-05 3.986e-05 4.205e-05 2.297e-05 3.773e-05 1.651e-05 1.442e-05 4.46e-05 2.465e-05 1.899e-05 4.447e-05 2.732e-05 2.579e-05 2.246e-05 
MeasCopy 32: 3.936e-05 4.594e-05 3.972e-05 3.734e-05 4.552e-05 5.491e-05 4.415e-05 2.551e-05 3.137e-05 6.925e-05 3.96e-05 7.8919e-05 1.533e-05 2.727e-05 3.007e-05 2.815e-05 5.47e-05 4.191e-05 4.33e-05 3.986e-05 4.2039e-05 2.3019e-05 3.777e-05 1.65e-05 1.446e-05 4.463e-05 2.465e-05 1.899e-05 4.453e-05 2.737e-05 2.582e-05 2.242e-05 
MeasCopy 32: 3.933e-05 4.589e-05 3.972e-05 3.737e-05 4.551e-05 5.487e-05 4.416e-05 2.549e-05 3.1369e-05 6.926e-05 3.961e-05 7.898e-05 1.535e-05 2.723e-05 3.006e-05 2.818e-05 5.469e-05 4.192e-05 4.327e-05 3.987e-05 4.201e-05 2.303e-05 3.774e-05 1.651e-05 1.446e-05 4.462e-05 2.465e-05 1.898e-05 4.446e-05 2.735e-05 2.582e-05 2.245e-05 
MeasCopy 32: 3.9369e-05 4.5849e-05 3.971e-05 3.7389e-05 4.5539e-05 5.485e-05 4.414e-05 2.549e-05 3.141e-05 6.918e-05 3.959e-05 7.893e-05 1.533e-05 2.724e-05 3.001e-05 2.816e-05 5.467e-05 4.191e-05 4.3299e-05 3.986e-05 4.202e-05 2.3e-05 3.773e-05 1.651e-05 1.446e-05 4.461e-05 2.4629e-05 1.898e-05 4.448e-05 2.736e-05 2.579e-05 2.244e-05 
MeasCopy 32: 3.934e-05 4.588e-05 3.972e-05 3.736e-05 4.554e-05 5.484e-05 4.412e-05 2.548e-05 3.141e-05 6.92e-05 3.9609e-05 7.89e-05 1.532e-05 2.724e-05 3.002e-05 2.818e-05 5.4709e-05 4.189e-05 4.328e-05 3.987e-05 4.205e-05 2.302e-05 3.769e-05 1.649e-05 1.445e-05 4.4579e-05 2.467e-05 1.898e-05 4.448e-05 2.737e-05 2.579e-05 2.247e-05 

ComTab rank 0: 0 268 213 13 141 35 0 0 75 69 27 37 0 0 0 48 12 0 141 110 0 0 5 3 0 22 0 0 21 0 0 0 
ComTab rank 1: 276 0 213 16 57 83 107 43 151 179 10 82 0 0 96 130 0 0 1 17 0 0 0 4 0 0 0 0 16 0 0 0 
ComTab rank 2: 211 221 0 244 38 134 19 71 37 13 0 96 0 0 0 0 0 0 0 85 0 0 0 3 0 0 0 0 0 0 0 0 
ComTab rank 3: 13 19 232 0 239 156 196 123 0 4 0 70 0 0 2 0 0 0 0 0 0 0 0 0 0 0 0 0 0 0 0 0 
ComTab rank 4: 145 60 36 221 0 190 253 74 0 196 0 257 0 0 14 0 0 0 28 54 0 0 0 0 0 0 0 0 18 12 0 0 
ComTab rank 5: 36 84 131 148 185 0 262 149 13 215 0 491 0 0 2 0 0 0 0 0 0 0 0 0 0 0 0 0 23 0 0 0 
ComTab rank 6: 0 107 6 180 255 277 0 231 0 0 0 176 0 0 23 0 0 0 0 0 0 0 0 0 0 0 0 0 0 0 0 0 
ComTab rank 7: 0 43 74 124 77 148 227 0 3 16 0 51 0 0 10 0 0 0 0 0 0 0 0 0 0 0 0 0 0 0 0 0 
ComTab rank 8: 95 183 39 0 0 15 0 3 0 251 51 67 0 9 116 34 0 0 4 0 0 0 0 10 0 24 0 0 63 0 0 0 
ComTab rank 9: 71 190 13 4 209 224 0 21 247 0 85 254 0 0 181 144 23 0 32 98 0 0 0 24 0 0 0 0 453 0 0 0 
ComTab rank 10: 40 11 0 0 0 0 0 0 51 74 0 35 161 268 150 216 7 0 11 32 0 0 17 0 0 33 35 6 17 73 13 0 
ComTab rank 11: 32 78 101 74 238 497 173 53 70 245 36 0 32 13 40 0 3 0 8 61 0 0 18 15 0 0 0 0 522 109 0 0 
ComTab rank 12: 0 0 0 0 0 0 0 0 0 0 121 15 0 138 10 160 8 0 0 3 0 0 19 0 0 8 0 0 0 10 0 0 
ComTab rank 13: 0 0 0 0 0 0 0 0 9 0 202 9 138 0 147 95 0 0 0 0 0 0 0 0 0 18 0 0 0 138 0 0 
ComTab rank 14: 0 93 0 2 6 2 23 13 116 166 143 38 9 144 0 144 0 0 0 0 0 0 0 0 0 0 0 0 13 0 0 0 
ComTab rank 15: 30 135 0 0 0 0 0 0 29 129 175 0 160 100 135 0 8 0 0 3 0 0 16 0 0 0 0 0 29 0 0 0 
ComTab rank 16: 10 0 0 0 0 0 0 0 0 23 7 3 8 0 0 8 0 269 233 410 178 139 206 143 31 41 0 0 51 0 0 0 
ComTab rank 17: 0 0 0 0 0 0 0 0 0 0 0 0 0 0 0 0 262 0 257 21 271 71 33 111 69 82 0 0 0 0 0 0 
ComTab rank 18: 131 2 0 0 29 0 0 0 6 34 11 8 0 0 0 0 246 251 0 356 63 0 8 104 0 51 0 0 7 0 0 0 
ComTab rank 19: 103 17 64 0 49 0 0 0 0 63 26 45 3 0 0 3 372 21 313 0 0 0 80 61 0 9 0 0 64 0 0 0 
ComTab rank 20: 0 0 0 0 0 0 0 0 0 0 0 0 0 0 0 0 176 242 47 0 0 331 283 59 31 26 0 0 0 0 0 0 
ComTab rank 21: 0 0 0 0 0 0 0 0 0 0 0 0 0 0 0 0 108 47 0 0 259 0 218 1 38 6 0 0 0 0 0 0 
ComTab rank 22: 5 0 0 0 0 0 0 0 0 0 29 26 66 0 0 41 210 29 7 90 301 252 0 58 17 13 0 0 0 0 0 0 
ComTab rank 23: 3 6 3 0 0 0 0 0 8 21 0 15 0 0 0 0 96 87 109 58 29 1 45 0 11 44 0 0 0 0 0 0 
ComTab rank 24: 0 0 0 0 0 0 0 0 0 0 0 0 0 0 0 0 36 87 0 0 19 74 14 11 0 56 8 70 0 0 0 0 
ComTab rank 25: 45 0 0 0 0 0 0 0 25 0 32 0 28 18 0 0 66 187 53 13 38 7 10 35 59 0 112 99 0 121 182 177 
ComTab rank 26: 0 0 0 0 0 0 0 0 0 0 36 0 0 0 0 0 0 0 0 0 0 0 0 0 8 113 0 268 0 43 53 142 
ComTab rank 27: 0 0 0 0 0 0 0 0 0 0 6 0 0 0 0 0 0 0 0 0 0 0 0 0 70 89 235 0 0 0 6 56 
ComTab rank 28: 19 17 0 0 18 23 0 0 61 440 17 524 0 0 15 56 49 0 7 72 0 0 0 0 0 0 0 0 0 49 0 0 
ComTab rank 29: 0 0 0 0 6 0 0 0 0 0 60 117 11 135 0 0 0 0 0 0 0 0 0 0 0 116 31 0 51 0 227 6 
ComTab rank 30: 0 0 0 0 0 0 0 0 0 0 10 0 0 0 0 0 0 0 0 0 0 0 0 0 0 163 36 5 0 204 0 233 
ComTab rank 31: 0 0 0 0 0 0 0 0 0 0 0 0 0 0 0 0 0 0 0 0 0 0 0 0 0 146 126 36 0 6 238 0 

Edge-cut: 19809

Wgt-cut: 1.20153e-08

[1579248414.226736] [n003:87270:0]          mpool.c:38   UCX  WARN  object 0x1555394feee0 was not returned to mpool mm_recv_desc
[1579248414.238595] [n003:87255:0]          mpool.c:38   UCX  WARN  object 0x5555588b0b80 was not returned to mpool ucp_am_bufs
[1579248414.259577] [n003:87262:0]          mpool.c:38   UCX  WARN  object 0x1555394c4060 was not returned to mpool mm_recv_desc
[1579248414.311866] [n003:87254:0]          mpool.c:38   UCX  WARN  object 0x55555da47340 was not returned to mpool ucp_am_bufs
[1579248414.345572] [n003:87257:0]          mpool.c:38   UCX  WARN  object 0x155544112b60 was not returned to mpool mm_recv_desc
