 Data for JOB [52157,1] offset 0 Total slots allocated 4

 ========================   JOB MAP   ========================

 Data for node: n004	Num slots: 4	Max slots: 0	Num procs: 4
 	Process OMPI jobid: [52157,1] App: 0 Process rank: 0 Bound: socket 0[core 0[hwt 0-1]]:[BB/../../../../../../../../../../../../../../../../../../../../../../../../../../../../../../..][../../../../../../../../../../../../../../../../../../../../../../../../../../../../../../../..]
 	Process OMPI jobid: [52157,1] App: 0 Process rank: 1 Bound: socket 0[core 8[hwt 0-1]]:[../../../../../../../../BB/../../../../../../../../../../../../../../../../../../../../../../..][../../../../../../../../../../../../../../../../../../../../../../../../../../../../../../../..]
 	Process OMPI jobid: [52157,1] App: 0 Process rank: 2 Bound: socket 0[core 16[hwt 0-1]]:[../../../../../../../../../../../../../../../../BB/../../../../../../../../../../../../../../..][../../../../../../../../../../../../../../../../../../../../../../../../../../../../../../../..]
 	Process OMPI jobid: [52157,1] App: 0 Process rank: 3 Bound: socket 0[core 24[hwt 0-1]]:[../../../../../../../../../../../../../../../../../../../../../../../../BB/../../../../../../..][../../../../../../../../../../../../../../../../../../../../../../../../../../../../../../../..]

 =============================================================
[1579248379.888670] [n004:51914:0]         mxm.c:196  MXM  WARN  The 'ulimit -s' on the system is set to 'unlimited'. This may have negative performance implications. Please set the stack size to the default value (10240) 
[1579248379.889148] [n004:51916:0]         mxm.c:196  MXM  WARN  The 'ulimit -s' on the system is set to 'unlimited'. This may have negative performance implications. Please set the stack size to the default value (10240) 
[1579248379.889538] [n004:51915:0]         mxm.c:196  MXM  WARN  The 'ulimit -s' on the system is set to 'unlimited'. This may have negative performance implications. Please set the stack size to the default value (10240) 
[1579248379.889655] [n004:51917:0]         mxm.c:196  MXM  WARN  The 'ulimit -s' on the system is set to 'unlimited'. This may have negative performance implications. Please set the stack size to the default value (10240) 
0: 4 

Rank 0 ghostCells: 2015
Rank 1 ghostCells: 2268
Rank 2 ghostCells: 781
Rank 3 ghostCells: 1229

Rank 0 numCells: 13488
Rank 1 numCells: 14191
Rank 2 numCells: 12677
Rank 3 numCells: 10368

Rank 0 interiorCells: 11473
Rank 1 interiorCells: 11923
Rank 2 interiorCells: 11896
Rank 3 interiorCells: 9139

MeasComm+1 4: 0.00013815 0.00015175 8.757e-05 0.00010566 
MeasComm+1 4: 0.00013996 0.00015228 8.769e-05 0.0001063 
MeasComm+1 4: 0.00014122 0.00015075 8.726e-05 0.00010652 
MeasComm+1 4: 0.000139621 0.00015298 8.983e-05 0.00011072 
MeasComm+1 4: 0.00013991 0.00015038 8.656e-05 0.00010826 
MeasComm+1 4: 0.00014042 0.00015298 8.856e-05 0.00010381 
MeasComm+1 4: 0.00013959 0.00015179 8.64e-05 0.000107 
MeasComm+1 4: 0.00014034 0.00015122 8.714e-05 0.00010695 
MeasComm+1 4: 0.00013946 0.000147781 8.781e-05 0.000105771 
MeasComm+1 4: 0.000139521 0.000149 8.925e-05 0.00010693 

MeasCopy 4: 9.444e-05 0.00010633 3.661e-05 5.765e-05 
MeasCopy 4: 9.451e-05 0.00010638 3.662e-05 5.76e-05 
MeasCopy 4: 9.44e-05 0.000106361 3.6601e-05 5.759e-05 
MeasCopy 4: 9.448e-05 0.0001063 3.658e-05 5.758e-05 
MeasCopy 4: 9.451e-05 0.000106301 3.659e-05 5.7571e-05 
MeasCopy 4: 9.449e-05 0.00010636 3.661e-05 5.763e-05 
MeasCopy 4: 9.439e-05 0.00010636 3.655e-05 5.762e-05 
MeasCopy 4: 9.448e-05 0.00010629 3.662e-05 5.76e-05 
MeasCopy 4: 9.4451e-05 0.00010633 3.66e-05 5.76e-05 
MeasCopy 4: 9.449e-05 0.00010628 3.66e-05 5.765e-05 

ComTab rank 0: 0 1721 335 39 
ComTab rank 1: 1774 0 172 402 
ComTab rank 2: 313 195 0 340 
ComTab rank 3: 61 587 616 0 

Edge-cut: 5884

Wgt-cut: 2.0082e-09

[1579248387.087871] [n004:51915:0]          mpool.c:38   UCX  WARN  object 0x155544122f60 was not returned to mpool mm_recv_desc
[1579248387.089588] [n004:51916:0]          mpool.c:38   UCX  WARN  object 0x55555d76bfc0 was not returned to mpool ucp_am_bufs
[1579248387.090060] [n004:51917:0]          mpool.c:38   UCX  WARN  object 0x55555c38c600 was not returned to mpool ucp_am_bufs
