 Data for JOB [32811,1] offset 0 Total slots allocated 32

 ========================   JOB MAP   ========================

 Data for node: n004	Num slots: 32	Max slots: 0	Num procs: 32
 	Process OMPI jobid: [32811,1] App: 0 Process rank: 0 Bound: socket 1[core 32[hwt 0-1]]:[../../../../../../../../../../../../../../../../../../../../../../../../../../../../../../../..][BB/../../../../../../../../../../../../../../../../../../../../../../../../../../../../../../..]
 	Process OMPI jobid: [32811,1] App: 0 Process rank: 1 Bound: socket 1[core 33[hwt 0-1]]:[../../../../../../../../../../../../../../../../../../../../../../../../../../../../../../../..][../BB/../../../../../../../../../../../../../../../../../../../../../../../../../../../../../..]
 	Process OMPI jobid: [32811,1] App: 0 Process rank: 2 Bound: socket 1[core 34[hwt 0-1]]:[../../../../../../../../../../../../../../../../../../../../../../../../../../../../../../../..][../../BB/../../../../../../../../../../../../../../../../../../../../../../../../../../../../..]
 	Process OMPI jobid: [32811,1] App: 0 Process rank: 3 Bound: socket 1[core 35[hwt 0-1]]:[../../../../../../../../../../../../../../../../../../../../../../../../../../../../../../../..][../../../BB/../../../../../../../../../../../../../../../../../../../../../../../../../../../..]
 	Process OMPI jobid: [32811,1] App: 0 Process rank: 4 Bound: socket 1[core 36[hwt 0-1]]:[../../../../../../../../../../../../../../../../../../../../../../../../../../../../../../../..][../../../../BB/../../../../../../../../../../../../../../../../../../../../../../../../../../..]
 	Process OMPI jobid: [32811,1] App: 0 Process rank: 5 Bound: socket 1[core 37[hwt 0-1]]:[../../../../../../../../../../../../../../../../../../../../../../../../../../../../../../../..][../../../../../BB/../../../../../../../../../../../../../../../../../../../../../../../../../..]
 	Process OMPI jobid: [32811,1] App: 0 Process rank: 6 Bound: socket 1[core 38[hwt 0-1]]:[../../../../../../../../../../../../../../../../../../../../../../../../../../../../../../../..][../../../../../../BB/../../../../../../../../../../../../../../../../../../../../../../../../..]
 	Process OMPI jobid: [32811,1] App: 0 Process rank: 7 Bound: socket 1[core 39[hwt 0-1]]:[../../../../../../../../../../../../../../../../../../../../../../../../../../../../../../../..][../../../../../../../BB/../../../../../../../../../../../../../../../../../../../../../../../..]
 	Process OMPI jobid: [32811,1] App: 0 Process rank: 8 Bound: socket 1[core 40[hwt 0-1]]:[../../../../../../../../../../../../../../../../../../../../../../../../../../../../../../../..][../../../../../../../../BB/../../../../../../../../../../../../../../../../../../../../../../..]
 	Process OMPI jobid: [32811,1] App: 0 Process rank: 9 Bound: socket 1[core 41[hwt 0-1]]:[../../../../../../../../../../../../../../../../../../../../../../../../../../../../../../../..][../../../../../../../../../BB/../../../../../../../../../../../../../../../../../../../../../..]
 	Process OMPI jobid: [32811,1] App: 0 Process rank: 10 Bound: socket 1[core 42[hwt 0-1]]:[../../../../../../../../../../../../../../../../../../../../../../../../../../../../../../../..][../../../../../../../../../../BB/../../../../../../../../../../../../../../../../../../../../..]
 	Process OMPI jobid: [32811,1] App: 0 Process rank: 11 Bound: socket 1[core 43[hwt 0-1]]:[../../../../../../../../../../../../../../../../../../../../../../../../../../../../../../../..][../../../../../../../../../../../BB/../../../../../../../../../../../../../../../../../../../..]
 	Process OMPI jobid: [32811,1] App: 0 Process rank: 12 Bound: socket 1[core 44[hwt 0-1]]:[../../../../../../../../../../../../../../../../../../../../../../../../../../../../../../../..][../../../../../../../../../../../../BB/../../../../../../../../../../../../../../../../../../..]
 	Process OMPI jobid: [32811,1] App: 0 Process rank: 13 Bound: socket 1[core 45[hwt 0-1]]:[../../../../../../../../../../../../../../../../../../../../../../../../../../../../../../../..][../../../../../../../../../../../../../BB/../../../../../../../../../../../../../../../../../..]
 	Process OMPI jobid: [32811,1] App: 0 Process rank: 14 Bound: socket 1[core 46[hwt 0-1]]:[../../../../../../../../../../../../../../../../../../../../../../../../../../../../../../../..][../../../../../../../../../../../../../../BB/../../../../../../../../../../../../../../../../..]
 	Process OMPI jobid: [32811,1] App: 0 Process rank: 15 Bound: socket 1[core 47[hwt 0-1]]:[../../../../../../../../../../../../../../../../../../../../../../../../../../../../../../../..][../../../../../../../../../../../../../../../BB/../../../../../../../../../../../../../../../..]
 	Process OMPI jobid: [32811,1] App: 0 Process rank: 16 Bound: socket 1[core 48[hwt 0-1]]:[../../../../../../../../../../../../../../../../../../../../../../../../../../../../../../../..][../../../../../../../../../../../../../../../../BB/../../../../../../../../../../../../../../..]
 	Process OMPI jobid: [32811,1] App: 0 Process rank: 17 Bound: socket 1[core 49[hwt 0-1]]:[../../../../../../../../../../../../../../../../../../../../../../../../../../../../../../../..][../../../../../../../../../../../../../../../../../BB/../../../../../../../../../../../../../..]
 	Process OMPI jobid: [32811,1] App: 0 Process rank: 18 Bound: socket 1[core 50[hwt 0-1]]:[../../../../../../../../../../../../../../../../../../../../../../../../../../../../../../../..][../../../../../../../../../../../../../../../../../../BB/../../../../../../../../../../../../..]
 	Process OMPI jobid: [32811,1] App: 0 Process rank: 19 Bound: socket 1[core 51[hwt 0-1]]:[../../../../../../../../../../../../../../../../../../../../../../../../../../../../../../../..][../../../../../../../../../../../../../../../../../../../BB/../../../../../../../../../../../..]
 	Process OMPI jobid: [32811,1] App: 0 Process rank: 20 Bound: socket 1[core 52[hwt 0-1]]:[../../../../../../../../../../../../../../../../../../../../../../../../../../../../../../../..][../../../../../../../../../../../../../../../../../../../../BB/../../../../../../../../../../..]
 	Process OMPI jobid: [32811,1] App: 0 Process rank: 21 Bound: socket 1[core 53[hwt 0-1]]:[../../../../../../../../../../../../../../../../../../../../../../../../../../../../../../../..][../../../../../../../../../../../../../../../../../../../../../BB/../../../../../../../../../..]
 	Process OMPI jobid: [32811,1] App: 0 Process rank: 22 Bound: socket 1[core 54[hwt 0-1]]:[../../../../../../../../../../../../../../../../../../../../../../../../../../../../../../../..][../../../../../../../../../../../../../../../../../../../../../../BB/../../../../../../../../..]
 	Process OMPI jobid: [32811,1] App: 0 Process rank: 23 Bound: socket 1[core 55[hwt 0-1]]:[../../../../../../../../../../../../../../../../../../../../../../../../../../../../../../../..][../../../../../../../../../../../../../../../../../../../../../../../BB/../../../../../../../..]
 	Process OMPI jobid: [32811,1] App: 0 Process rank: 24 Bound: socket 1[core 56[hwt 0-1]]:[../../../../../../../../../../../../../../../../../../../../../../../../../../../../../../../..][../../../../../../../../../../../../../../../../../../../../../../../../BB/../../../../../../..]
 	Process OMPI jobid: [32811,1] App: 0 Process rank: 25 Bound: socket 1[core 57[hwt 0-1]]:[../../../../../../../../../../../../../../../../../../../../../../../../../../../../../../../..][../../../../../../../../../../../../../../../../../../../../../../../../../BB/../../../../../..]
 	Process OMPI jobid: [32811,1] App: 0 Process rank: 26 Bound: socket 1[core 58[hwt 0-1]]:[../../../../../../../../../../../../../../../../../../../../../../../../../../../../../../../..][../../../../../../../../../../../../../../../../../../../../../../../../../../BB/../../../../..]
 	Process OMPI jobid: [32811,1] App: 0 Process rank: 27 Bound: socket 1[core 59[hwt 0-1]]:[../../../../../../../../../../../../../../../../../../../../../../../../../../../../../../../..][../../../../../../../../../../../../../../../../../../../../../../../../../../../BB/../../../..]
 	Process OMPI jobid: [32811,1] App: 0 Process rank: 28 Bound: socket 1[core 60[hwt 0-1]]:[../../../../../../../../../../../../../../../../../../../../../../../../../../../../../../../..][../../../../../../../../../../../../../../../../../../../../../../../../../../../../BB/../../..]
 	Process OMPI jobid: [32811,1] App: 0 Process rank: 29 Bound: socket 1[core 61[hwt 0-1]]:[../../../../../../../../../../../../../../../../../../../../../../../../../../../../../../../..][../../../../../../../../../../../../../../../../../../../../../../../../../../../../../BB/../..]
 	Process OMPI jobid: [32811,1] App: 0 Process rank: 30 Bound: socket 1[core 62[hwt 0-1]]:[../../../../../../../../../../../../../../../../../../../../../../../../../../../../../../../..][../../../../../../../../../../../../../../../../../../../../../../../../../../../../../../BB/..]
 	Process OMPI jobid: [32811,1] App: 0 Process rank: 31 Bound: socket 1[core 63[hwt 0-1]]:[../../../../../../../../../../../../../../../../../../../../../../../../../../../../../../../..][../../../../../../../../../../../../../../../../../../../../../../../../../../../../../../../BB]

 =============================================================
Single Size change topo
dune-size 59520-1.1 0.00328286 0.00356301 0.00328222 0.00328428 0.00346825 0.00356606 0.00356506 0.00365948 0.00372347 0.0037559 0.00375473 0.00357174 0.00356858 0.00366536 0.00366494 0.00362881 0.0035609 0.00360843 0.00360748 0.00345933 0.0034688 0.00365333 0.00374957 0.00374893 0.00356626 0.0036625 0.00366627 0.00342035 0.00342733 0.00342365 0.0034198 0.00355561 
dune-size 59520-1.2 0.00315493 0.00315467 0.00285961 0.00286002 0.00322205 0.00320825 0.0030248 0.00302507 0.00285686 0.00285703 0.00288129 0.00288118 0.00317981 0.00316398 0.00299892 0.00299825 0.00324207 0.00324216 0.0028592 0.0028598 0.00302365 0.00300743 0.00325482 0.0032554 0.00288799 0.00289016 0.00287477 0.00287453 0.00288971 0.00287424 0.00322284 0.00322452 
dune-size 59520-1.3 0.002947 0.00309345 0.00307665 0.00311301 0.00303367 0.0030853 0.00309941 0.00296285 0.00304015 0.0029767 0.00308473 0.00300415 0.00308691 0.00312086 0.00303727 0.00310941 0.00294799 0.00309584 0.00307759 0.00311401 0.00303509 0.00308718 0.00310021 0.00296444 0.00304098 0.00297713 0.00308439 0.00300445 0.00308767 0.0031239 0.00303201 0.00311098 
dune-size 3968-15 0.00317205 0.00316425 0.00315952 0.00316509 0.00316169 0.00316341 0.00316683 0.00317116 0.00316598 0.00316772 0.00315995 0.00316083 0.00316258 0.00317033 0.00316947 0.00316859 0.00318038 0.00316584 0.00317432 0.00316588 0.00317942 0.00316797 0.00316695 0.00317782 0.00317016 0.00317229 0.00317334 0.00316911 0.00317535 0.00317841 0.00317121 0.00317639 
dune-size 3968-15.5 0.00317925 0.00318879 0.0031836 0.00319139 0.00317984 0.00318359 0.00318703 0.00318187 0.00317988 0.00318101 0.00318531 0.0031799 0.00318789 0.0031862 0.00318875 0.00318961 0.00318446 0.00318274 0.00318016 0.00319222 0.00317895 0.00318966 0.00318707 0.00318507 0.0031862 0.00318794 0.00318273 0.00318187 0.00318097 0.00318533 0.00318012 0.00319052 
dune-size 1920-31 0.00332666 0.00332753 0.00332999 0.00333752 0.00334016 0.00333225 0.00333138 0.00333621 0.00333314 0.00333926 0.00333401 0.00333534 0.00333838 0.00333049 0.00333971 0.00333883 0.00333793 0.00334061 0.00333707 0.00333444 0.00333665 0.00333181 0.00333269 0.00333577 0.00332929 0.00333488 0.00333091 0.00332841 0.00332796 0.00332885 0.0033271 0.00333356 
dune-size 238080-1.1 0.0155746 0.0155735 0.0155755 0.0156355 0.0157383 0.0158968 0.0161476 0.0161475 0.0160351 0.015959 0.0159605 0.0155873 0.0158481 0.0158489 0.0157948 0.0155866 0.0155962 0.0152376 0.0153373 0.0155188 0.0155174 0.0154848 0.0151598 0.0155415 0.0155641 0.0155626 0.0157795 0.0157789 0.0155305 0.0155289 0.0155661 0.0156151 
dune-size 238080-1.2 0.0121736 0.0121777 0.0121706 0.0121767 0.0120044 0.0120089 0.0119518 0.011959 0.0122276 0.0122333 0.0122101 0.0122133 0.0120626 0.0120597 0.0118958 0.0119004 0.0119707 0.0119726 0.0121267 0.0121349 0.0122735 0.0122673 0.0122745 0.0122756 0.0122952 0.0122964 0.0123025 0.0123003 0.012061 0.0120615 0.0121034 0.0121042 
dune-size 238080-1.3 0.0121049 0.0121813 0.0122478 0.0122695 0.0118556 0.0120443 0.0119078 0.0120693 0.0121995 0.0122061 0.0123012 0.0119429 0.0125802 0.0125776 0.012583 0.0125776 0.0121044 0.0121806 0.0122418 0.0122781 0.011858 0.0120454 0.0119084 0.0120696 0.0122023 0.0122067 0.0122908 0.0119485 0.0125784 0.01258 0.0125775 0.0125778 
dune-size 15872-15 0.0118821 0.0118822 0.011882 0.011886 0.0118809 0.0118805 0.0118833 0.0118805 0.0119079 0.0119083 0.0119059 0.0119091 0.0119025 0.0119027 0.0119032 0.0119034 0.0118939 0.0118936 0.0118966 0.0118938 0.0119099 0.0119095 0.0119072 0.0119058 0.0118828 0.0118819 0.0118827 0.011881 0.011885 0.011876 0.0118771 0.0118766 
dune-size 15872-15.5 0.0119104 0.0119095 0.0119077 0.0119089 0.0119052 0.0119021 0.0119212 0.0119022 0.0119293 0.0119224 0.0119224 0.0119225 0.0119194 0.0119227 0.0119195 0.0119196 0.0119124 0.0119102 0.0119112 0.0119114 0.0118998 0.0118992 0.0119007 0.0119004 0.0119301 0.011929 0.0119282 0.0119291 0.0119029 0.0119261 0.0119143 0.0119062 
dune-size 7680-31 0.0122687 0.0122725 0.0122661 0.0122661 0.0122882 0.0122846 0.0122839 0.0122864 0.012281 0.0122792 0.0122756 0.0122774 0.0122918 0.01229 0.0122936 0.0122972 0.0122632 0.0122632 0.0122687 0.012299 0.0123027 0.0123009 0.0123047 0.0122955 0.012312 0.0123118 0.0123118 0.0123118 0.012267 0.0122704 0.0122655 0.0122738 
