 Data for JOB [16581,1] offset 0 Total slots allocated 2

 ========================   JOB MAP   ========================

 Data for node: n004	Num slots: 2	Max slots: 0	Num procs: 2
 	Process OMPI jobid: [16581,1] App: 0 Process rank: 0 Bound: socket 0[core 9[hwt 0-1]]:[../../../../../../../../../BB/../../../../../../../../../../../../../../../../../../../../../..][../../../../../../../../../../../../../../../../../../../../../../../../../../../../../../../..]
 	Process OMPI jobid: [16581,1] App: 0 Process rank: 1 Bound: socket 0[core 18[hwt 0-1]]:[../../../../../../../../../../../../../../../../../../BB/../../../../../../../../../../../../..][../../../../../../../../../../../../../../../../../../../../../../../../../../../../../../../..]

 =============================================================
dune-size 1 5.62881e-06 5.62631e-06 
dune-size 2 5.39111e-06 5.39291e-06 
dune-size 4 5.81101e-06 5.80461e-06 
dune-size 8 5.93061e-06 5.92871e-06 
dune-size 16 6.57871e-06 6.57941e-06 
dune-size 32 7.90481e-06 7.90531e-06 
dune-size 64 9.29672e-06 9.29692e-06 
dune-size 128 1.12281e-05 1.12333e-05 
dune-size 256 1.75499e-05 1.75427e-05 
dune-size 512 3.08207e-05 3.08168e-05 
dune-size 1024 8.55604e-05 8.55666e-05 
dune-size 2048 0.00016148 0.00016146 
dune-size 4096 0.000314129 0.000314127 
dune-size 8192 0.000569202 0.000569216 
dune-size 16384 0.000899896 0.000899896 
dune-size 32768 0.00163998 0.00164 
dune-size 65536 0.00321839 0.00321923 
dune-size 131072 0.00637693 0.00637683 
dune-size 262144 0.0126926 0.0126972 
dune-size 524288 0.0252632 0.0252582 
dune-size 1048576 0.0504553 0.0504484 
