 Data for JOB [33532,1] offset 0 Total slots allocated 4

 ========================   JOB MAP   ========================

 Data for node: n004	Num slots: 4	Max slots: 0	Num procs: 4
 	Process OMPI jobid: [33532,1] App: 0 Process rank: 0 Bound: socket 1[core 41[hwt 0-1]]:[../../../../../../../../../../../../../../../../../../../../../../../../../../../../../../../..][../../../../../../../../../BB/../../../../../../../../../../../../../../../../../../../../../..]
 	Process OMPI jobid: [33532,1] App: 0 Process rank: 1 Bound: socket 0[core 19[hwt 0-1]]:[../../../../../../../../../../../../../../../../../../../BB/../../../../../../../../../../../..][../../../../../../../../../../../../../../../../../../../../../../../../../../../../../../../..]
 	Process OMPI jobid: [33532,1] App: 0 Process rank: 2 Bound: socket 1[core 42[hwt 0-1]]:[../../../../../../../../../../../../../../../../../../../../../../../../../../../../../../../..][../../../../../../../../../../BB/../../../../../../../../../../../../../../../../../../../../..]
 	Process OMPI jobid: [33532,1] App: 0 Process rank: 3 Bound: socket 0[core 20[hwt 0-1]]:[../../../../../../../../../../../../../../../../../../../../BB/../../../../../../../../../../..][../../../../../../../../../../../../../../../../../../../../../../../../../../../../../../../..]

 =============================================================
Two group cota
0 1 1
1 0 0
2 3 3
3 2 2
dune-size 1 9.16392e-06 9.15492e-06 9.23072e-06 9.22482e-06 
dune-size 2 8.70691e-06 9.76621e-06 8.94682e-06 1.00014e-05 
dune-size 4 7.04831e-06 7.04671e-06 9.20611e-06 9.19541e-06 
dune-size 8 7.53311e-06 7.52901e-06 9.69942e-06 9.68912e-06 
dune-size 16 8.16861e-06 8.16091e-06 9.79931e-06 9.80481e-06 
dune-size 32 9.76571e-06 9.75031e-06 7.01941e-06 7.01371e-06 
dune-size 64 1.24484e-05 1.243e-05 8.77461e-06 8.77251e-06 
dune-size 128 1.47129e-05 1.47137e-05 1.21863e-05 1.21844e-05 
dune-size 256 1.97016e-05 1.97001e-05 1.96572e-05 1.96448e-05 
dune-size 512 3.50048e-05 3.50041e-05 3.51293e-05 3.51292e-05 
dune-size 1024 0.000107561 0.000107561 0.000109195 0.000109196 
dune-size 2048 0.000206276 0.000206276 0.000207056 0.00020706 
dune-size 4096 0.000383765 0.000383766 0.000393085 0.000393083 
dune-size 8192 0.000668964 0.000668933 0.000655941 0.000655902 
dune-size 16384 0.000957577 0.000957502 0.000932571 0.000932493 
dune-size 32768 0.00169066 0.0016906 0.00169676 0.00169672 
dune-size 65536 0.00335798 0.00335574 0.00333808 0.00333598 
dune-size 131072 0.00675003 0.00673707 0.00673306 0.00671635 
