 Data for JOB [52359,1] offset 0 Total slots allocated 4

 ========================   JOB MAP   ========================

 Data for node: n004	Num slots: 4	Max slots: 0	Num procs: 4
 	Process OMPI jobid: [52359,1] App: 0 Process rank: 0 Bound: socket 0[core 0[hwt 0-1]]:[BB/../../../../../../../../../../../../../../../../../../../../../../../../../../../../../../..][../../../../../../../../../../../../../../../../../../../../../../../../../../../../../../../..]
 	Process OMPI jobid: [52359,1] App: 0 Process rank: 1 Bound: socket 0[core 8[hwt 0-1]]:[../../../../../../../../BB/../../../../../../../../../../../../../../../../../../../../../../..][../../../../../../../../../../../../../../../../../../../../../../../../../../../../../../../..]
 	Process OMPI jobid: [52359,1] App: 0 Process rank: 2 Bound: socket 0[core 16[hwt 0-1]]:[../../../../../../../../../../../../../../../../BB/../../../../../../../../../../../../../../..][../../../../../../../../../../../../../../../../../../../../../../../../../../../../../../../..]
 	Process OMPI jobid: [52359,1] App: 0 Process rank: 3 Bound: socket 0[core 24[hwt 0-1]]:[../../../../../../../../../../../../../../../../../../../../../../../../BB/../../../../../../..][../../../../../../../../../../../../../../../../../../../../../../../../../../../../../../../..]

 =============================================================
[1579601737.885643] [n004:118170:0]         mxm.c:196  MXM  WARN  The 'ulimit -s' on the system is set to 'unlimited'. This may have negative performance implications. Please set the stack size to the default value (10240) 
[1579601737.885729] [n004:118166:0]         mxm.c:196  MXM  WARN  The 'ulimit -s' on the system is set to 'unlimited'. This may have negative performance implications. Please set the stack size to the default value (10240) 
[1579601737.890618] [n004:118169:0]         mxm.c:196  MXM  WARN  The 'ulimit -s' on the system is set to 'unlimited'. This may have negative performance implications. Please set the stack size to the default value (10240) 
[1579601737.890981] [n004:118167:0]         mxm.c:196  MXM  WARN  The 'ulimit -s' on the system is set to 'unlimited'. This may have negative performance implications. Please set the stack size to the default value (10240) 
0: 0 

Rank 0 ghostCells: 4313
Rank 1 ghostCells: 1952
Rank 2 ghostCells: 1193
Rank 3 ghostCells: 1440

Rank 0 numCells: 99739
Rank 1 numCells: 89436
Rank 2 numCells: 96893
Rank 3 numCells: 78237

Rank 0 interiorCells: 95426
Rank 1 interiorCells: 87484
Rank 2 interiorCells: 95700
Rank 3 interiorCells: 76797

MeasComm+1 4: 0.00026482 0.000210801 0.00018854 0.00020104 
MeasComm+1 4: 0.000262561 0.000210401 0.00018921 0.00019588 
MeasComm+1 4: 0.000265061 0.000210511 0.00018455 0.000202131 
MeasComm+1 4: 0.00026458 0.000213251 0.000189671 0.00020242 
MeasComm+1 4: 0.00026717 0.000210071 0.00019388 0.00021111 
MeasComm+1 4: 0.00026833 0.00021228 0.00019252 0.000212161 
MeasComm+1 4: 0.000263621 0.000210401 0.00018445 0.00020178 
MeasComm+1 4: 0.00026627 0.00021109 0.00018735 0.00020296 
MeasComm+1 4: 0.000265261 0.00021397 0.000190271 0.000200781 
MeasComm+1 4: 0.00026721 0.00021094 0.000183691 0.00020123 

MeasCopy 4: 0.00020234 9.152e-05 5.583e-05 6.751e-05 
MeasCopy 4: 0.00020232 9.152e-05 5.593e-05 6.75e-05 
MeasCopy 4: 0.00020225 9.152e-05 5.592e-05 6.751e-05 
MeasCopy 4: 0.000202271 9.154e-05 5.589e-05 6.756e-05 
MeasCopy 4: 0.00020222 9.154e-05 5.592e-05 6.752e-05 
MeasCopy 4: 0.00020236 9.152e-05 5.59e-05 6.753e-05 
MeasCopy 4: 0.00020216 9.15e-05 5.592e-05 6.75e-05 
MeasCopy 4: 0.000202291 9.1541e-05 5.59e-05 6.752e-05 
MeasCopy 4: 0.000202261 9.146e-05 5.5921e-05 6.752e-05 
MeasCopy 4: 0.00020226 9.152e-05 5.593e-05 6.751e-05 

ComTab rank 0: 0 1908 1063 1350 
ComTab rank 1: 1952 0 0 0 
ComTab rank 2: 1094 0 0 111 
ComTab rank 3: 1349 0 103 0 

Edge-cut: 5489

Wgt-cut: 2.9352e-08

[1579601789.845496] [n004:118169:0]          mpool.c:38   UCX  WARN  object 0x1555394fce60 was not returned to mpool mm_recv_desc
[1579601789.847106] [n004:118170:0]          mpool.c:38   UCX  WARN  object 0x1555394feee0 was not returned to mpool mm_recv_desc
[1579601789.848394] [n004:118167:0]          mpool.c:38   UCX  WARN  object 0x155539500f60 was not returned to mpool mm_recv_desc
