 Data for JOB [40774,1] offset 0 Total slots allocated 32

 ========================   JOB MAP   ========================

 Data for node: n004	Num slots: 32	Max slots: 0	Num procs: 32
 	Process OMPI jobid: [40774,1] App: 0 Process rank: 0 Bound: socket 0[core 0[hwt 0-1]]:[BB/../../../../../../../../../../../../../../../../../../../../../../../../../../../../../../..][../../../../../../../../../../../../../../../../../../../../../../../../../../../../../../../..]
 	Process OMPI jobid: [40774,1] App: 0 Process rank: 1 Bound: socket 0[core 1[hwt 0-1]]:[../BB/../../../../../../../../../../../../../../../../../../../../../../../../../../../../../..][../../../../../../../../../../../../../../../../../../../../../../../../../../../../../../../..]
 	Process OMPI jobid: [40774,1] App: 0 Process rank: 2 Bound: socket 0[core 2[hwt 0-1]]:[../../BB/../../../../../../../../../../../../../../../../../../../../../../../../../../../../..][../../../../../../../../../../../../../../../../../../../../../../../../../../../../../../../..]
 	Process OMPI jobid: [40774,1] App: 0 Process rank: 3 Bound: socket 0[core 3[hwt 0-1]]:[../../../BB/../../../../../../../../../../../../../../../../../../../../../../../../../../../..][../../../../../../../../../../../../../../../../../../../../../../../../../../../../../../../..]
 	Process OMPI jobid: [40774,1] App: 0 Process rank: 4 Bound: socket 0[core 8[hwt 0-1]]:[../../../../../../../../BB/../../../../../../../../../../../../../../../../../../../../../../..][../../../../../../../../../../../../../../../../../../../../../../../../../../../../../../../..]
 	Process OMPI jobid: [40774,1] App: 0 Process rank: 5 Bound: socket 0[core 9[hwt 0-1]]:[../../../../../../../../../BB/../../../../../../../../../../../../../../../../../../../../../..][../../../../../../../../../../../../../../../../../../../../../../../../../../../../../../../..]
 	Process OMPI jobid: [40774,1] App: 0 Process rank: 6 Bound: socket 0[core 10[hwt 0-1]]:[../../../../../../../../../../BB/../../../../../../../../../../../../../../../../../../../../..][../../../../../../../../../../../../../../../../../../../../../../../../../../../../../../../..]
 	Process OMPI jobid: [40774,1] App: 0 Process rank: 7 Bound: socket 0[core 11[hwt 0-1]]:[../../../../../../../../../../../BB/../../../../../../../../../../../../../../../../../../../..][../../../../../../../../../../../../../../../../../../../../../../../../../../../../../../../..]
 	Process OMPI jobid: [40774,1] App: 0 Process rank: 8 Bound: socket 0[core 16[hwt 0-1]]:[../../../../../../../../../../../../../../../../BB/../../../../../../../../../../../../../../..][../../../../../../../../../../../../../../../../../../../../../../../../../../../../../../../..]
 	Process OMPI jobid: [40774,1] App: 0 Process rank: 9 Bound: socket 0[core 17[hwt 0-1]]:[../../../../../../../../../../../../../../../../../BB/../../../../../../../../../../../../../..][../../../../../../../../../../../../../../../../../../../../../../../../../../../../../../../..]
 	Process OMPI jobid: [40774,1] App: 0 Process rank: 10 Bound: socket 0[core 18[hwt 0-1]]:[../../../../../../../../../../../../../../../../../../BB/../../../../../../../../../../../../..][../../../../../../../../../../../../../../../../../../../../../../../../../../../../../../../..]
 	Process OMPI jobid: [40774,1] App: 0 Process rank: 11 Bound: socket 0[core 19[hwt 0-1]]:[../../../../../../../../../../../../../../../../../../../BB/../../../../../../../../../../../..][../../../../../../../../../../../../../../../../../../../../../../../../../../../../../../../..]
 	Process OMPI jobid: [40774,1] App: 0 Process rank: 12 Bound: socket 0[core 24[hwt 0-1]]:[../../../../../../../../../../../../../../../../../../../../../../../../BB/../../../../../../..][../../../../../../../../../../../../../../../../../../../../../../../../../../../../../../../..]
 	Process OMPI jobid: [40774,1] App: 0 Process rank: 13 Bound: socket 0[core 25[hwt 0-1]]:[../../../../../../../../../../../../../../../../../../../../../../../../../BB/../../../../../..][../../../../../../../../../../../../../../../../../../../../../../../../../../../../../../../..]
 	Process OMPI jobid: [40774,1] App: 0 Process rank: 14 Bound: socket 0[core 26[hwt 0-1]]:[../../../../../../../../../../../../../../../../../../../../../../../../../../BB/../../../../..][../../../../../../../../../../../../../../../../../../../../../../../../../../../../../../../..]
 	Process OMPI jobid: [40774,1] App: 0 Process rank: 15 Bound: socket 0[core 27[hwt 0-1]]:[../../../../../../../../../../../../../../../../../../../../../../../../../../../BB/../../../..][../../../../../../../../../../../../../../../../../../../../../../../../../../../../../../../..]
 	Process OMPI jobid: [40774,1] App: 0 Process rank: 16 Bound: socket 1[core 32[hwt 0-1]]:[../../../../../../../../../../../../../../../../../../../../../../../../../../../../../../../..][BB/../../../../../../../../../../../../../../../../../../../../../../../../../../../../../../..]
 	Process OMPI jobid: [40774,1] App: 0 Process rank: 17 Bound: socket 1[core 33[hwt 0-1]]:[../../../../../../../../../../../../../../../../../../../../../../../../../../../../../../../..][../BB/../../../../../../../../../../../../../../../../../../../../../../../../../../../../../..]
 	Process OMPI jobid: [40774,1] App: 0 Process rank: 18 Bound: socket 1[core 34[hwt 0-1]]:[../../../../../../../../../../../../../../../../../../../../../../../../../../../../../../../..][../../BB/../../../../../../../../../../../../../../../../../../../../../../../../../../../../..]
 	Process OMPI jobid: [40774,1] App: 0 Process rank: 19 Bound: socket 1[core 35[hwt 0-1]]:[../../../../../../../../../../../../../../../../../../../../../../../../../../../../../../../..][../../../BB/../../../../../../../../../../../../../../../../../../../../../../../../../../../..]
 	Process OMPI jobid: [40774,1] App: 0 Process rank: 20 Bound: socket 1[core 40[hwt 0-1]]:[../../../../../../../../../../../../../../../../../../../../../../../../../../../../../../../..][../../../../../../../../BB/../../../../../../../../../../../../../../../../../../../../../../..]
 	Process OMPI jobid: [40774,1] App: 0 Process rank: 21 Bound: socket 1[core 41[hwt 0-1]]:[../../../../../../../../../../../../../../../../../../../../../../../../../../../../../../../..][../../../../../../../../../BB/../../../../../../../../../../../../../../../../../../../../../..]
 	Process OMPI jobid: [40774,1] App: 0 Process rank: 22 Bound: socket 1[core 42[hwt 0-1]]:[../../../../../../../../../../../../../../../../../../../../../../../../../../../../../../../..][../../../../../../../../../../BB/../../../../../../../../../../../../../../../../../../../../..]
 	Process OMPI jobid: [40774,1] App: 0 Process rank: 23 Bound: socket 1[core 43[hwt 0-1]]:[../../../../../../../../../../../../../../../../../../../../../../../../../../../../../../../..][../../../../../../../../../../../BB/../../../../../../../../../../../../../../../../../../../..]
 	Process OMPI jobid: [40774,1] App: 0 Process rank: 24 Bound: socket 1[core 48[hwt 0-1]]:[../../../../../../../../../../../../../../../../../../../../../../../../../../../../../../../..][../../../../../../../../../../../../../../../../BB/../../../../../../../../../../../../../../..]
 	Process OMPI jobid: [40774,1] App: 0 Process rank: 25 Bound: socket 1[core 49[hwt 0-1]]:[../../../../../../../../../../../../../../../../../../../../../../../../../../../../../../../..][../../../../../../../../../../../../../../../../../BB/../../../../../../../../../../../../../..]
 	Process OMPI jobid: [40774,1] App: 0 Process rank: 26 Bound: socket 1[core 50[hwt 0-1]]:[../../../../../../../../../../../../../../../../../../../../../../../../../../../../../../../..][../../../../../../../../../../../../../../../../../../BB/../../../../../../../../../../../../..]
 	Process OMPI jobid: [40774,1] App: 0 Process rank: 27 Bound: socket 1[core 51[hwt 0-1]]:[../../../../../../../../../../../../../../../../../../../../../../../../../../../../../../../..][../../../../../../../../../../../../../../../../../../../BB/../../../../../../../../../../../..]
 	Process OMPI jobid: [40774,1] App: 0 Process rank: 28 Bound: socket 1[core 56[hwt 0-1]]:[../../../../../../../../../../../../../../../../../../../../../../../../../../../../../../../..][../../../../../../../../../../../../../../../../../../../../../../../../BB/../../../../../../..]
 	Process OMPI jobid: [40774,1] App: 0 Process rank: 29 Bound: socket 1[core 57[hwt 0-1]]:[../../../../../../../../../../../../../../../../../../../../../../../../../../../../../../../..][../../../../../../../../../../../../../../../../../../../../../../../../../BB/../../../../../..]
 	Process OMPI jobid: [40774,1] App: 0 Process rank: 30 Bound: socket 1[core 58[hwt 0-1]]:[../../../../../../../../../../../../../../../../../../../../../../../../../../../../../../../..][../../../../../../../../../../../../../../../../../../../../../../../../../../BB/../../../../..]
 	Process OMPI jobid: [40774,1] App: 0 Process rank: 31 Bound: socket 1[core 59[hwt 0-1]]:[../../../../../../../../../../../../../../../../../../../../../../../../../../../../../../../..][../../../../../../../../../../../../../../../../../../../../../../../../../../../BB/../../../..]

 =============================================================
0: 1 

Rank 0 ghostCells: 606
Rank 1 ghostCells: 622
Rank 2 ghostCells: 412
Rank 3 ghostCells: 776
Rank 4 ghostCells: 489
Rank 5 ghostCells: 493
Rank 6 ghostCells: 553
Rank 7 ghostCells: 763
Rank 8 ghostCells: 920
Rank 9 ghostCells: 851
Rank 10 ghostCells: 1227
Rank 11 ghostCells: 1426
Rank 12 ghostCells: 752
Rank 13 ghostCells: 1013
Rank 14 ghostCells: 612
Rank 15 ghostCells: 222
Rank 16 ghostCells: 915
Rank 17 ghostCells: 1117
Rank 18 ghostCells: 1018
Rank 19 ghostCells: 767
Rank 20 ghostCells: 1105
Rank 21 ghostCells: 1663
Rank 22 ghostCells: 884
Rank 23 ghostCells: 1038
Rank 24 ghostCells: 1223
Rank 25 ghostCells: 1318
Rank 26 ghostCells: 1385
Rank 27 ghostCells: 326
Rank 28 ghostCells: 406
Rank 29 ghostCells: 973
Rank 30 ghostCells: 948
Rank 31 ghostCells: 703

Rank 0 numCells: 2029
Rank 1 numCells: 1277
Rank 2 numCells: 885
Rank 3 numCells: 2303
Rank 4 numCells: 1882
Rank 5 numCells: 1768
Rank 6 numCells: 2042
Rank 7 numCells: 2251
Rank 8 numCells: 2371
Rank 9 numCells: 2339
Rank 10 numCells: 2686
Rank 11 numCells: 2953
Rank 12 numCells: 2185
Rank 13 numCells: 2537
Rank 14 numCells: 2133
Rank 15 numCells: 1355
Rank 16 numCells: 2441
Rank 17 numCells: 2561
Rank 18 numCells: 2543
Rank 19 numCells: 2275
Rank 20 numCells: 2459
Rank 21 numCells: 3109
Rank 22 numCells: 2361
Rank 23 numCells: 2565
Rank 24 numCells: 2687
Rank 25 numCells: 2756
Rank 26 numCells: 2881
Rank 27 numCells: 1436
Rank 28 numCells: 1866
Rank 29 numCells: 2484
Rank 30 numCells: 2318
Rank 31 numCells: 2219

Rank 0 interiorCells: 1423
Rank 1 interiorCells: 655
Rank 2 interiorCells: 473
Rank 3 interiorCells: 1527
Rank 4 interiorCells: 1393
Rank 5 interiorCells: 1275
Rank 6 interiorCells: 1489
Rank 7 interiorCells: 1488
Rank 8 interiorCells: 1451
Rank 9 interiorCells: 1488
Rank 10 interiorCells: 1459
Rank 11 interiorCells: 1527
Rank 12 interiorCells: 1433
Rank 13 interiorCells: 1524
Rank 14 interiorCells: 1521
Rank 15 interiorCells: 1133
Rank 16 interiorCells: 1526
Rank 17 interiorCells: 1444
Rank 18 interiorCells: 1525
Rank 19 interiorCells: 1508
Rank 20 interiorCells: 1354
Rank 21 interiorCells: 1446
Rank 22 interiorCells: 1477
Rank 23 interiorCells: 1527
Rank 24 interiorCells: 1464
Rank 25 interiorCells: 1438
Rank 26 interiorCells: 1496
Rank 27 interiorCells: 1110
Rank 28 interiorCells: 1460
Rank 29 interiorCells: 1511
Rank 30 interiorCells: 1370
Rank 31 interiorCells: 1516

MeasComm+1 32: 0.0001008 8.227e-05 7.232e-05 0.0001132 7.795e-05 9.423e-05 7.6e-05 8.628e-05 0.000126231 0.000121481 0.000146791 0.00017577 9.863e-05 0.00015224 0.000103291 6.924e-05 0.00015129 0.000141731 0.000128491 0.00012664 0.000133421 0.00018254 0.00012186 0.000125331 0.00016073 0.000193211 0.00018415 9.615e-05 0.0001181 0.000153781 0.00015358 0.00012021 
MeasComm+1 32: 0.00010855 8.325e-05 7.331e-05 0.00010851 7.613e-05 9.204e-05 7.542e-05 8.536e-05 0.00011984 0.00011655 0.00014484 0.00016251 9.875e-05 0.00015175 0.00010724 6.878e-05 0.00014329 0.00013673 0.00012662 0.00011934 0.000128401 0.00017885 0.00012329 0.000117841 0.00015665 0.0001847 0.00017502 0.00010362 0.00011219 0.000144201 0.0001413 0.00011703 
MeasComm+1 32: 0.00010702 8.304e-05 7.317e-05 0.0001071 7.4761e-05 9.202e-05 7.408e-05 8.784e-05 0.0001177 0.00010917 0.0001328 0.00016163 9.779e-05 0.00014601 0.0001065 6.835e-05 0.00013637 0.00013049 0.00012145 0.00011337 0.0001214 0.00017771 0.00011127 0.00011666 0.00014703 0.00017793 0.00016799 8.871e-05 0.00010227 0.000144 0.00013335 0.00010826 
MeasComm+1 32: 9.904e-05 8.035e-05 7.3141e-05 9.9181e-05 7.6e-05 9.3021e-05 7.597e-05 8.7181e-05 0.000116031 0.000114811 0.000142711 0.0001553 9.242e-05 0.000143211 0.00010902 5.037e-05 0.00014315 0.000129561 0.000121281 0.00010208 0.000130741 0.000178821 0.0001188 0.0001025 0.000153921 0.000184391 0.00016474 8.932e-05 0.00010881 0.000145281 0.00013761 8.94e-05 
MeasComm+1 32: 0.00010654 8.2221e-05 7.353e-05 0.000106911 7.545e-05 9.391e-05 7.4601e-05 8.667e-05 0.00012545 0.00012688 0.000151551 0.000166311 9.898e-05 0.00015178 0.000106701 6.634e-05 0.000147201 0.00014115 0.00013392 0.00012161 0.00013185 0.000179331 0.00012212 0.00012452 0.000161441 0.000188311 0.000178431 8.999e-05 0.00011288 0.00015786 0.000145201 0.00011439 
MeasComm+1 32: 0.00010335 8.221e-05 6.734e-05 0.00010251 7.7e-05 9.178e-05 7.443e-05 8.563e-05 0.00011836 0.00011632 0.00014511 0.00016959 9.97e-05 0.00015267 0.000107621 6.8511e-05 0.000150621 0.00013667 0.00012457 0.00011826 0.00012924 0.00017801 0.00012028 0.00012399 0.00015658 0.000186721 0.00018031 9.815e-05 0.000117271 0.00014908 0.00014189 0.000118631 
MeasComm+1 32: 0.00010634 8.231e-05 6.596e-05 0.00010548 7.47e-05 9.3501e-05 7.546e-05 8.867e-05 0.00010862 0.00012426 0.00012121 0.000171791 9.61e-05 0.0001576 0.00010741 6.953e-05 0.00014091 0.0001417 0.00011999 0.000121 0.00012555 0.00017908 0.00011922 0.00012725 0.00013441 0.00019031 0.00018293 9.554e-05 0.00011755 0.00015583 0.00014866 0.00011896 
MeasComm+1 32: 0.00010029 8.211e-05 6.751e-05 0.000103521 7.3831e-05 9.195e-05 7.311e-05 8.7051e-05 0.00012076 0.00011373 0.00013318 0.00016192 9.804e-05 0.00014287 0.00010449 6.926e-05 0.00014053 0.00013325 0.00012507 0.00011511 0.00012334 0.00017888 0.00010859 0.00012014 0.00015125 0.00018079 0.00015958 8.816e-05 0.0001032 0.00014698 0.00013658 0.00010577 
MeasComm+1 32: 0.00010529 8.307e-05 7.3161e-05 0.00010549 7.573e-05 9.113e-05 7.534e-05 8.674e-05 0.00011732 0.00011585 0.00013229 0.00016447 9.781e-05 0.00013914 0.00010791 6.757e-05 0.00013955 0.00013326 0.00012748 0.00011759 0.00012363 0.000178641 0.00012157 0.00012069 0.00015747 0.00018746 0.00017696 9.835e-05 0.00010135 0.00014889 0.00014402 0.00010407 
MeasComm+1 32: 0.00010382 8.232e-05 7.34e-05 0.00011001 7.372e-05 9.353e-05 7.472e-05 8.7e-05 0.00012401 0.0001129 0.00014735 0.00016373 9.783e-05 0.00015476 0.00010786 6.927e-05 0.00014449 0.00013641 0.00012803 0.00011509 0.00013273 0.00018017 0.00011811 0.00012464 0.00015549 0.000185 0.00015969 8.964e-05 0.00010652 0.00014988 0.00013872 0.0001084 

MeasCopy 32: 2.845e-05 2.914e-05 1.932e-05 3.634e-05 2.289e-05 2.3101e-05 2.591e-05 3.574e-05 4.312e-05 3.985e-05 5.753e-05 6.682e-05 3.526e-05 4.751e-05 2.869e-05 1.043e-05 4.291e-05 5.237e-05 4.772e-05 3.594e-05 5.181e-05 7.802e-05 4.14e-05 4.864e-05 5.728e-05 6.177e-05 6.494e-05 1.525e-05 1.903e-05 4.56e-05 4.439e-05 3.294e-05 
MeasCopy 32: 2.842e-05 2.917e-05 1.932e-05 3.636e-05 2.291e-05 2.312e-05 2.591e-05 3.575e-05 4.313e-05 3.99e-05 5.744e-05 6.684e-05 3.524e-05 4.75e-05 2.867e-05 1.043e-05 4.289e-05 5.233e-05 4.761e-05 3.591e-05 5.175e-05 7.799e-05 4.145e-05 4.865e-05 5.735e-05 6.173e-05 6.489e-05 1.53e-05 1.903e-05 4.558e-05 4.445e-05 3.296e-05 
MeasCopy 32: 2.845e-05 2.917e-05 1.929e-05 3.637e-05 2.29e-05 2.308e-05 2.592e-05 3.577e-05 4.312e-05 3.987e-05 5.749e-05 6.683e-05 3.523e-05 4.745e-05 2.865e-05 1.042e-05 4.291e-05 5.236e-05 4.772e-05 3.594e-05 5.179e-05 7.799e-05 4.145e-05 4.864e-05 5.731e-05 6.179e-05 6.488e-05 1.529e-05 1.9e-05 4.555e-05 4.446e-05 3.293e-05 
MeasCopy 32: 2.846e-05 2.915e-05 1.93e-05 3.634e-05 2.292e-05 2.311e-05 2.588e-05 3.578e-05 4.311e-05 3.99e-05 5.7491e-05 6.678e-05 3.525e-05 4.747e-05 2.869e-05 1.043e-05 4.286e-05 5.235e-05 4.77e-05 3.596e-05 5.178e-05 7.799e-05 4.145e-05 4.866e-05 5.73e-05 6.177e-05 6.488e-05 1.529e-05 1.903e-05 4.558e-05 4.443e-05 3.292e-05 
MeasCopy 32: 2.845e-05 2.914e-05 1.931e-05 3.634e-05 2.292e-05 2.312e-05 2.591e-05 3.575e-05 4.31e-05 3.989e-05 5.753e-05 6.683e-05 3.525e-05 4.745e-05 2.87e-05 1.04e-05 4.2871e-05 5.233e-05 4.771e-05 3.596e-05 5.176e-05 7.805e-05 4.143e-05 4.862e-05 5.729e-05 6.178e-05 6.489e-05 1.529e-05 1.902e-05 4.562e-05 4.442e-05 3.294e-05 
MeasCopy 32: 2.846e-05 2.913e-05 1.929e-05 3.638e-05 2.289e-05 2.312e-05 2.593e-05 3.573e-05 4.311e-05 3.987e-05 5.75e-05 6.68e-05 3.524e-05 4.749e-05 2.867e-05 1.041e-05 4.2881e-05 5.236e-05 4.772e-05 3.593e-05 5.178e-05 7.8011e-05 4.145e-05 4.862e-05 5.733e-05 6.173e-05 6.493e-05 1.525e-05 1.904e-05 4.552e-05 4.443e-05 3.293e-05 
MeasCopy 32: 2.843e-05 2.913e-05 1.931e-05 3.635e-05 2.292e-05 2.31e-05 2.591e-05 3.576e-05 4.314e-05 3.986e-05 5.7471e-05 6.686e-05 3.525e-05 4.745e-05 2.868e-05 1.042e-05 4.287e-05 5.233e-05 4.77e-05 3.594e-05 5.182e-05 7.803e-05 4.144e-05 4.864e-05 5.733e-05 6.182e-05 6.493e-05 1.527e-05 1.902e-05 4.56e-05 4.44e-05 3.294e-05 
MeasCopy 32: 2.846e-05 2.9141e-05 1.928e-05 3.637e-05 2.292e-05 2.311e-05 2.588e-05 3.568e-05 4.31e-05 3.986e-05 5.75e-05 6.682e-05 3.524e-05 4.746e-05 2.864e-05 1.039e-05 4.285e-05 5.233e-05 4.769e-05 3.592e-05 5.175e-05 7.801e-05 4.138e-05 4.8631e-05 5.732e-05 6.177e-05 6.4911e-05 1.529e-05 1.905e-05 4.556e-05 4.439e-05 3.296e-05 
MeasCopy 32: 2.847e-05 2.911e-05 1.93e-05 3.636e-05 2.29e-05 2.309e-05 2.591e-05 3.577e-05 4.313e-05 3.991e-05 5.743e-05 6.679e-05 3.523e-05 4.749e-05 2.861e-05 1.042e-05 4.287e-05 5.2301e-05 4.773e-05 3.591e-05 5.175e-05 7.801e-05 4.136e-05 4.859e-05 5.729e-05 6.181e-05 6.494e-05 1.528e-05 1.902e-05 4.561e-05 4.441e-05 3.291e-05 
MeasCopy 32: 2.846e-05 2.914e-05 1.928e-05 3.637e-05 2.293e-05 2.31e-05 2.5891e-05 3.572e-05 4.312e-05 3.988e-05 5.753e-05 6.681e-05 3.522e-05 4.748e-05 2.868e-05 1.041e-05 4.286e-05 5.234e-05 4.773e-05 3.597e-05 5.177e-05 7.799e-05 4.143e-05 4.866e-05 5.729e-05 6.176e-05 6.49e-05 1.53e-05 1.903e-05 4.556e-05 4.441e-05 3.295e-05 

ComTab rank 0: 0 199 70 115 0 68 0 57 0 0 0 22 0 3 3 0 0 0 0 0 0 54 0 0 0 0 76 10 67 0 164 38 
ComTab rank 1: 216 0 31 84 95 5 153 103 0 0 0 0 0 0 0 0 0 0 0 0 0 0 0 0 0 0 0 23 0 33 109 0 
ComTab rank 2: 69 31 0 203 6 53 0 90 0 0 0 0 23 39 0 5 0 0 0 0 0 0 0 0 0 0 0 0 0 0 0 0 
ComTab rank 3: 97 84 178 0 90 48 0 83 2 130 122 23 15 0 32 0 54 0 0 0 0 0 0 0 0 0 0 0 13 0 0 0 
ComTab rank 4: 0 88 11 86 0 70 158 134 0 0 0 0 0 0 0 0 0 0 0 0 0 0 0 0 0 0 0 12 0 24 13 4 
ComTab rank 5: 68 5 53 48 77 0 15 79 1 50 53 22 5 38 68 0 6 0 0 3 0 0 0 0 0 0 0 0 29 0 0 0 
ComTab rank 6: 0 131 0 0 149 15 0 277 0 0 0 0 0 0 0 0 0 0 0 0 0 0 0 0 0 0 0 21 0 49 63 23 
ComTab rank 7: 46 94 90 93 117 75 275 0 0 0 0 0 0 0 0 0 0 0 0 0 0 0 0 0 0 0 0 0 0 105 51 51 
ComTab rank 8: 0 0 0 2 0 1 0 0 0 402 112 262 67 155 199 0 74 5 0 0 0 20 0 0 0 26 0 27 0 0 0 0 
ComTab rank 9: 0 0 0 62 0 28 0 0 406 0 295 269 60 81 53 0 31 0 0 0 0 0 0 0 0 7 0 0 0 0 0 0 
ComTab rank 10: 0 0 0 57 0 34 0 0 133 279 0 399 126 257 274 0 60 0 0 96 0 4 0 0 14 55 0 0 0 0 0 0 
ComTab rank 11: 79 0 0 26 0 33 0 0 268 274 383 0 195 389 141 0 110 70 0 5 0 70 0 0 0 74 30 44 29 16 0 0 
ComTab rank 12: 0 0 25 12 0 12 0 0 67 50 116 189 0 302 52 177 0 0 0 0 0 0 0 0 0 0 0 0 0 0 0 0 
ComTab rank 13: 3 0 19 0 0 15 0 0 141 70 238 415 300 0 54 46 15 46 0 0 0 56 0 0 18 67 6 14 1 5 0 0 
ComTab rank 14: 3 0 0 31 0 74 0 0 182 55 165 137 58 51 0 54 33 0 0 0 0 0 0 0 0 0 2 36 1 12 0 0 
ComTab rank 15: 0 0 5 0 0 0 0 0 0 0 0 0 165 39 57 0 0 0 0 0 0 0 0 0 0 0 0 0 0 0 0 0 
ComTab rank 16: 0 0 0 33 0 4 0 0 78 21 51 113 0 16 33 0 0 120 187 145 0 57 0 0 97 222 94 0 57 37 0 0 
ComTab rank 17: 0 0 0 0 0 0 0 0 5 0 0 68 0 52 0 0 111 0 118 0 34 337 137 76 70 117 432 0 12 71 30 0 
ComTab rank 18: 0 0 0 0 0 0 0 0 0 0 0 0 0 0 0 0 189 111 0 260 207 141 96 93 29 179 3 0 6 19 13 0 
ComTab rank 19: 0 0 0 0 0 3 0 0 0 0 110 5 0 0 0 0 143 0 242 0 86 76 86 17 197 73 4 0 14 0 0 0 
ComTab rank 20: 0 0 0 0 0 0 0 0 0 0 0 0 0 0 0 0 0 33 199 81 0 103 169 244 322 135 20 12 0 82 118 46 
ComTab rank 21: 54 0 0 0 0 0 0 0 19 0 4 85 0 60 0 0 59 331 146 69 98 0 173 160 221 508 256 0 16 162 154 27 
ComTab rank 22: 0 0 0 0 0 0 0 0 0 0 0 0 0 0 0 0 0 129 102 91 151 166 0 415 60 70 143 2 5 16 59 12 
ComTab rank 23: 0 0 0 0 0 0 0 0 0 0 0 0 0 0 0 0 0 76 81 17 242 175 428 0 222 130 116 7 1 68 4 0 
ComTab rank 24: 0 0 0 0 0 0 0 0 0 0 13 0 0 18 0 0 84 70 25 195 290 201 54 212 0 215 326 0 0 58 0 15 
ComTab rank 25: 0 0 0 0 0 0 0 0 23 7 48 73 0 61 0 0 223 107 166 71 110 433 53 116 220 0 317 0 12 103 39 32 
ComTab rank 26: 77 0 0 0 0 0 0 0 0 0 0 20 0 6 2 0 69 414 3 4 20 244 143 101 359 331 0 8 57 66 44 200 
ComTab rank 27: 10 37 0 0 12 0 30 0 27 0 0 30 0 14 64 0 0 0 0 0 3 0 2 7 0 0 10 0 89 58 71 17 
ComTab rank 28: 67 0 0 12 0 28 0 0 0 0 0 22 0 1 1 0 47 9 6 20 0 16 6 1 0 3 66 89 0 97 10 5 
ComTab rank 29: 0 52 0 0 21 0 53 102 0 0 0 10 0 5 11 0 65 67 21 0 85 165 15 70 57 109 97 57 86 0 90 199 
ComTab rank 30: 184 101 0 0 9 0 67 49 0 0 0 0 0 0 0 0 0 32 6 0 118 137 42 4 0 39 55 36 13 98 0 341 
ComTab rank 31: 49 0 0 0 3 0 23 55 0 0 0 0 0 0 0 0 0 0 0 0 46 28 12 0 15 31 180 12 6 184 326 0 

Edge-cut: 21541

Wgt-cut: 1.28504e-08

[1580129851.888392] [n004:40543:0]          mpool.c:38   UCX  WARN  object 0x155546fb0f60 was not returned to mpool mm_recv_desc
[1580129851.897721] [n004:40547:0]          mpool.c:38   UCX  WARN  object 0x155546fb0f60 was not returned to mpool mm_recv_desc
[1580129851.955936] [n004:40550:0]          mpool.c:38   UCX  WARN  object 0x155546fb0f60 was not returned to mpool mm_recv_desc
[1580129851.964834] [n004:40544:0]          mpool.c:38   UCX  WARN  object 0x155546fb0f60 was not returned to mpool mm_recv_desc
[1580129851.970002] [n004:40560:0]          mpool.c:38   UCX  WARN  object 0x155546fb0f60 was not returned to mpool mm_recv_desc
