 Data for JOB [60115,1] offset 0 Total slots allocated 4

 ========================   JOB MAP   ========================

 Data for node: n004	Num slots: 4	Max slots: 0	Num procs: 4
 	Process OMPI jobid: [60115,1] App: 0 Process rank: 0 Bound: socket 0[core 0[hwt 0-1]]:[BB/../../../../../../../../../../../../../../../../../../../../../../../../../../../../../../..][../../../../../../../../../../../../../../../../../../../../../../../../../../../../../../../..]
 	Process OMPI jobid: [60115,1] App: 0 Process rank: 1 Bound: socket 0[core 8[hwt 0-1]]:[../../../../../../../../BB/../../../../../../../../../../../../../../../../../../../../../../..][../../../../../../../../../../../../../../../../../../../../../../../../../../../../../../../..]
 	Process OMPI jobid: [60115,1] App: 0 Process rank: 2 Bound: socket 0[core 16[hwt 0-1]]:[../../../../../../../../../../../../../../../../BB/../../../../../../../../../../../../../../..][../../../../../../../../../../../../../../../../../../../../../../../../../../../../../../../..]
 	Process OMPI jobid: [60115,1] App: 0 Process rank: 3 Bound: socket 0[core 24[hwt 0-1]]:[../../../../../../../../../../../../../../../../../../../../../../../../BB/../../../../../../..][../../../../../../../../../../../../../../../../../../../../../../../../../../../../../../../..]

 =============================================================
[1579604305.187822] [n004:125921:0]         mxm.c:196  MXM  WARN  The 'ulimit -s' on the system is set to 'unlimited'. This may have negative performance implications. Please set the stack size to the default value (10240) 
[1579604305.187821] [n004:125924:0]         mxm.c:196  MXM  WARN  The 'ulimit -s' on the system is set to 'unlimited'. This may have negative performance implications. Please set the stack size to the default value (10240) 
[1579604305.188391] [n004:125923:0]         mxm.c:196  MXM  WARN  The 'ulimit -s' on the system is set to 'unlimited'. This may have negative performance implications. Please set the stack size to the default value (10240) 
[1579604305.188440] [n004:125922:0]         mxm.c:196  MXM  WARN  The 'ulimit -s' on the system is set to 'unlimited'. This may have negative performance implications. Please set the stack size to the default value (10240) 
0: 1 

Rank 0 ghostCells: 21015
Rank 1 ghostCells: 12650
Rank 2 ghostCells: 7285
Rank 3 ghostCells: 15733

Rank 0 numCells: 108160
Rank 1 numCells: 109869
Rank 2 numCells: 99270
Rank 3 numCells: 94791

Rank 0 interiorCells: 87145
Rank 1 interiorCells: 97219
Rank 2 interiorCells: 91985
Rank 3 interiorCells: 79058

MeasComm+1 4: 0.00118802 0.00102842 0.000752332 0.000958732 
MeasComm+1 4: 0.0011819 0.00103017 0.000741521 0.00100689 
MeasComm+1 4: 0.0012293 0.00104463 0.000743041 0.00101015 
MeasComm+1 4: 0.00118438 0.00102668 0.000741591 0.00100938 
MeasComm+1 4: 0.00118429 0.00103646 0.000740142 0.00100935 
MeasComm+1 4: 0.00119268 0.00102331 0.000744972 0.00101036 
MeasComm+1 4: 0.00119222 0.0010245 0.000741121 0.00100413 
MeasComm+1 4: 0.00118603 0.00102856 0.000740012 0.00101119 
MeasComm+1 4: 0.00118069 0.000939392 0.000742512 0.000948082 
MeasComm+1 4: 0.00119565 0.00102229 0.000737581 0.00100617 

MeasCopy 4: 0.000986422 0.000593552 0.000341621 0.000738122 
MeasCopy 4: 0.000986552 0.000593761 0.00034172 0.000738142 
MeasCopy 4: 0.000986352 0.000593692 0.000341611 0.000738322 
MeasCopy 4: 0.000986402 0.000593671 0.000341681 0.000738341 
MeasCopy 4: 0.000986652 0.000593361 0.000341641 0.000738042 
MeasCopy 4: 0.000986552 0.000593661 0.00034156 0.000737951 
MeasCopy 4: 0.000986352 0.000593572 0.000341581 0.000738292 
MeasCopy 4: 0.000986632 0.000593511 0.000341601 0.000738151 
MeasCopy 4: 0.000986512 0.000593562 0.000341711 0.000738152 
MeasCopy 4: 0.000986522 0.000593741 0.000341601 0.000738392 

ComTab rank 0: 0 9642 3459 8842 
ComTab rank 1: 9952 0 502 6390 
ComTab rank 2: 3025 660 0 3745 
ComTab rank 3: 9461 6413 4046 0 

Edge-cut: 43990

Wgt-cut: 4.17767e-09

[1579604360.485196] [n004:125923:0]          mpool.c:38   UCX  WARN  object 0x555563017b00 was not returned to mpool ucp_am_bufs
[1579604360.500055] [n004:125924:0]          mpool.c:38   UCX  WARN  object 0x55555b54b780 was not returned to mpool ucp_am_bufs
[1579604360.501303] [n004:125922:0]          mpool.c:38   UCX  WARN  object 0x155544122f60 was not returned to mpool mm_recv_desc
