 Data for JOB [8826,1] offset 0 Total slots allocated 4

 ========================   JOB MAP   ========================

 Data for node: n003	Num slots: 4	Max slots: 0	Num procs: 4
 	Process OMPI jobid: [8826,1] App: 0 Process rank: 0 Bound: socket 0[core 9[hwt 0-1]]:[../../../../../../../../../BB/../../../../../../../../../../../../../../../../../../../../../..][../../../../../../../../../../../../../../../../../../../../../../../../../../../../../../../..]
 	Process OMPI jobid: [8826,1] App: 0 Process rank: 1 Bound: socket 0[core 3[hwt 0-1]]:[../../../BB/../../../../../../../../../../../../../../../../../../../../../../../../../../../..][../../../../../../../../../../../../../../../../../../../../../../../../../../../../../../../..]
 	Process OMPI jobid: [8826,1] App: 0 Process rank: 2 Bound: socket 0[core 4[hwt 0-1]]:[../../../../BB/../../../../../../../../../../../../../../../../../../../../../../../../../../..][../../../../../../../../../../../../../../../../../../../../../../../../../../../../../../../..]
 	Process OMPI jobid: [8826,1] App: 0 Process rank: 3 Bound: socket 0[core 10[hwt 0-1]]:[../../../../../../../../../../BB/../../../../../../../../../../../../../../../../../../../../..][../../../../../../../../../../../../../../../../../../../../../../../../../../../../../../../..]

 =============================================================
Two group cota
0 1 1
1 0 0
2 3 3
3 2 2
dune-size 1 4.29449e-06 4.29449e-06 4.33659e-06 4.33489e-06 
dune-size 2 4.05229e-06 4.05539e-06 4.12429e-06 4.12539e-06 
dune-size 4 4.25269e-06 4.25439e-06 4.23699e-06 4.24109e-06 
dune-size 8 9.36318e-06 9.36408e-06 7.17769e-06 7.18329e-06 
dune-size 16 4.95529e-06 4.95299e-06 4.93949e-06 4.93779e-06 
dune-size 32 5.68959e-06 5.68749e-06 5.69989e-06 5.69359e-06 
dune-size 64 7.27999e-06 7.28109e-06 7.29549e-06 7.30009e-06 
dune-size 128 1.05166e-05 1.05147e-05 1.04189e-05 1.04185e-05 
dune-size 256 1.72208e-05 1.72157e-05 1.73138e-05 1.73139e-05 
dune-size 512 3.45595e-05 3.45722e-05 3.06611e-05 3.06554e-05 
dune-size 1024 8.91067e-05 8.91121e-05 8.75051e-05 8.7497e-05 
dune-size 2048 0.000173882 0.000173887 0.00015932 0.000159309 
dune-size 4096 0.000303977 0.000303994 0.000303553 0.000303561 
dune-size 8192 0.000535559 0.000535513 0.000556934 0.000556878 
dune-size 16384 0.000883706 0.000883762 0.000860759 0.000860761 
dune-size 32768 0.00164735 0.00164746 0.00163818 0.00163819 
dune-size 65536 0.00327894 0.00328438 0.00325401 0.0032532 
dune-size 131072 0.00653571 0.00653826 0.0065258 0.00653307 
