 Data for JOB [20745,1] offset 0 Total slots allocated 8

 ========================   JOB MAP   ========================

 Data for node: n004	Num slots: 8	Max slots: 0	Num procs: 8
 	Process OMPI jobid: [20745,1] App: 0 Process rank: 0 Bound: socket 0[core 8[hwt 0-1]]:[../../../../../../../../BB/../../../../../../../../../../../../../../../../../../../../../../..][../../../../../../../../../../../../../../../../../../../../../../../../../../../../../../../..]
 	Process OMPI jobid: [20745,1] App: 0 Process rank: 1 Bound: socket 0[core 21[hwt 0-1]]:[../../../../../../../../../../../../../../../../../../../../../BB/../../../../../../../../../..][../../../../../../../../../../../../../../../../../../../../../../../../../../../../../../../..]
 	Process OMPI jobid: [20745,1] App: 0 Process rank: 2 Bound: socket 0[core 10[hwt 0-1]]:[../../../../../../../../../../BB/../../../../../../../../../../../../../../../../../../../../..][../../../../../../../../../../../../../../../../../../../../../../../../../../../../../../../..]
 	Process OMPI jobid: [20745,1] App: 0 Process rank: 3 Bound: socket 0[core 23[hwt 0-1]]:[../../../../../../../../../../../../../../../../../../../../../../../BB/../../../../../../../..][../../../../../../../../../../../../../../../../../../../../../../../../../../../../../../../..]
 	Process OMPI jobid: [20745,1] App: 0 Process rank: 4 Bound: socket 0[core 20[hwt 0-1]]:[../../../../../../../../../../../../../../../../../../../../BB/../../../../../../../../../../..][../../../../../../../../../../../../../../../../../../../../../../../../../../../../../../../..]
 	Process OMPI jobid: [20745,1] App: 0 Process rank: 5 Bound: socket 0[core 9[hwt 0-1]]:[../../../../../../../../../BB/../../../../../../../../../../../../../../../../../../../../../..][../../../../../../../../../../../../../../../../../../../../../../../../../../../../../../../..]
 	Process OMPI jobid: [20745,1] App: 0 Process rank: 6 Bound: socket 0[core 22[hwt 0-1]]:[../../../../../../../../../../../../../../../../../../../../../../BB/../../../../../../../../..][../../../../../../../../../../../../../../../../../../../../../../../../../../../../../../../..]
 	Process OMPI jobid: [20745,1] App: 0 Process rank: 7 Bound: socket 0[core 11[hwt 0-1]]:[../../../../../../../../../../../BB/../../../../../../../../../../../../../../../../../../../..][../../../../../../../../../../../../../../../../../../../../../../../../../../../../../../../..]

 =============================================================
6 7 5
6 4 4
6 5 7
Two group cota
0 1 3
0 2 2
0 3 1
2 3 1
2 0 0
2 1 3
3 0 2
3 1 1
3 2 0
4 5 7
4 6 6
4 7 5
1 2 0
1 3 3
1 0 2
5 6 4
5 7 7
5 4 6
7 4 6
7 5 5
7 6 4
dune-size 1 2.12169e-05 2.04605e-05 2.12336e-05 2.04073e-05 2.17298e-05 2.09718e-05 2.17828e-05 2.09773e-05 
dune-size 2 1.83252e-05 1.83774e-05 1.83447e-05 1.83567e-05 1.42964e-05 1.43119e-05 1.43127e-05 1.43141e-05 
dune-size 4 1.21107e-05 1.20958e-05 1.21053e-05 1.21109e-05 1.52808e-05 1.53249e-05 1.53076e-05 1.53168e-05 
dune-size 8 1.19299e-05 1.19096e-05 1.19235e-05 1.19329e-05 1.7173e-05 1.72286e-05 1.72033e-05 1.72223e-05 
dune-size 16 1.28091e-05 1.27973e-05 1.28054e-05 1.28115e-05 1.75727e-05 1.75841e-05 1.75608e-05 1.7609e-05 
dune-size 32 1.49302e-05 1.49601e-05 1.49423e-05 1.49543e-05 1.49095e-05 1.49452e-05 1.49307e-05 1.49459e-05 
dune-size 64 2.01899e-05 2.01449e-05 2.01963e-05 2.01643e-05 2.01569e-05 2.01208e-05 2.01476e-05 2.01301e-05 
dune-size 128 2.96629e-05 2.96785e-05 2.97377e-05 2.97068e-05 2.95994e-05 2.96541e-05 2.96255e-05 2.96522e-05 
dune-size 256 4.9675e-05 4.97247e-05 4.96735e-05 4.97013e-05 4.98758e-05 4.99224e-05 4.98829e-05 4.99198e-05 
dune-size 512 8.87898e-05 8.88623e-05 8.87769e-05 8.89592e-05 9.07266e-05 9.08965e-05 9.07291e-05 9.07849e-05 
dune-size 1024 0.000231865 0.00023146 0.000231652 0.000231476 0.000229743 0.000230176 0.000229693 0.000229967 
dune-size 2048 0.000413704 0.000414491 0.000413691 0.000413934 0.000418886 0.000418405 0.000418408 0.000419164 
dune-size 4096 0.000732853 0.000731284 0.00073133 0.000732175 0.000708905 0.000708029 0.000708016 0.000709647 
dune-size 8192 0.00129424 0.00129359 0.00129193 0.00129194 0.00131933 0.00132008 0.00131757 0.00131753 
dune-size 16384 0.002466 0.00246586 0.00246197 0.00246202 0.00244995 0.00245103 0.00244668 0.00244658 
dune-size 32768 0.00486156 0.00486143 0.00486208 0.00486091 0.00486221 0.00485995 0.00485957 0.00486039 
dune-size 65536 0.00982769 0.00975493 0.00983777 0.00976253 0.0097623 0.00982761 0.00976012 0.00984278 
dune-size 131072 0.0195198 0.0195002 0.0194816 0.0194759 0.0196178 0.0196297 0.0196187 0.0196285 
