 Data for JOB [51347,1] offset 0 Total slots allocated 8

 ========================   JOB MAP   ========================

 Data for node: n003	Num slots: 8	Max slots: 0	Num procs: 8
 	Process OMPI jobid: [51347,1] App: 0 Process rank: 0 Bound: socket 0[core 24[hwt 0-1]]:[../../../../../../../../../../../../../../../../../../../../../../../../BB/../../../../../../..][../../../../../../../../../../../../../../../../../../../../../../../../../../../../../../../..]
 	Process OMPI jobid: [51347,1] App: 0 Process rank: 1 Bound: socket 0[core 25[hwt 0-1]]:[../../../../../../../../../../../../../../../../../../../../../../../../../BB/../../../../../..][../../../../../../../../../../../../../../../../../../../../../../../../../../../../../../../..]
 	Process OMPI jobid: [51347,1] App: 0 Process rank: 2 Bound: socket 0[core 26[hwt 0-1]]:[../../../../../../../../../../../../../../../../../../../../../../../../../../BB/../../../../..][../../../../../../../../../../../../../../../../../../../../../../../../../../../../../../../..]
 	Process OMPI jobid: [51347,1] App: 0 Process rank: 3 Bound: socket 0[core 27[hwt 0-1]]:[../../../../../../../../../../../../../../../../../../../../../../../../../../../BB/../../../..][../../../../../../../../../../../../../../../../../../../../../../../../../../../../../../../..]
 	Process OMPI jobid: [51347,1] App: 0 Process rank: 4 Bound: socket 1[core 60[hwt 0-1]]:[../../../../../../../../../../../../../../../../../../../../../../../../../../../../../../../..][../../../../../../../../../../../../../../../../../../../../../../../../../../../../BB/../../..]
 	Process OMPI jobid: [51347,1] App: 0 Process rank: 5 Bound: socket 1[core 61[hwt 0-1]]:[../../../../../../../../../../../../../../../../../../../../../../../../../../../../../../../..][../../../../../../../../../../../../../../../../../../../../../../../../../../../../../BB/../..]
 	Process OMPI jobid: [51347,1] App: 0 Process rank: 6 Bound: socket 1[core 62[hwt 0-1]]:[../../../../../../../../../../../../../../../../../../../../../../../../../../../../../../../..][../../../../../../../../../../../../../../../../../../../../../../../../../../../../../../BB/..]
 	Process OMPI jobid: [51347,1] App: 0 Process rank: 7 Bound: socket 1[core 63[hwt 0-1]]:[../../../../../../../../../../../../../../../../../../../../../../../../../../../../../../../..][../../../../../../../../../../../../../../../../../../../../../../../../../../../../../../../BB]

 =============================================================
5 6 4
5 7 7
5 4 6
6 7 5
6 4 4
6 5 7
7 4 6
7 5 5
7 6 4
2 3 1
2 0 0
2 1 3
3 0 2
3 1 1
3 2 0
4 5 7
4 6 6
4 7 5
1 2 0
1 3 3
1 0 2
Two group cota
0 1 3
0 2 2
0 3 1
dune-size 1 1.58157e-05 1.58415e-05 1.58289e-05 1.58734e-05 1.10835e-05 1.10945e-05 1.10952e-05 1.11474e-05 
dune-size 2 6.58408e-06 6.58568e-06 6.57828e-06 6.58598e-06 6.51818e-06 6.51118e-06 6.51318e-06 6.51688e-06 
dune-size 4 6.91709e-06 6.90689e-06 6.92229e-06 6.91829e-06 6.89269e-06 6.87089e-06 6.88729e-06 6.87639e-06 
dune-size 8 9.48838e-06 9.50138e-06 9.49958e-06 9.49758e-06 1.08694e-05 1.08745e-05 1.08756e-05 1.08835e-05 
dune-size 16 8.59938e-06 8.60548e-06 8.61318e-06 8.61268e-06 8.63528e-06 8.62108e-06 8.63228e-06 8.62518e-06 
dune-size 32 1.10624e-05 1.10606e-05 1.10614e-05 1.106e-05 1.10695e-05 1.10521e-05 1.10653e-05 1.10549e-05 
dune-size 64 1.7347e-05 1.73219e-05 1.73277e-05 1.73315e-05 1.58823e-05 1.58778e-05 1.58782e-05 1.58847e-05 
dune-size 128 2.48877e-05 2.49065e-05 2.49242e-05 2.48904e-05 2.49309e-05 2.49352e-05 2.49914e-05 2.4964e-05 
dune-size 256 4.34793e-05 4.34445e-05 4.34489e-05 4.34508e-05 4.42077e-05 4.42012e-05 4.4205e-05 4.42023e-05 
dune-size 512 8.30834e-05 8.29833e-05 8.28601e-05 8.28645e-05 8.27633e-05 8.25518e-05 8.25516e-05 8.26675e-05 
dune-size 1024 0.000176014 0.000175589 0.000175589 0.000175815 0.00017133 0.000171586 0.000171329 0.000171404 
dune-size 2048 0.000333902 0.000334571 0.00033433 0.000333904 0.00032745 0.000327901 0.000327471 0.000327823 
dune-size 4096 0.000625392 0.000626142 0.000624641 0.000624642 0.000616608 0.00061604 0.000615274 0.000615277 
dune-size 8192 0.00122911 0.00122906 0.00123059 0.00123065 0.00120525 0.00120335 0.0012034 0.00120502 
dune-size 16384 0.00239095 0.00238736 0.00238998 0.00238735 0.00238363 0.00238504 0.00238089 0.00238095 
dune-size 32768 0.0048164 0.00481398 0.00482176 0.00481392 0.00479896 0.00479713 0.00479702 0.0047972 
dune-size 65536 0.00964605 0.00965025 0.00964254 0.00964142 0.00972115 0.00972025 0.00971751 0.00971704 
dune-size 131072 0.0195013 0.0195066 0.019501 0.0195106 0.019521 0.0194812 0.0195156 0.0194794 
