 Data for JOB [4649,1] offset 0 Total slots allocated 4

 ========================   JOB MAP   ========================

 Data for node: n003	Num slots: 4	Max slots: 0	Num procs: 4
 	Process OMPI jobid: [4649,1] App: 0 Process rank: 0 Bound: socket 1[core 41[hwt 0-1]]:[../../../../../../../../../../../../../../../../../../../../../../../../../../../../../../../..][../../../../../../../../../BB/../../../../../../../../../../../../../../../../../../../../../..]
 	Process OMPI jobid: [4649,1] App: 0 Process rank: 1 Bound: socket 1[core 51[hwt 0-1]]:[../../../../../../../../../../../../../../../../../../../../../../../../../../../../../../../..][../../../../../../../../../../../../../../../../../../../BB/../../../../../../../../../../../..]
 	Process OMPI jobid: [4649,1] App: 0 Process rank: 2 Bound: socket 1[core 52[hwt 0-1]]:[../../../../../../../../../../../../../../../../../../../../../../../../../../../../../../../..][../../../../../../../../../../../../../../../../../../../../BB/../../../../../../../../../../..]
 	Process OMPI jobid: [4649,1] App: 0 Process rank: 3 Bound: socket 1[core 42[hwt 0-1]]:[../../../../../../../../../../../../../../../../../../../../../../../../../../../../../../../..][../../../../../../../../../../BB/../../../../../../../../../../../../../../../../../../../../..]

 =============================================================
1 0 0
Two group cota
0 1 1
3 2 2
2 3 3
dune-size 1 4.15859e-06 4.16039e-06 4.26259e-06 4.26209e-06 
dune-size 2 3.94569e-06 3.93809e-06 3.96909e-06 3.96509e-06 
dune-size 4 4.0736e-06 4.0779e-06 4.1929e-06 4.1945e-06 
dune-size 8 4.36189e-06 4.36459e-06 4.49719e-06 4.49729e-06 
dune-size 16 4.77459e-06 4.77589e-06 4.86939e-06 4.87259e-06 
dune-size 32 5.53369e-06 5.53029e-06 5.51459e-06 5.51369e-06 
dune-size 64 7.17098e-06 7.17068e-06 7.26458e-06 7.26318e-06 
dune-size 128 1.04077e-05 1.04078e-05 1.04484e-05 1.04496e-05 
dune-size 256 1.78442e-05 1.78396e-05 1.76896e-05 1.76744e-05 
dune-size 512 3.03453e-05 3.03559e-05 3.02011e-05 3.01992e-05 
dune-size 1024 8.57839e-05 8.57759e-05 8.56192e-05 8.56142e-05 
dune-size 2048 0.000158305 0.000158292 0.000157943 0.000157956 
dune-size 4096 0.000305184 0.000305194 0.00030548 0.000305488 
dune-size 8192 0.000554839 0.00055484 0.000541361 0.000541371 
dune-size 16384 0.000890607 0.000890617 0.000870048 0.000870046 
dune-size 32768 0.00161846 0.00161845 0.00162959 0.00162968 
dune-size 65536 0.00322711 0.00322589 0.00327655 0.00327743 
dune-size 131072 0.00654506 0.00653972 0.00654143 0.0065457 
