 Data for JOB [53670,1] offset 0 Total slots allocated 64

 ========================   JOB MAP   ========================

 Data for node: n004	Num slots: 64	Max slots: 0	Num procs: 64
 	Process OMPI jobid: [53670,1] App: 0 Process rank: 0 Bound: socket 0[core 0[hwt 0-1]]:[BB/../../../../../../../../../../../../../../../../../../../../../../../../../../../../../../..][../../../../../../../../../../../../../../../../../../../../../../../../../../../../../../../..]
 	Process OMPI jobid: [53670,1] App: 0 Process rank: 1 Bound: socket 0[core 1[hwt 0-1]]:[../BB/../../../../../../../../../../../../../../../../../../../../../../../../../../../../../..][../../../../../../../../../../../../../../../../../../../../../../../../../../../../../../../..]
 	Process OMPI jobid: [53670,1] App: 0 Process rank: 2 Bound: socket 0[core 2[hwt 0-1]]:[../../BB/../../../../../../../../../../../../../../../../../../../../../../../../../../../../..][../../../../../../../../../../../../../../../../../../../../../../../../../../../../../../../..]
 	Process OMPI jobid: [53670,1] App: 0 Process rank: 3 Bound: socket 0[core 3[hwt 0-1]]:[../../../BB/../../../../../../../../../../../../../../../../../../../../../../../../../../../..][../../../../../../../../../../../../../../../../../../../../../../../../../../../../../../../..]
 	Process OMPI jobid: [53670,1] App: 0 Process rank: 4 Bound: socket 0[core 4[hwt 0-1]]:[../../../../BB/../../../../../../../../../../../../../../../../../../../../../../../../../../..][../../../../../../../../../../../../../../../../../../../../../../../../../../../../../../../..]
 	Process OMPI jobid: [53670,1] App: 0 Process rank: 5 Bound: socket 0[core 5[hwt 0-1]]:[../../../../../BB/../../../../../../../../../../../../../../../../../../../../../../../../../..][../../../../../../../../../../../../../../../../../../../../../../../../../../../../../../../..]
 	Process OMPI jobid: [53670,1] App: 0 Process rank: 6 Bound: socket 0[core 6[hwt 0-1]]:[../../../../../../BB/../../../../../../../../../../../../../../../../../../../../../../../../..][../../../../../../../../../../../../../../../../../../../../../../../../../../../../../../../..]
 	Process OMPI jobid: [53670,1] App: 0 Process rank: 7 Bound: socket 0[core 7[hwt 0-1]]:[../../../../../../../BB/../../../../../../../../../../../../../../../../../../../../../../../..][../../../../../../../../../../../../../../../../../../../../../../../../../../../../../../../..]
 	Process OMPI jobid: [53670,1] App: 0 Process rank: 8 Bound: socket 0[core 8[hwt 0-1]]:[../../../../../../../../BB/../../../../../../../../../../../../../../../../../../../../../../..][../../../../../../../../../../../../../../../../../../../../../../../../../../../../../../../..]
 	Process OMPI jobid: [53670,1] App: 0 Process rank: 9 Bound: socket 0[core 9[hwt 0-1]]:[../../../../../../../../../BB/../../../../../../../../../../../../../../../../../../../../../..][../../../../../../../../../../../../../../../../../../../../../../../../../../../../../../../..]
 	Process OMPI jobid: [53670,1] App: 0 Process rank: 10 Bound: socket 0[core 10[hwt 0-1]]:[../../../../../../../../../../BB/../../../../../../../../../../../../../../../../../../../../..][../../../../../../../../../../../../../../../../../../../../../../../../../../../../../../../..]
 	Process OMPI jobid: [53670,1] App: 0 Process rank: 11 Bound: socket 0[core 11[hwt 0-1]]:[../../../../../../../../../../../BB/../../../../../../../../../../../../../../../../../../../..][../../../../../../../../../../../../../../../../../../../../../../../../../../../../../../../..]
 	Process OMPI jobid: [53670,1] App: 0 Process rank: 12 Bound: socket 0[core 12[hwt 0-1]]:[../../../../../../../../../../../../BB/../../../../../../../../../../../../../../../../../../..][../../../../../../../../../../../../../../../../../../../../../../../../../../../../../../../..]
 	Process OMPI jobid: [53670,1] App: 0 Process rank: 13 Bound: socket 0[core 13[hwt 0-1]]:[../../../../../../../../../../../../../BB/../../../../../../../../../../../../../../../../../..][../../../../../../../../../../../../../../../../../../../../../../../../../../../../../../../..]
 	Process OMPI jobid: [53670,1] App: 0 Process rank: 14 Bound: socket 0[core 14[hwt 0-1]]:[../../../../../../../../../../../../../../BB/../../../../../../../../../../../../../../../../..][../../../../../../../../../../../../../../../../../../../../../../../../../../../../../../../..]
 	Process OMPI jobid: [53670,1] App: 0 Process rank: 15 Bound: socket 0[core 15[hwt 0-1]]:[../../../../../../../../../../../../../../../BB/../../../../../../../../../../../../../../../..][../../../../../../../../../../../../../../../../../../../../../../../../../../../../../../../..]
 	Process OMPI jobid: [53670,1] App: 0 Process rank: 16 Bound: socket 0[core 16[hwt 0-1]]:[../../../../../../../../../../../../../../../../BB/../../../../../../../../../../../../../../..][../../../../../../../../../../../../../../../../../../../../../../../../../../../../../../../..]
 	Process OMPI jobid: [53670,1] App: 0 Process rank: 17 Bound: socket 0[core 17[hwt 0-1]]:[../../../../../../../../../../../../../../../../../BB/../../../../../../../../../../../../../..][../../../../../../../../../../../../../../../../../../../../../../../../../../../../../../../..]
 	Process OMPI jobid: [53670,1] App: 0 Process rank: 18 Bound: socket 0[core 18[hwt 0-1]]:[../../../../../../../../../../../../../../../../../../BB/../../../../../../../../../../../../..][../../../../../../../../../../../../../../../../../../../../../../../../../../../../../../../..]
 	Process OMPI jobid: [53670,1] App: 0 Process rank: 19 Bound: socket 0[core 19[hwt 0-1]]:[../../../../../../../../../../../../../../../../../../../BB/../../../../../../../../../../../..][../../../../../../../../../../../../../../../../../../../../../../../../../../../../../../../..]
 	Process OMPI jobid: [53670,1] App: 0 Process rank: 20 Bound: socket 0[core 20[hwt 0-1]]:[../../../../../../../../../../../../../../../../../../../../BB/../../../../../../../../../../..][../../../../../../../../../../../../../../../../../../../../../../../../../../../../../../../..]
 	Process OMPI jobid: [53670,1] App: 0 Process rank: 21 Bound: socket 0[core 21[hwt 0-1]]:[../../../../../../../../../../../../../../../../../../../../../BB/../../../../../../../../../..][../../../../../../../../../../../../../../../../../../../../../../../../../../../../../../../..]
 	Process OMPI jobid: [53670,1] App: 0 Process rank: 22 Bound: socket 0[core 22[hwt 0-1]]:[../../../../../../../../../../../../../../../../../../../../../../BB/../../../../../../../../..][../../../../../../../../../../../../../../../../../../../../../../../../../../../../../../../..]
 	Process OMPI jobid: [53670,1] App: 0 Process rank: 23 Bound: socket 0[core 23[hwt 0-1]]:[../../../../../../../../../../../../../../../../../../../../../../../BB/../../../../../../../..][../../../../../../../../../../../../../../../../../../../../../../../../../../../../../../../..]
 	Process OMPI jobid: [53670,1] App: 0 Process rank: 24 Bound: socket 0[core 24[hwt 0-1]]:[../../../../../../../../../../../../../../../../../../../../../../../../BB/../../../../../../..][../../../../../../../../../../../../../../../../../../../../../../../../../../../../../../../..]
 	Process OMPI jobid: [53670,1] App: 0 Process rank: 25 Bound: socket 0[core 25[hwt 0-1]]:[../../../../../../../../../../../../../../../../../../../../../../../../../BB/../../../../../..][../../../../../../../../../../../../../../../../../../../../../../../../../../../../../../../..]
 	Process OMPI jobid: [53670,1] App: 0 Process rank: 26 Bound: socket 0[core 26[hwt 0-1]]:[../../../../../../../../../../../../../../../../../../../../../../../../../../BB/../../../../..][../../../../../../../../../../../../../../../../../../../../../../../../../../../../../../../..]
 	Process OMPI jobid: [53670,1] App: 0 Process rank: 27 Bound: socket 0[core 27[hwt 0-1]]:[../../../../../../../../../../../../../../../../../../../../../../../../../../../BB/../../../..][../../../../../../../../../../../../../../../../../../../../../../../../../../../../../../../..]
 	Process OMPI jobid: [53670,1] App: 0 Process rank: 28 Bound: socket 0[core 28[hwt 0-1]]:[../../../../../../../../../../../../../../../../../../../../../../../../../../../../BB/../../..][../../../../../../../../../../../../../../../../../../../../../../../../../../../../../../../..]
 	Process OMPI jobid: [53670,1] App: 0 Process rank: 29 Bound: socket 0[core 29[hwt 0-1]]:[../../../../../../../../../../../../../../../../../../../../../../../../../../../../../BB/../..][../../../../../../../../../../../../../../../../../../../../../../../../../../../../../../../..]
 	Process OMPI jobid: [53670,1] App: 0 Process rank: 30 Bound: socket 0[core 30[hwt 0-1]]:[../../../../../../../../../../../../../../../../../../../../../../../../../../../../../../BB/..][../../../../../../../../../../../../../../../../../../../../../../../../../../../../../../../..]
 	Process OMPI jobid: [53670,1] App: 0 Process rank: 31 Bound: socket 0[core 31[hwt 0-1]]:[../../../../../../../../../../../../../../../../../../../../../../../../../../../../../../../BB][../../../../../../../../../../../../../../../../../../../../../../../../../../../../../../../..]
 	Process OMPI jobid: [53670,1] App: 0 Process rank: 32 Bound: socket 1[core 32[hwt 0-1]]:[../../../../../../../../../../../../../../../../../../../../../../../../../../../../../../../..][BB/../../../../../../../../../../../../../../../../../../../../../../../../../../../../../../..]
 	Process OMPI jobid: [53670,1] App: 0 Process rank: 33 Bound: socket 1[core 33[hwt 0-1]]:[../../../../../../../../../../../../../../../../../../../../../../../../../../../../../../../..][../BB/../../../../../../../../../../../../../../../../../../../../../../../../../../../../../..]
 	Process OMPI jobid: [53670,1] App: 0 Process rank: 34 Bound: socket 1[core 34[hwt 0-1]]:[../../../../../../../../../../../../../../../../../../../../../../../../../../../../../../../..][../../BB/../../../../../../../../../../../../../../../../../../../../../../../../../../../../..]
 	Process OMPI jobid: [53670,1] App: 0 Process rank: 35 Bound: socket 1[core 35[hwt 0-1]]:[../../../../../../../../../../../../../../../../../../../../../../../../../../../../../../../..][../../../BB/../../../../../../../../../../../../../../../../../../../../../../../../../../../..]
 	Process OMPI jobid: [53670,1] App: 0 Process rank: 36 Bound: socket 1[core 36[hwt 0-1]]:[../../../../../../../../../../../../../../../../../../../../../../../../../../../../../../../..][../../../../BB/../../../../../../../../../../../../../../../../../../../../../../../../../../..]
 	Process OMPI jobid: [53670,1] App: 0 Process rank: 37 Bound: socket 1[core 37[hwt 0-1]]:[../../../../../../../../../../../../../../../../../../../../../../../../../../../../../../../..][../../../../../BB/../../../../../../../../../../../../../../../../../../../../../../../../../..]
 	Process OMPI jobid: [53670,1] App: 0 Process rank: 38 Bound: socket 1[core 38[hwt 0-1]]:[../../../../../../../../../../../../../../../../../../../../../../../../../../../../../../../..][../../../../../../BB/../../../../../../../../../../../../../../../../../../../../../../../../..]
 	Process OMPI jobid: [53670,1] App: 0 Process rank: 39 Bound: socket 1[core 39[hwt 0-1]]:[../../../../../../../../../../../../../../../../../../../../../../../../../../../../../../../..][../../../../../../../BB/../../../../../../../../../../../../../../../../../../../../../../../..]
 	Process OMPI jobid: [53670,1] App: 0 Process rank: 40 Bound: socket 1[core 40[hwt 0-1]]:[../../../../../../../../../../../../../../../../../../../../../../../../../../../../../../../..][../../../../../../../../BB/../../../../../../../../../../../../../../../../../../../../../../..]
 	Process OMPI jobid: [53670,1] App: 0 Process rank: 41 Bound: socket 1[core 41[hwt 0-1]]:[../../../../../../../../../../../../../../../../../../../../../../../../../../../../../../../..][../../../../../../../../../BB/../../../../../../../../../../../../../../../../../../../../../..]
 	Process OMPI jobid: [53670,1] App: 0 Process rank: 42 Bound: socket 1[core 42[hwt 0-1]]:[../../../../../../../../../../../../../../../../../../../../../../../../../../../../../../../..][../../../../../../../../../../BB/../../../../../../../../../../../../../../../../../../../../..]
 	Process OMPI jobid: [53670,1] App: 0 Process rank: 43 Bound: socket 1[core 43[hwt 0-1]]:[../../../../../../../../../../../../../../../../../../../../../../../../../../../../../../../..][../../../../../../../../../../../BB/../../../../../../../../../../../../../../../../../../../..]
 	Process OMPI jobid: [53670,1] App: 0 Process rank: 44 Bound: socket 1[core 44[hwt 0-1]]:[../../../../../../../../../../../../../../../../../../../../../../../../../../../../../../../..][../../../../../../../../../../../../BB/../../../../../../../../../../../../../../../../../../..]
 	Process OMPI jobid: [53670,1] App: 0 Process rank: 45 Bound: socket 1[core 45[hwt 0-1]]:[../../../../../../../../../../../../../../../../../../../../../../../../../../../../../../../..][../../../../../../../../../../../../../BB/../../../../../../../../../../../../../../../../../..]
 	Process OMPI jobid: [53670,1] App: 0 Process rank: 46 Bound: socket 1[core 46[hwt 0-1]]:[../../../../../../../../../../../../../../../../../../../../../../../../../../../../../../../..][../../../../../../../../../../../../../../BB/../../../../../../../../../../../../../../../../..]
 	Process OMPI jobid: [53670,1] App: 0 Process rank: 47 Bound: socket 1[core 47[hwt 0-1]]:[../../../../../../../../../../../../../../../../../../../../../../../../../../../../../../../..][../../../../../../../../../../../../../../../BB/../../../../../../../../../../../../../../../..]
 	Process OMPI jobid: [53670,1] App: 0 Process rank: 48 Bound: socket 1[core 48[hwt 0-1]]:[../../../../../../../../../../../../../../../../../../../../../../../../../../../../../../../..][../../../../../../../../../../../../../../../../BB/../../../../../../../../../../../../../../..]
 	Process OMPI jobid: [53670,1] App: 0 Process rank: 49 Bound: socket 1[core 49[hwt 0-1]]:[../../../../../../../../../../../../../../../../../../../../../../../../../../../../../../../..][../../../../../../../../../../../../../../../../../BB/../../../../../../../../../../../../../..]
 	Process OMPI jobid: [53670,1] App: 0 Process rank: 50 Bound: socket 1[core 50[hwt 0-1]]:[../../../../../../../../../../../../../../../../../../../../../../../../../../../../../../../..][../../../../../../../../../../../../../../../../../../BB/../../../../../../../../../../../../..]
 	Process OMPI jobid: [53670,1] App: 0 Process rank: 51 Bound: socket 1[core 51[hwt 0-1]]:[../../../../../../../../../../../../../../../../../../../../../../../../../../../../../../../..][../../../../../../../../../../../../../../../../../../../BB/../../../../../../../../../../../..]
 	Process OMPI jobid: [53670,1] App: 0 Process rank: 52 Bound: socket 1[core 52[hwt 0-1]]:[../../../../../../../../../../../../../../../../../../../../../../../../../../../../../../../..][../../../../../../../../../../../../../../../../../../../../BB/../../../../../../../../../../..]
 	Process OMPI jobid: [53670,1] App: 0 Process rank: 53 Bound: socket 1[core 53[hwt 0-1]]:[../../../../../../../../../../../../../../../../../../../../../../../../../../../../../../../..][../../../../../../../../../../../../../../../../../../../../../BB/../../../../../../../../../..]
 	Process OMPI jobid: [53670,1] App: 0 Process rank: 54 Bound: socket 1[core 54[hwt 0-1]]:[../../../../../../../../../../../../../../../../../../../../../../../../../../../../../../../..][../../../../../../../../../../../../../../../../../../../../../../BB/../../../../../../../../..]
 	Process OMPI jobid: [53670,1] App: 0 Process rank: 55 Bound: socket 1[core 55[hwt 0-1]]:[../../../../../../../../../../../../../../../../../../../../../../../../../../../../../../../..][../../../../../../../../../../../../../../../../../../../../../../../BB/../../../../../../../..]
 	Process OMPI jobid: [53670,1] App: 0 Process rank: 56 Bound: socket 1[core 56[hwt 0-1]]:[../../../../../../../../../../../../../../../../../../../../../../../../../../../../../../../..][../../../../../../../../../../../../../../../../../../../../../../../../BB/../../../../../../..]
 	Process OMPI jobid: [53670,1] App: 0 Process rank: 57 Bound: socket 1[core 57[hwt 0-1]]:[../../../../../../../../../../../../../../../../../../../../../../../../../../../../../../../..][../../../../../../../../../../../../../../../../../../../../../../../../../BB/../../../../../..]
 	Process OMPI jobid: [53670,1] App: 0 Process rank: 58 Bound: socket 1[core 58[hwt 0-1]]:[../../../../../../../../../../../../../../../../../../../../../../../../../../../../../../../..][../../../../../../../../../../../../../../../../../../../../../../../../../../BB/../../../../..]
 	Process OMPI jobid: [53670,1] App: 0 Process rank: 59 Bound: socket 1[core 59[hwt 0-1]]:[../../../../../../../../../../../../../../../../../../../../../../../../../../../../../../../..][../../../../../../../../../../../../../../../../../../../../../../../../../../../BB/../../../..]
 	Process OMPI jobid: [53670,1] App: 0 Process rank: 60 Bound: socket 1[core 60[hwt 0-1]]:[../../../../../../../../../../../../../../../../../../../../../../../../../../../../../../../..][../../../../../../../../../../../../../../../../../../../../../../../../../../../../BB/../../..]
 	Process OMPI jobid: [53670,1] App: 0 Process rank: 61 Bound: socket 1[core 61[hwt 0-1]]:[../../../../../../../../../../../../../../../../../../../../../../../../../../../../../../../..][../../../../../../../../../../../../../../../../../../../../../../../../../../../../../BB/../..]
 	Process OMPI jobid: [53670,1] App: 0 Process rank: 62 Bound: socket 1[core 62[hwt 0-1]]:[../../../../../../../../../../../../../../../../../../../../../../../../../../../../../../../..][../../../../../../../../../../../../../../../../../../../../../../../../../../../../../../BB/..]
 	Process OMPI jobid: [53670,1] App: 0 Process rank: 63 Bound: socket 1[core 63[hwt 0-1]]:[../../../../../../../../../../../../../../../../../../../../../../../../../../../../../../../..][../../../../../../../../../../../../../../../../../../../../../../../../../../../../../../../BB]

 =============================================================
[1579248478.222305] [n004:53454:0]         mxm.c:196  MXM  WARN  The 'ulimit -s' on the system is set to 'unlimited'. This may have negative performance implications. Please set the stack size to the default value (10240) 
[1579248478.225551] [n004:53455:0]         mxm.c:196  MXM  WARN  The 'ulimit -s' on the system is set to 'unlimited'. This may have negative performance implications. Please set the stack size to the default value (10240) 
[1579248478.228348] [n004:53449:0]         mxm.c:196  MXM  WARN  The 'ulimit -s' on the system is set to 'unlimited'. This may have negative performance implications. Please set the stack size to the default value (10240) 
[1579248478.230874] [n004:53450:0]         mxm.c:196  MXM  WARN  The 'ulimit -s' on the system is set to 'unlimited'. This may have negative performance implications. Please set the stack size to the default value (10240) 
[1579248478.240251] [n004:53448:0]         mxm.c:196  MXM  WARN  The 'ulimit -s' on the system is set to 'unlimited'. This may have negative performance implications. Please set the stack size to the default value (10240) 
[1579248478.241722] [n004:53446:0]         mxm.c:196  MXM  WARN  The 'ulimit -s' on the system is set to 'unlimited'. This may have negative performance implications. Please set the stack size to the default value (10240) 
[1579248478.247542] [n004:53465:0]         mxm.c:196  MXM  WARN  The 'ulimit -s' on the system is set to 'unlimited'. This may have negative performance implications. Please set the stack size to the default value (10240) 
[1579248478.247567] [n004:53466:0]         mxm.c:196  MXM  WARN  The 'ulimit -s' on the system is set to 'unlimited'. This may have negative performance implications. Please set the stack size to the default value (10240) 
[1579248478.249268] [n004:53437:0]         mxm.c:196  MXM  WARN  The 'ulimit -s' on the system is set to 'unlimited'. This may have negative performance implications. Please set the stack size to the default value (10240) 
[1579248478.253403] [n004:53453:0]         mxm.c:196  MXM  WARN  The 'ulimit -s' on the system is set to 'unlimited'. This may have negative performance implications. Please set the stack size to the default value (10240) 
[1579248478.258210] [n004:53447:0]         mxm.c:196  MXM  WARN  The 'ulimit -s' on the system is set to 'unlimited'. This may have negative performance implications. Please set the stack size to the default value (10240) 
[1579248478.258512] [n004:53472:0]         mxm.c:196  MXM  WARN  The 'ulimit -s' on the system is set to 'unlimited'. This may have negative performance implications. Please set the stack size to the default value (10240) 
[1579248478.259352] [n004:53478:0]         mxm.c:196  MXM  WARN  The 'ulimit -s' on the system is set to 'unlimited'. This may have negative performance implications. Please set the stack size to the default value (10240) 
[1579248478.259435] [n004:53491:0]         mxm.c:196  MXM  WARN  The 'ulimit -s' on the system is set to 'unlimited'. This may have negative performance implications. Please set the stack size to the default value (10240) 
[1579248478.259886] [n004:53480:0]         mxm.c:196  MXM  WARN  The 'ulimit -s' on the system is set to 'unlimited'. This may have negative performance implications. Please set the stack size to the default value (10240) 
[1579248478.259925] [n004:53492:0]         mxm.c:196  MXM  WARN  The 'ulimit -s' on the system is set to 'unlimited'. This may have negative performance implications. Please set the stack size to the default value (10240) 
[1579248478.259969] [n004:53433:0]         mxm.c:196  MXM  WARN  The 'ulimit -s' on the system is set to 'unlimited'. This may have negative performance implications. Please set the stack size to the default value (10240) 
[1579248478.259927] [n004:53470:0]         mxm.c:196  MXM  WARN  The 'ulimit -s' on the system is set to 'unlimited'. This may have negative performance implications. Please set the stack size to the default value (10240) 
[1579248478.261615] [n004:53451:0]         mxm.c:196  MXM  WARN  The 'ulimit -s' on the system is set to 'unlimited'. This may have negative performance implications. Please set the stack size to the default value (10240) 
[1579248478.262068] [n004:53440:0]         mxm.c:196  MXM  WARN  The 'ulimit -s' on the system is set to 'unlimited'. This may have negative performance implications. Please set the stack size to the default value (10240) 
[1579248478.262555] [n004:53438:0]         mxm.c:196  MXM  WARN  The 'ulimit -s' on the system is set to 'unlimited'. This may have negative performance implications. Please set the stack size to the default value (10240) 
[1579248478.267437] [n004:53462:0]         mxm.c:196  MXM  WARN  The 'ulimit -s' on the system is set to 'unlimited'. This may have negative performance implications. Please set the stack size to the default value (10240) 
[1579248478.268603] [n004:53445:0]         mxm.c:196  MXM  WARN  The 'ulimit -s' on the system is set to 'unlimited'. This may have negative performance implications. Please set the stack size to the default value (10240) 
[1579248478.270954] [n004:53439:0]         mxm.c:196  MXM  WARN  The 'ulimit -s' on the system is set to 'unlimited'. This may have negative performance implications. Please set the stack size to the default value (10240) 
[1579248478.273780] [n004:53432:0]         mxm.c:196  MXM  WARN  The 'ulimit -s' on the system is set to 'unlimited'. This may have negative performance implications. Please set the stack size to the default value (10240) 
[1579248478.275567] [n004:53481:0]         mxm.c:196  MXM  WARN  The 'ulimit -s' on the system is set to 'unlimited'. This may have negative performance implications. Please set the stack size to the default value (10240) 
[1579248478.276116] [n004:53475:0]         mxm.c:196  MXM  WARN  The 'ulimit -s' on the system is set to 'unlimited'. This may have negative performance implications. Please set the stack size to the default value (10240) 
[1579248478.276544] [n004:53459:0]         mxm.c:196  MXM  WARN  The 'ulimit -s' on the system is set to 'unlimited'. This may have negative performance implications. Please set the stack size to the default value (10240) 
[1579248478.276933] [n004:53463:0]         mxm.c:196  MXM  WARN  The 'ulimit -s' on the system is set to 'unlimited'. This may have negative performance implications. Please set the stack size to the default value (10240) 
[1579248478.277524] [n004:53464:0]         mxm.c:196  MXM  WARN  The 'ulimit -s' on the system is set to 'unlimited'. This may have negative performance implications. Please set the stack size to the default value (10240) 
[1579248478.277607] [n004:53485:0]         mxm.c:196  MXM  WARN  The 'ulimit -s' on the system is set to 'unlimited'. This may have negative performance implications. Please set the stack size to the default value (10240) 
[1579248478.278495] [n004:53488:0]         mxm.c:196  MXM  WARN  The 'ulimit -s' on the system is set to 'unlimited'. This may have negative performance implications. Please set the stack size to the default value (10240) 
[1579248478.278993] [n004:53431:0]         mxm.c:196  MXM  WARN  The 'ulimit -s' on the system is set to 'unlimited'. This may have negative performance implications. Please set the stack size to the default value (10240) 
[1579248478.279475] [n004:53441:0]         mxm.c:196  MXM  WARN  The 'ulimit -s' on the system is set to 'unlimited'. This may have negative performance implications. Please set the stack size to the default value (10240) 
[1579248478.280419] [n004:53461:0]         mxm.c:196  MXM  WARN  The 'ulimit -s' on the system is set to 'unlimited'. This may have negative performance implications. Please set the stack size to the default value (10240) 
[1579248478.280898] [n004:53442:0]         mxm.c:196  MXM  WARN  The 'ulimit -s' on the system is set to 'unlimited'. This may have negative performance implications. Please set the stack size to the default value (10240) 
[1579248478.286292] [n004:53493:0]         mxm.c:196  MXM  WARN  The 'ulimit -s' on the system is set to 'unlimited'. This may have negative performance implications. Please set the stack size to the default value (10240) 
[1579248478.286379] [n004:53486:0]         mxm.c:196  MXM  WARN  The 'ulimit -s' on the system is set to 'unlimited'. This may have negative performance implications. Please set the stack size to the default value (10240) 
[1579248478.288149] [n004:53456:0]         mxm.c:196  MXM  WARN  The 'ulimit -s' on the system is set to 'unlimited'. This may have negative performance implications. Please set the stack size to the default value (10240) 
[1579248478.291654] [n004:53473:0]         mxm.c:196  MXM  WARN  The 'ulimit -s' on the system is set to 'unlimited'. This may have negative performance implications. Please set the stack size to the default value (10240) 
[1579248478.293083] [n004:53430:0]         mxm.c:196  MXM  WARN  The 'ulimit -s' on the system is set to 'unlimited'. This may have negative performance implications. Please set the stack size to the default value (10240) 
[1579248478.293602] [n004:53484:0]         mxm.c:196  MXM  WARN  The 'ulimit -s' on the system is set to 'unlimited'. This may have negative performance implications. Please set the stack size to the default value (10240) 
[1579248478.293601] [n004:53482:0]         mxm.c:196  MXM  WARN  The 'ulimit -s' on the system is set to 'unlimited'. This may have negative performance implications. Please set the stack size to the default value (10240) 
[1579248478.294028] [n004:53476:0]         mxm.c:196  MXM  WARN  The 'ulimit -s' on the system is set to 'unlimited'. This may have negative performance implications. Please set the stack size to the default value (10240) 
[1579248478.294041] [n004:53496:0]         mxm.c:196  MXM  WARN  The 'ulimit -s' on the system is set to 'unlimited'. This may have negative performance implications. Please set the stack size to the default value (10240) 
[1579248478.294022] [n004:53495:0]         mxm.c:196  MXM  WARN  The 'ulimit -s' on the system is set to 'unlimited'. This may have negative performance implications. Please set the stack size to the default value (10240) 
[1579248478.294155] [n004:53479:0]         mxm.c:196  MXM  WARN  The 'ulimit -s' on the system is set to 'unlimited'. This may have negative performance implications. Please set the stack size to the default value (10240) 
[1579248478.294736] [n004:53467:0]         mxm.c:196  MXM  WARN  The 'ulimit -s' on the system is set to 'unlimited'. This may have negative performance implications. Please set the stack size to the default value (10240) 
[1579248478.294681] [n004:53483:0]         mxm.c:196  MXM  WARN  The 'ulimit -s' on the system is set to 'unlimited'. This may have negative performance implications. Please set the stack size to the default value (10240) 
[1579248478.295209] [n004:53468:0]         mxm.c:196  MXM  WARN  The 'ulimit -s' on the system is set to 'unlimited'. This may have negative performance implications. Please set the stack size to the default value (10240) 
[1579248478.297007] [n004:53487:0]         mxm.c:196  MXM  WARN  The 'ulimit -s' on the system is set to 'unlimited'. This may have negative performance implications. Please set the stack size to the default value (10240) 
[1579248478.299067] [n004:53444:0]         mxm.c:196  MXM  WARN  The 'ulimit -s' on the system is set to 'unlimited'. This may have negative performance implications. Please set the stack size to the default value (10240) 
[1579248478.299097] [n004:53469:0]         mxm.c:196  MXM  WARN  The 'ulimit -s' on the system is set to 'unlimited'. This may have negative performance implications. Please set the stack size to the default value (10240) 
[1579248478.299539] [n004:53443:0]         mxm.c:196  MXM  WARN  The 'ulimit -s' on the system is set to 'unlimited'. This may have negative performance implications. Please set the stack size to the default value (10240) 
[1579248478.300044] [n004:53460:0]         mxm.c:196  MXM  WARN  The 'ulimit -s' on the system is set to 'unlimited'. This may have negative performance implications. Please set the stack size to the default value (10240) 
[1579248478.300121] [n004:53471:0]         mxm.c:196  MXM  WARN  The 'ulimit -s' on the system is set to 'unlimited'. This may have negative performance implications. Please set the stack size to the default value (10240) 
[1579248478.300015] [n004:53477:0]         mxm.c:196  MXM  WARN  The 'ulimit -s' on the system is set to 'unlimited'. This may have negative performance implications. Please set the stack size to the default value (10240) 
[1579248478.300154] [n004:53490:0]         mxm.c:196  MXM  WARN  The 'ulimit -s' on the system is set to 'unlimited'. This may have negative performance implications. Please set the stack size to the default value (10240) 
[1579248478.300142] [n004:53489:0]         mxm.c:196  MXM  WARN  The 'ulimit -s' on the system is set to 'unlimited'. This may have negative performance implications. Please set the stack size to the default value (10240) 
[1579248478.300139] [n004:53494:0]         mxm.c:196  MXM  WARN  The 'ulimit -s' on the system is set to 'unlimited'. This may have negative performance implications. Please set the stack size to the default value (10240) 
[1579248478.300745] [n004:53452:0]         mxm.c:196  MXM  WARN  The 'ulimit -s' on the system is set to 'unlimited'. This may have negative performance implications. Please set the stack size to the default value (10240) 
[1579248478.301941] [n004:53457:0]         mxm.c:196  MXM  WARN  The 'ulimit -s' on the system is set to 'unlimited'. This may have negative performance implications. Please set the stack size to the default value (10240) 
[1579248478.303448] [n004:53458:0]         mxm.c:196  MXM  WARN  The 'ulimit -s' on the system is set to 'unlimited'. This may have negative performance implications. Please set the stack size to the default value (10240) 
[1579248478.305760] [n004:53474:0]         mxm.c:196  MXM  WARN  The 'ulimit -s' on the system is set to 'unlimited'. This may have negative performance implications. Please set the stack size to the default value (10240) 
0: 0 

Rank 0 ghostCells: 352
Rank 1 ghostCells: 252
Rank 2 ghostCells: 313
Rank 3 ghostCells: 286
Rank 4 ghostCells: 199
Rank 5 ghostCells: 166
Rank 6 ghostCells: 270
Rank 7 ghostCells: 276
Rank 8 ghostCells: 295
Rank 9 ghostCells: 365
Rank 10 ghostCells: 322
Rank 11 ghostCells: 305
Rank 12 ghostCells: 106
Rank 13 ghostCells: 347
Rank 14 ghostCells: 463
Rank 15 ghostCells: 380
Rank 16 ghostCells: 341
Rank 17 ghostCells: 237
Rank 18 ghostCells: 307
Rank 19 ghostCells: 301
Rank 20 ghostCells: 198
Rank 21 ghostCells: 269
Rank 22 ghostCells: 57
Rank 23 ghostCells: 143
Rank 24 ghostCells: 330
Rank 25 ghostCells: 314
Rank 26 ghostCells: 308
Rank 27 ghostCells: 278
Rank 28 ghostCells: 388
Rank 29 ghostCells: 191
Rank 30 ghostCells: 264
Rank 31 ghostCells: 303
Rank 32 ghostCells: 461
Rank 33 ghostCells: 353
Rank 34 ghostCells: 378
Rank 35 ghostCells: 228
Rank 36 ghostCells: 392
Rank 37 ghostCells: 485
Rank 38 ghostCells: 582
Rank 39 ghostCells: 316
Rank 40 ghostCells: 306
Rank 41 ghostCells: 348
Rank 42 ghostCells: 350
Rank 43 ghostCells: 474
Rank 44 ghostCells: 313
Rank 45 ghostCells: 486
Rank 46 ghostCells: 464
Rank 47 ghostCells: 268
Rank 48 ghostCells: 498
Rank 49 ghostCells: 348
Rank 50 ghostCells: 365
Rank 51 ghostCells: 343
Rank 52 ghostCells: 254
Rank 53 ghostCells: 381
Rank 54 ghostCells: 375
Rank 55 ghostCells: 294
Rank 56 ghostCells: 353
Rank 57 ghostCells: 342
Rank 58 ghostCells: 127
Rank 59 ghostCells: 192
Rank 60 ghostCells: 299
Rank 61 ghostCells: 352
Rank 62 ghostCells: 285
Rank 63 ghostCells: 387

Rank 0 numCells: 1103
Rank 1 numCells: 1006
Rank 2 numCells: 1064
Rank 3 numCells: 949
Rank 4 numCells: 940
Rank 5 numCells: 907
Rank 6 numCells: 1020
Rank 7 numCells: 1027
Rank 8 numCells: 1029
Rank 9 numCells: 1098
Rank 10 numCells: 1047
Rank 11 numCells: 1048
Rank 12 numCells: 851
Rank 13 numCells: 1078
Rank 14 numCells: 1206
Rank 15 numCells: 1123
Rank 16 numCells: 1068
Rank 17 numCells: 948
Rank 18 numCells: 1023
Rank 19 numCells: 1052
Rank 20 numCells: 951
Rank 21 numCells: 756
Rank 22 numCells: 625
Rank 23 numCells: 641
Rank 24 numCells: 993
Rank 25 numCells: 1044
Rank 26 numCells: 1019
Rank 27 numCells: 963
Rank 28 numCells: 1113
Rank 29 numCells: 805
Rank 30 numCells: 671
Rank 31 numCells: 971
Rank 32 numCells: 1074
Rank 33 numCells: 1098
Rank 34 numCells: 1118
Rank 35 numCells: 845
Rank 36 numCells: 1132
Rank 37 numCells: 1225
Rank 38 numCells: 1324
Rank 39 numCells: 1050
Rank 40 numCells: 1023
Rank 41 numCells: 1065
Rank 42 numCells: 985
Rank 43 numCells: 1126
Rank 44 numCells: 993
Rank 45 numCells: 1165
Rank 46 numCells: 1222
Rank 47 numCells: 869
Rank 48 numCells: 1193
Rank 49 numCells: 1043
Rank 50 numCells: 1058
Rank 51 numCells: 1039
Rank 52 numCells: 875
Rank 53 numCells: 1129
Rank 54 numCells: 1122
Rank 55 numCells: 956
Rank 56 numCells: 1090
Rank 57 numCells: 938
Rank 58 numCells: 842
Rank 59 numCells: 813
Rank 60 numCells: 1014
Rank 61 numCells: 1099
Rank 62 numCells: 1047
Rank 63 numCells: 1045

Rank 0 interiorCells: 751
Rank 1 interiorCells: 754
Rank 2 interiorCells: 751
Rank 3 interiorCells: 663
Rank 4 interiorCells: 741
Rank 5 interiorCells: 741
Rank 6 interiorCells: 750
Rank 7 interiorCells: 751
Rank 8 interiorCells: 734
Rank 9 interiorCells: 733
Rank 10 interiorCells: 725
Rank 11 interiorCells: 743
Rank 12 interiorCells: 745
Rank 13 interiorCells: 731
Rank 14 interiorCells: 743
Rank 15 interiorCells: 743
Rank 16 interiorCells: 727
Rank 17 interiorCells: 711
Rank 18 interiorCells: 716
Rank 19 interiorCells: 751
Rank 20 interiorCells: 753
Rank 21 interiorCells: 487
Rank 22 interiorCells: 568
Rank 23 interiorCells: 498
Rank 24 interiorCells: 663
Rank 25 interiorCells: 730
Rank 26 interiorCells: 711
Rank 27 interiorCells: 685
Rank 28 interiorCells: 725
Rank 29 interiorCells: 614
Rank 30 interiorCells: 407
Rank 31 interiorCells: 668
Rank 32 interiorCells: 613
Rank 33 interiorCells: 745
Rank 34 interiorCells: 740
Rank 35 interiorCells: 617
Rank 36 interiorCells: 740
Rank 37 interiorCells: 740
Rank 38 interiorCells: 742
Rank 39 interiorCells: 734
Rank 40 interiorCells: 717
Rank 41 interiorCells: 717
Rank 42 interiorCells: 635
Rank 43 interiorCells: 652
Rank 44 interiorCells: 680
Rank 45 interiorCells: 679
Rank 46 interiorCells: 758
Rank 47 interiorCells: 601
Rank 48 interiorCells: 695
Rank 49 interiorCells: 695
Rank 50 interiorCells: 693
Rank 51 interiorCells: 696
Rank 52 interiorCells: 621
Rank 53 interiorCells: 748
Rank 54 interiorCells: 747
Rank 55 interiorCells: 662
Rank 56 interiorCells: 737
Rank 57 interiorCells: 596
Rank 58 interiorCells: 715
Rank 59 interiorCells: 621
Rank 60 interiorCells: 715
Rank 61 interiorCells: 747
Rank 62 interiorCells: 762
Rank 63 interiorCells: 658

MeasComm+1 64: 4.471e-05 2.894e-05 3.719e-05 3.054e-05 1.774e-05 2.827e-05 2.778e-05 2.585e-05 3.998e-05 6.3511e-05 3.72e-05 3.311e-05 3.38e-05 4.718e-05 7.31e-05 7.427e-05 4.55e-05 3.309e-05 5.114e-05 4.052e-05 2.689e-05 3.114e-05 3.969e-05 2.702e-05 5.873e-05 6.081e-05 5.653e-05 5.596e-05 8.181e-05 4.582e-05 4.602e-05 5.238e-05 9.145e-05 6.308e-05 7.687e-05 5.812e-05 6.056e-05 8.582e-05 6.983e-05 6.0461e-05 5.199e-05 4.872e-05 5.714e-05 7.059e-05 5.217e-05 7.814e-05 7.058e-05 4.4761e-05 7.509e-05 5.062e-05 5.74e-05 5.263e-05 3.046e-05 4.714e-05 5.162e-05 4.165e-05 5.233e-05 6.511e-05 2.099e-05 4.346e-05 4.124e-05 5.763e-05 3.425e-05 3.924e-05 
MeasComm+1 64: 4.375e-05 2.873e-05 3.73e-05 2.968e-05 1.745e-05 2.855e-05 2.77e-05 2.501e-05 3.884e-05 6.006e-05 3.655e-05 3.257e-05 3.37e-05 4.712e-05 7.1721e-05 7.393e-05 4.539e-05 3.2471e-05 5.08e-05 3.9121e-05 2.658e-05 3.114e-05 4.039e-05 2.667e-05 5.756e-05 6.724e-05 5.7761e-05 5.578e-05 7.984e-05 4.528e-05 4.59e-05 5.114e-05 9.057e-05 6.106e-05 7.518e-05 5.655e-05 5.976e-05 8.537e-05 6.917e-05 6.008e-05 5.197e-05 4.902e-05 5.44e-05 7.096e-05 5.1221e-05 7.783e-05 6.995e-05 4.343e-05 7.5371e-05 5.033e-05 5.7121e-05 5.279e-05 3.043e-05 4.712e-05 5.106e-05 4.034e-05 5.2621e-05 6.637e-05 2.948e-05 4.353e-05 4.0621e-05 5.864e-05 3.406e-05 3.889e-05 
MeasComm+1 64: 4.415e-05 2.89e-05 3.742e-05 2.943e-05 1.755e-05 2.854e-05 2.759e-05 2.581e-05 3.908e-05 5.855e-05 3.64e-05 3.2581e-05 3.22e-05 4.686e-05 6.931e-05 7.288e-05 4.539e-05 3.162e-05 4.949e-05 3.941e-05 2.652e-05 3.092e-05 3.925e-05 1.905e-05 6.366e-05 6.204e-05 5.786e-05 5.631e-05 8.059e-05 4.497e-05 4.292e-05 4.875e-05 9.0471e-05 5.9651e-05 7.555e-05 5.705e-05 6.04e-05 8.469e-05 6.868e-05 4.956e-05 5.111e-05 4.928e-05 5.566e-05 7.017e-05 5.129e-05 7.7841e-05 6.926e-05 4.249e-05 7.402e-05 5.063e-05 5.21e-05 5.283e-05 3.318e-05 4.662e-05 5.125e-05 3.398e-05 5.264e-05 6.649e-05 2.946e-05 4.2881e-05 4.055e-05 5.775e-05 3.409e-05 3.897e-05 
MeasComm+1 64: 4.424e-05 2.846e-05 3.714e-05 3.073e-05 1.75e-05 2.832e-05 2.745e-05 2.52e-05 3.94e-05 5.7901e-05 3.579e-05 3.278e-05 3.319e-05 4.723e-05 7.172e-05 7.415e-05 4.436e-05 3.289e-05 5.721e-05 3.9881e-05 2.661e-05 3.085e-05 3.892e-05 2.725e-05 6.392e-05 6.422e-05 5.834e-05 5.47e-05 7.5821e-05 4.515e-05 4.481e-05 4.879e-05 9.044e-05 6.286e-05 7.698e-05 5.668e-05 5.944e-05 8.5271e-05 6.8201e-05 5.728e-05 5.037e-05 4.888e-05 5.946e-05 7.018e-05 4.9991e-05 7.7431e-05 6.986e-05 4.378e-05 7.451e-05 5.083e-05 5.9281e-05 5.23e-05 3.2861e-05 4.663e-05 5.135e-05 4.135e-05 5.236e-05 6.543e-05 2.903e-05 4.185e-05 3.0431e-05 5.927e-05 3.391e-05 3.908e-05 
MeasComm+1 64: 4.334e-05 2.892e-05 3.712e-05 3.028e-05 1.759e-05 2.858e-05 2.74e-05 2.537e-05 4.004e-05 5.956e-05 3.637e-05 3.163e-05 3.317e-05 4.667e-05 7.105e-05 7.283e-05 4.492e-05 3.123e-05 5.77e-05 3.993e-05 2.604e-05 3.106e-05 3.754e-05 2.5841e-05 6.497e-05 6.4151e-05 5.666e-05 5.472e-05 8.021e-05 4.503e-05 4.457e-05 4.96e-05 8.959e-05 6.227e-05 7.638e-05 5.613e-05 5.931e-05 8.535e-05 6.859e-05 5.993e-05 5.125e-05 4.844e-05 5.59e-05 7.011e-05 5.184e-05 7.693e-05 6.9681e-05 4.248e-05 7.527e-05 4.9981e-05 5.829e-05 5.254e-05 3.329e-05 4.673e-05 5.063e-05 4.0171e-05 5.277e-05 6.644e-05 2.959e-05 4.163e-05 4.092e-05 5.894e-05 3.375e-05 3.887e-05 
MeasComm+1 64: 4.391e-05 2.8991e-05 3.721e-05 3.004e-05 1.757e-05 2.79e-05 2.763e-05 2.523e-05 3.935e-05 5.9501e-05 3.62e-05 3.292e-05 3.321e-05 4.691e-05 7.0041e-05 6.885e-05 4.384e-05 3.156e-05 5.724e-05 3.981e-05 2.595e-05 3.109e-05 3.976e-05 2.652e-05 6.4331e-05 6.289e-05 5.849e-05 5.563e-05 7.835e-05 4.479e-05 4.474e-05 4.918e-05 9.02e-05 5.848e-05 7.669e-05 5.629e-05 6.047e-05 8.3191e-05 6.8041e-05 5.844e-05 5.088e-05 4.876e-05 5.767e-05 7.012e-05 5.127e-05 7.703e-05 6.939e-05 4.364e-05 7.513e-05 5.031e-05 5.668e-05 5.244e-05 3.008e-05 4.677e-05 5.117e-05 4.189e-05 5.23e-05 6.617e-05 2.971e-05 4.291e-05 4.041e-05 6.034e-05 3.413e-05 3.871e-05 
MeasComm+1 64: 4.364e-05 2.884e-05 3.724e-05 3e-05 1.735e-05 2.814e-05 2.736e-05 2.52e-05 3.921e-05 5.958e-05 3.627e-05 3.151e-05 3.32e-05 4.636e-05 7.287e-05 7.304e-05 4.411e-05 3.136e-05 5.61e-05 3.858e-05 2.202e-05 3.1e-05 3.983e-05 2.67e-05 6.219e-05 6.373e-05 5.685e-05 5.485e-05 8.006e-05 4.425e-05 4.532e-05 4.846e-05 8.98e-05 6.154e-05 7.677e-05 5.604e-05 5.969e-05 8.511e-05 6.869e-05 5.667e-05 5.141e-05 4.853e-05 5.891e-05 7.011e-05 5.072e-05 7.7411e-05 6.968e-05 4.336e-05 7.367e-05 5.063e-05 5.722e-05 5.268e-05 3.3e-05 4.673e-05 5.066e-05 4.11e-05 5.285e-05 6.523e-05 2.962e-05 4.258e-05 3.983e-05 5.874e-05 3.355e-05 3.916e-05 
MeasComm+1 64: 4.384e-05 2.934e-05 3.695e-05 2.88e-05 1.739e-05 2.82e-05 2.743e-05 2.524e-05 3.896e-05 5.941e-05 3.552e-05 3.163e-05 3.305e-05 4.718e-05 7.338e-05 7.33e-05 4.489e-05 3.177e-05 5.645e-05 3.998e-05 2.477e-05 3.141e-05 3.929e-05 2.685e-05 6.566e-05 6.356e-05 5.826e-05 5.501e-05 8.101e-05 4.492e-05 4.477e-05 4.895e-05 9.008e-05 5.9451e-05 7.6211e-05 5.697e-05 5.682e-05 8.459e-05 6.891e-05 5.894e-05 5.011e-05 4.843e-05 5.792e-05 6.936e-05 5.174e-05 7.7101e-05 6.959e-05 4.246e-05 7.502e-05 5.0821e-05 5.7431e-05 5.254e-05 3.143e-05 4.695e-05 5.0501e-05 4.16e-05 5.272e-05 6.628e-05 2.953e-05 4.146e-05 4.081e-05 5.975e-05 3.414e-05 3.894e-05 
MeasComm+1 64: 4.396e-05 2.9041e-05 3.688e-05 3.043e-05 1.739e-05 2.767e-05 2.756e-05 2.489e-05 3.911e-05 5.797e-05 3.624e-05 3.192e-05 3.3e-05 4.685e-05 7.296e-05 7.031e-05 4.365e-05 3.177e-05 5.873e-05 3.954e-05 2.614e-05 3.078e-05 3.9e-05 2.653e-05 6.491e-05 6.28e-05 5.701e-05 5.545e-05 7.917e-05 4.37e-05 4.524e-05 5.007e-05 9.018e-05 6.0051e-05 7.661e-05 5.6071e-05 6.08e-05 8.515e-05 6.8281e-05 5.925e-05 5.087e-05 4.914e-05 5.565e-05 7.044e-05 5.141e-05 7.7511e-05 6.976e-05 4.333e-05 7.55e-05 5.0271e-05 5.83e-05 5.245e-05 3.354e-05 4.677e-05 5.131e-05 4.168e-05 5.22e-05 6.649e-05 2.901e-05 4.324e-05 4.0701e-05 5.731e-05 3.437e-05 3.924e-05 
MeasComm+1 64: 4.391e-05 2.9e-05 3.711e-05 2.909e-05 1.752e-05 2.852e-05 2.758e-05 2.538e-05 3.886e-05 6.019e-05 3.598e-05 3.111e-05 3.381e-05 4.691e-05 7.334e-05 7.382e-05 4.51e-05 3.043e-05 5.529e-05 3.918e-05 2.634e-05 3.048e-05 3.958e-05 2.681e-05 6.484e-05 6.351e-05 5.75e-05 5.4091e-05 8.165e-05 4.463e-05 4.437e-05 4.947e-05 9.04e-05 6.043e-05 7.6771e-05 5.731e-05 5.781e-05 8.508e-05 6.946e-05 5.917e-05 5.031e-05 4.97e-05 5.871e-05 7.006e-05 5.178e-05 7.752e-05 6.99e-05 4.305e-05 7.48e-05 5.045e-05 5.741e-05 5.27e-05 3.264e-05 4.704e-05 5.137e-05 4.162e-05 5.225e-05 6.473e-05 2.902e-05 4.157e-05 4.086e-05 5.849e-05 3.41e-05 3.94e-05 

MeasCopy 64: 1.652e-05 1.181e-05 1.469e-05 1.34e-05 9.33e-06 7.79e-06 1.264e-05 1.295e-05 1.383e-05 1.71e-05 1.511e-05 1.431e-05 5e-06 1.627e-05 2.168e-05 1.783e-05 1.597e-05 1.114e-05 1.439e-05 1.41e-05 9.3e-06 1.26e-05 2.7e-06 6.73e-06 1.545e-05 1.472e-05 1.445e-05 1.305e-05 1.818e-05 8.97e-06 1.236e-05 1.422e-05 2.162e-05 1.655e-05 1.772e-05 1.07e-05 1.835e-05 2.272e-05 2.734e-05 1.483e-05 1.433e-05 1.63e-05 1.64e-05 2.224e-05 1.467e-05 2.277e-05 2.177e-05 1.257e-05 2.334e-05 1.631e-05 1.712e-05 1.612e-05 1.196e-05 1.785e-05 1.759e-05 1.381e-05 1.654e-05 1.603e-05 5.98e-06 9.03e-06 1.4e-05 1.653e-05 1.338e-05 1.811e-05 
MeasCopy 64: 1.647e-05 1.182e-05 1.469e-05 1.343e-05 9.34e-06 7.8e-06 1.265e-05 1.294e-05 1.384e-05 1.711e-05 1.51e-05 1.429e-05 4.96e-06 1.626e-05 2.172e-05 1.784e-05 1.598e-05 1.113e-05 1.44e-05 1.41e-05 9.3e-06 1.263e-05 2.71e-06 6.73e-06 1.547e-05 1.472e-05 1.442e-05 1.304e-05 1.818e-05 8.94e-06 1.239e-05 1.421e-05 2.161e-05 1.656e-05 1.773e-05 1.072e-05 1.836e-05 2.274e-05 2.734e-05 1.483e-05 1.434e-05 1.628e-05 1.64e-05 2.221e-05 1.47e-05 2.278e-05 2.176e-05 1.256e-05 2.3341e-05 1.634e-05 1.711e-05 1.613e-05 1.195e-05 1.786e-05 1.758e-05 1.378e-05 1.656e-05 1.606e-05 5.97e-06 9.01e-06 1.403e-05 1.653e-05 1.338e-05 1.8141e-05 
MeasCopy 64: 1.651e-05 1.182e-05 1.467e-05 1.343e-05 9.35e-06 7.81e-06 1.268e-05 1.295e-05 1.386e-05 1.71e-05 1.511e-05 1.428e-05 5.01e-06 1.625e-05 2.171e-05 1.783e-05 1.6e-05 1.11e-05 1.439e-05 1.409e-05 9.3e-06 1.261e-05 2.69e-06 6.72e-06 1.551e-05 1.473e-05 1.443e-05 1.305e-05 1.82e-05 8.98e-06 1.24e-05 1.422e-05 2.161e-05 1.653e-05 1.774e-05 1.07e-05 1.838e-05 2.275e-05 2.734e-05 1.483e-05 1.436e-05 1.633e-05 1.641e-05 2.222e-05 1.471e-05 2.28e-05 2.172e-05 1.256e-05 2.336e-05 1.633e-05 1.713e-05 1.614e-05 1.196e-05 1.785e-05 1.759e-05 1.378e-05 1.656e-05 1.603e-05 5.97e-06 9.03e-06 1.405e-05 1.65e-05 1.338e-05 1.817e-05 
MeasCopy 64: 1.649e-05 1.182e-05 1.466e-05 1.3401e-05 9.31e-06 7.79e-06 1.267e-05 1.296e-05 1.3831e-05 1.711e-05 1.509e-05 1.431e-05 4.99e-06 1.6261e-05 2.17e-05 1.784e-05 1.601e-05 1.111e-05 1.439e-05 1.41e-05 9.3e-06 1.261e-05 2.71e-06 6.7e-06 1.549e-05 1.472e-05 1.442e-05 1.305e-05 1.817e-05 8.97e-06 1.239e-05 1.422e-05 2.159e-05 1.656e-05 1.774e-05 1.067e-05 1.841e-05 2.274e-05 2.739e-05 1.483e-05 1.434e-05 1.629e-05 1.642e-05 2.219e-05 1.468e-05 2.279e-05 2.175e-05 1.257e-05 2.3341e-05 1.634e-05 1.712e-05 1.61e-05 1.194e-05 1.786e-05 1.758e-05 1.379e-05 1.655e-05 1.606e-05 5.98e-06 9.03e-06 1.404e-05 1.65e-05 1.337e-05 1.814e-05 
MeasCopy 64: 1.65e-05 1.18e-05 1.466e-05 1.34e-05 9.35e-06 7.8e-06 1.266e-05 1.295e-05 1.384e-05 1.71e-05 1.51e-05 1.432e-05 5e-06 1.624e-05 2.169e-05 1.783e-05 1.599e-05 1.115e-05 1.44e-05 1.414e-05 9.3e-06 1.261e-05 2.7e-06 6.72e-06 1.547e-05 1.473e-05 1.446e-05 1.302e-05 1.819e-05 8.97e-06 1.236e-05 1.42e-05 2.161e-05 1.654e-05 1.7761e-05 1.069e-05 1.841e-05 2.2731e-05 2.734e-05 1.484e-05 1.436e-05 1.63e-05 1.641e-05 2.2211e-05 1.47e-05 2.279e-05 2.173e-05 1.257e-05 2.336e-05 1.634e-05 1.711e-05 1.614e-05 1.193e-05 1.786e-05 1.76e-05 1.38e-05 1.655e-05 1.605e-05 5.95e-06 9e-06 1.403e-05 1.65e-05 1.336e-05 1.815e-05 
MeasCopy 64: 1.651e-05 1.184e-05 1.468e-05 1.343e-05 9.34e-06 7.81e-06 1.265e-05 1.297e-05 1.385e-05 1.712e-05 1.509e-05 1.429e-05 4.99e-06 1.627e-05 2.171e-05 1.781e-05 1.597e-05 1.113e-05 1.44e-05 1.413e-05 9.25e-06 1.262e-05 2.69e-06 6.73e-06 1.549e-05 1.474e-05 1.441e-05 1.305e-05 1.8201e-05 8.97e-06 1.238e-05 1.421e-05 2.161e-05 1.653e-05 1.773e-05 1.072e-05 1.839e-05 2.274e-05 2.737e-05 1.484e-05 1.438e-05 1.633e-05 1.643e-05 2.223e-05 1.468e-05 2.278e-05 2.179e-05 1.256e-05 2.335e-05 1.629e-05 1.713e-05 1.615e-05 1.194e-05 1.786e-05 1.758e-05 1.379e-05 1.657e-05 1.604e-05 5.98e-06 8.99e-06 1.404e-05 1.649e-05 1.337e-05 1.814e-05 
MeasCopy 64: 1.65e-05 1.182e-05 1.468e-05 1.341e-05 9.31e-06 7.76e-06 1.266e-05 1.295e-05 1.383e-05 1.709e-05 1.511e-05 1.432e-05 5e-06 1.63e-05 2.169e-05 1.781e-05 1.601e-05 1.112e-05 1.439e-05 1.408e-05 9.29e-06 1.262e-05 2.7e-06 6.73e-06 1.549e-05 1.473e-05 1.445e-05 1.303e-05 1.817e-05 8.96e-06 1.239e-05 1.422e-05 2.159e-05 1.654e-05 1.775e-05 1.0691e-05 1.84e-05 2.276e-05 2.735e-05 1.485e-05 1.436e-05 1.631e-05 1.6421e-05 2.22e-05 1.466e-05 2.278e-05 2.176e-05 1.255e-05 2.336e-05 1.634e-05 1.712e-05 1.614e-05 1.196e-05 1.788e-05 1.761e-05 1.379e-05 1.655e-05 1.604e-05 5.99e-06 9.03e-06 1.401e-05 1.651e-05 1.339e-05 1.813e-05 
MeasCopy 64: 1.652e-05 1.18e-05 1.467e-05 1.343e-05 9.35e-06 7.79e-06 1.264e-05 1.296e-05 1.381e-05 1.709e-05 1.511e-05 1.427e-05 5e-06 1.626e-05 2.17e-05 1.781e-05 1.598e-05 1.112e-05 1.438e-05 1.41e-05 9.3e-06 1.26e-05 2.71e-06 6.72e-06 1.552e-05 1.473e-05 1.442e-05 1.303e-05 1.819e-05 8.97e-06 1.238e-05 1.422e-05 2.159e-05 1.657e-05 1.774e-05 1.072e-05 1.84e-05 2.274e-05 2.735e-05 1.483e-05 1.437e-05 1.632e-05 1.64e-05 2.221e-05 1.466e-05 2.273e-05 2.175e-05 1.257e-05 2.336e-05 1.635e-05 1.711e-05 1.617e-05 1.196e-05 1.786e-05 1.76e-05 1.378e-05 1.655e-05 1.601e-05 5.98e-06 9.02e-06 1.401e-05 1.651e-05 1.337e-05 1.815e-05 
MeasCopy 64: 1.6521e-05 1.182e-05 1.469e-05 1.342e-05 9.34e-06 7.79e-06 1.268e-05 1.294e-05 1.383e-05 1.712e-05 1.51e-05 1.429e-05 5.01e-06 1.626e-05 2.171e-05 1.783e-05 1.6e-05 1.112e-05 1.4411e-05 1.412e-05 9.32e-06 1.259e-05 2.7e-06 6.72e-06 1.55e-05 1.474e-05 1.444e-05 1.3051e-05 1.816e-05 8.97e-06 1.239e-05 1.422e-05 2.159e-05 1.656e-05 1.773e-05 1.068e-05 1.84e-05 2.275e-05 2.738e-05 1.483e-05 1.4351e-05 1.634e-05 1.641e-05 2.222e-05 1.469e-05 2.277e-05 2.176e-05 1.257e-05 2.337e-05 1.631e-05 1.711e-05 1.613e-05 1.197e-05 1.789e-05 1.753e-05 1.379e-05 1.656e-05 1.604e-05 5.98e-06 9.02e-06 1.403e-05 1.65e-05 1.338e-05 1.812e-05 
MeasCopy 64: 1.653e-05 1.181e-05 1.465e-05 1.34e-05 9.32e-06 7.8e-06 1.267e-05 1.295e-05 1.383e-05 1.712e-05 1.509e-05 1.4301e-05 4.98e-06 1.626e-05 2.168e-05 1.78e-05 1.599e-05 1.112e-05 1.438e-05 1.4101e-05 9.31e-06 1.262e-05 2.7e-06 6.71e-06 1.549e-05 1.47e-05 1.443e-05 1.306e-05 1.818e-05 8.96e-06 1.239e-05 1.421e-05 2.157e-05 1.653e-05 1.774e-05 1.069e-05 1.838e-05 2.274e-05 2.734e-05 1.483e-05 1.436e-05 1.63e-05 1.642e-05 2.224e-05 1.469e-05 2.277e-05 2.178e-05 1.256e-05 2.333e-05 1.633e-05 1.709e-05 1.616e-05 1.196e-05 1.789e-05 1.758e-05 1.377e-05 1.655e-05 1.603e-05 5.95e-06 9e-06 1.404e-05 1.65e-05 1.335e-05 1.814e-05 

ComTab rank 0: 0 132 67 74 0 0 0 0 0 0 2 0 19 86 37 14 0 0 0 0 0 0 0 0 0 0 0 0 0 0 0 0 0 0 0 0 0 0 0 0 0 0 0 0 0 0 0 0 0 0 0 0 0 0 0 0 0 0 0 0 0 0 0 0 
ComTab rank 1: 132 0 27 71 0 0 0 0 0 0 0 0 2 73 0 0 0 0 0 0 0 0 0 0 0 0 0 0 0 0 0 0 0 0 0 0 0 0 0 0 0 0 0 0 0 0 0 0 0 0 0 0 0 0 0 0 0 0 0 0 0 0 0 0 
ComTab rank 2: 67 27 0 138 0 29 74 36 0 0 0 0 4 0 0 0 0 0 0 0 0 0 0 0 0 0 0 0 0 0 0 0 0 0 0 0 0 0 0 0 0 0 0 0 0 0 0 0 0 0 0 0 0 0 0 0 0 0 0 0 0 0 0 0 
ComTab rank 3: 74 73 143 0 0 0 55 0 0 0 0 0 0 0 0 0 0 0 0 0 0 0 0 0 0 0 0 0 0 0 0 0 0 0 0 0 0 0 0 0 0 0 0 0 0 0 0 0 0 0 0 0 0 0 0 0 0 0 0 0 0 0 0 0 
ComTab rank 4: 0 0 0 0 0 64 35 129 0 0 0 0 0 0 0 0 0 0 0 0 0 0 0 0 0 0 0 0 0 0 0 0 0 0 0 0 0 0 0 0 0 0 0 0 0 0 0 0 0 0 0 0 0 0 0 0 0 0 0 0 0 0 0 0 
ComTab rank 5: 0 0 28 0 61 0 50 35 0 0 0 0 30 12 0 0 0 0 0 0 0 0 0 0 0 0 0 0 0 0 0 0 0 0 0 0 0 0 0 0 0 0 0 0 0 0 0 0 0 0 0 0 0 0 0 0 0 0 0 0 0 0 0 0 
ComTab rank 6: 0 0 78 57 38 42 0 121 0 0 0 0 1 0 0 0 0 0 0 0 0 0 0 0 0 0 0 0 0 0 0 0 0 0 0 0 0 0 0 0 0 0 0 0 0 0 0 0 0 0 0 0 0 0 0 0 0 0 0 0 0 0 0 0 
ComTab rank 7: 0 0 36 0 126 35 119 0 0 0 0 0 0 0 0 0 0 0 0 0 0 0 0 0 0 0 0 0 0 0 0 0 0 0 0 0 0 0 0 0 0 0 0 0 0 0 0 0 0 0 0 0 0 0 0 0 0 0 0 0 0 0 0 0 
ComTab rank 8: 0 0 0 0 0 0 0 0 0 102 60 15 0 58 68 36 0 0 0 0 0 0 0 0 0 0 0 0 0 0 0 0 0 55 0 0 0 0 0 0 0 0 0 0 0 0 0 0 0 0 0 0 0 0 0 0 0 0 0 0 0 0 0 0 
ComTab rank 9: 0 0 0 0 0 0 0 0 100 0 41 106 0 0 51 40 0 0 0 0 0 0 0 0 0 0 0 17 0 0 0 0 70 51 1 0 0 0 0 0 0 0 0 0 0 0 0 0 0 0 0 0 0 0 0 0 0 0 0 0 0 0 0 0 
ComTab rank 10: 2 0 0 0 0 0 0 0 62 41 0 184 0 7 53 57 0 0 0 0 0 0 0 0 0 0 0 0 0 0 0 0 0 0 0 0 0 0 0 0 0 0 0 0 0 0 0 0 0 0 0 0 0 0 0 0 0 0 0 0 0 0 0 0 
ComTab rank 11: 0 0 0 0 0 0 0 0 17 104 184 0 0 0 0 5 0 0 0 0 0 0 0 0 3 0 0 24 0 0 0 0 0 0 0 0 0 0 0 0 0 0 0 0 0 0 0 0 0 0 0 0 0 0 0 0 0 0 0 0 0 0 0 0 
ComTab rank 12: 16 2 4 0 0 30 1 0 0 0 0 0 0 38 11 24 0 0 0 0 0 0 0 0 0 0 0 0 0 0 0 0 0 0 0 0 0 0 0 0 0 0 0 0 0 0 0 0 0 0 0 0 0 0 0 0 0 0 0 0 0 0 0 0 
ComTab rank 13: 86 65 0 0 0 12 0 0 53 0 7 0 41 0 95 84 0 0 0 0 0 0 0 0 0 0 0 0 0 0 0 0 0 0 0 0 0 0 0 0 0 0 0 0 0 0 0 0 0 0 0 0 0 0 0 0 0 0 0 0 0 0 0 0 
ComTab rank 14: 46 0 0 0 0 0 0 0 72 48 60 0 15 85 0 172 0 0 0 0 0 0 0 0 0 0 0 0 0 0 0 0 26 54 32 0 0 0 0 0 0 0 0 0 0 0 0 0 0 0 0 0 0 0 0 0 0 0 0 0 0 0 0 0 
ComTab rank 15: 14 0 0 0 0 0 0 0 35 41 54 5 22 84 167 0 0 0 0 0 0 0 0 0 0 0 0 45 0 0 0 0 15 0 31 0 0 0 0 0 0 0 0 0 0 0 0 0 0 0 0 0 0 0 0 0 0 0 0 0 0 0 0 0 
ComTab rank 16: 0 0 0 0 0 0 0 0 0 0 0 0 0 0 0 0 0 89 78 43 8 65 9 30 6 10 0 0 12 2 82 0 0 0 0 0 0 0 0 0 0 0 0 0 0 0 0 0 0 0 0 0 0 0 0 0 0 0 0 0 0 0 0 0 
ComTab rank 17: 0 0 0 0 0 0 0 0 0 0 0 0 0 0 0 0 86 0 0 60 0 65 0 0 54 10 0 0 0 0 8 0 0 0 0 0 0 0 0 0 0 0 0 0 0 0 0 0 0 0 0 0 0 0 0 0 0 0 0 0 0 0 0 0 
ComTab rank 18: 0 0 0 0 0 0 0 0 0 0 0 0 0 0 0 0 75 0 0 146 20 11 12 33 14 0 0 0 43 15 13 0 0 0 0 0 0 0 0 0 0 0 0 0 0 0 0 0 0 0 0 0 0 0 0 0 0 0 0 0 0 0 0 0 
ComTab rank 19: 0 0 0 0 0 0 0 0 0 0 0 0 0 0 0 0 46 63 115 0 18 39 0 0 83 0 0 0 4 0 9 0 0 0 0 0 0 0 0 0 0 0 0 0 0 0 0 0 0 0 0 0 0 0 0 0 0 0 0 0 0 0 0 0 
ComTab rank 20: 0 0 0 0 0 0 0 0 0 0 0 0 0 0 0 0 8 0 20 19 0 96 0 87 0 0 0 0 0 0 0 0 0 0 0 0 0 0 0 0 0 0 0 0 0 0 0 0 0 0 0 0 0 0 0 0 0 0 0 0 0 0 0 0 
ComTab rank 21: 0 0 0 0 0 0 0 0 0 0 0 0 0 0 0 0 67 63 11 42 102 0 9 30 0 0 0 0 0 0 0 0 0 0 0 0 0 0 0 0 0 0 0 0 0 0 0 0 0 0 0 0 0 0 0 0 0 0 0 0 0 0 0 0 
ComTab rank 22: 0 0 0 0 0 0 0 0 0 0 0 0 0 0 0 0 9 0 14 0 0 2 0 0 0 0 0 0 7 34 0 0 0 0 0 0 0 0 0 0 0 0 0 0 0 0 0 0 0 0 0 0 0 0 0 0 0 0 0 0 0 0 0 0 
ComTab rank 23: 0 0 0 0 0 0 0 0 0 0 0 0 0 0 0 0 33 0 33 0 87 21 0 0 0 0 0 0 0 0 0 0 0 0 0 0 0 0 0 0 0 0 0 0 0 0 0 0 0 0 0 0 0 0 0 0 0 0 0 0 0 0 0 0 
ComTab rank 24: 0 0 0 0 0 0 0 0 0 0 0 3 0 0 0 0 6 54 17 81 0 0 0 0 0 80 61 28 47 0 38 0 0 0 0 0 0 0 0 0 0 0 0 0 0 0 0 0 0 0 0 0 0 0 0 0 0 0 0 0 0 0 0 0 
ComTab rank 25: 0 0 0 0 0 0 0 0 0 0 0 0 0 0 0 0 10 10 0 0 0 0 0 0 78 0 79 35 27 0 39 91 0 0 0 0 51 21 0 0 0 0 0 0 0 0 0 0 0 0 0 0 0 0 0 0 0 0 0 0 0 0 0 0 
ComTab rank 26: 0 0 0 0 0 0 0 0 0 0 0 0 0 0 0 0 0 0 0 0 0 0 0 0 61 79 0 92 42 0 0 27 12 0 2 23 2 58 0 0 0 0 0 0 0 0 0 0 0 0 0 0 0 0 0 0 0 0 0 0 0 0 0 0 
ComTab rank 27: 0 0 0 0 0 0 0 0 0 12 0 13 0 0 0 45 0 0 0 0 0 0 0 0 30 37 95 0 1 0 0 0 39 0 0 0 10 66 0 0 0 0 0 0 0 0 0 0 0 0 0 0 0 0 0 0 0 0 0 0 0 0 0 0 
ComTab rank 28: 0 0 0 0 0 0 0 0 0 0 0 0 0 0 0 0 12 0 43 4 0 0 7 0 53 31 42 1 0 110 52 103 7 0 0 18 9 30 0 32 0 0 0 0 0 0 0 0 0 0 0 0 0 0 0 0 0 0 0 0 0 0 0 0 
ComTab rank 29: 0 0 0 0 0 0 0 0 0 0 0 0 0 0 0 0 2 0 15 0 0 0 34 0 0 0 0 0 109 0 19 32 0 0 0 0 0 6 0 23 0 0 0 0 0 0 0 0 0 0 0 0 0 0 0 0 0 0 0 0 0 0 0 0 
ComTab rank 30: 0 0 0 0 0 0 0 0 0 0 0 0 0 0 0 0 79 8 13 9 0 0 0 0 54 38 0 0 51 33 0 64 0 0 0 0 0 0 0 0 0 0 0 0 0 0 0 0 0 0 0 0 0 0 0 0 0 0 0 0 0 0 0 0 
ComTab rank 31: 0 0 0 0 0 0 0 0 0 0 0 0 0 0 0 0 0 0 0 0 0 0 0 0 0 91 25 0 107 31 64 0 0 0 0 0 46 34 0 1 0 0 0 0 0 0 0 0 0 0 0 0 0 0 0 0 0 0 0 0 0 0 0 0 
ComTab rank 32: 0 0 0 0 0 0 0 0 0 70 0 0 0 0 24 15 0 0 0 0 0 0 0 0 0 0 12 39 7 0 0 0 0 86 117 29 20 88 30 0 35 0 0 0 23 0 48 2 0 0 0 0 0 0 0 0 0 0 0 0 0 0 0 0 
ComTab rank 33: 0 0 0 0 0 0 0 0 52 51 0 0 0 0 54 0 0 0 0 0 0 0 0 0 0 0 0 0 0 0 0 0 80 0 25 8 0 0 0 0 4 0 0 0 64 0 71 39 0 0 0 0 0 0 0 0 0 0 0 0 0 0 0 0 
ComTab rank 34: 0 0 0 0 0 0 0 0 0 1 0 0 0 0 27 30 0 0 0 0 0 0 0 0 0 0 2 0 0 0 0 0 112 18 0 63 0 33 98 25 0 0 0 12 32 38 33 0 0 0 0 0 0 0 0 0 0 0 0 0 0 0 0 0 
ComTab rank 35: 0 0 0 0 0 0 0 0 0 0 0 0 0 0 0 0 0 0 0 0 0 0 0 0 0 0 24 0 18 0 0 0 24 6 68 0 0 32 2 31 0 0 0 0 6 35 0 0 0 0 0 0 0 0 0 0 3 0 24 21 0 0 0 0 
ComTab rank 36: 0 0 0 0 0 0 0 0 0 0 0 0 0 0 0 0 0 0 0 0 0 0 0 0 0 51 2 10 9 0 0 46 22 0 0 0 0 160 88 38 87 0 0 0 0 0 0 0 0 0 0 0 0 0 0 0 0 0 0 0 0 0 0 0 
ComTab rank 37: 0 0 0 0 0 0 0 0 0 0 0 0 0 0 0 0 0 0 0 0 0 0 0 0 0 21 64 73 32 6 0 34 89 0 37 26 156 0 95 60 6 0 0 0 0 0 0 0 0 0 0 0 0 0 0 0 0 0 0 0 0 0 0 0 
ComTab rank 38: 0 0 0 0 0 0 0 0 0 0 0 0 0 0 0 0 0 0 0 0 0 0 0 0 0 0 0 0 0 0 0 0 36 0 101 2 102 105 0 144 69 81 0 103 0 29 15 0 0 0 0 0 0 0 0 0 0 0 0 0 0 0 0 0 
ComTab rank 39: 0 0 0 0 0 0 0 0 0 0 0 0 0 0 0 0 0 0 0 0 0 0 0 0 0 0 0 0 30 25 0 1 0 0 28 31 29 58 137 0 0 40 0 2 0 16 0 0 0 0 0 0 0 0 0 0 0 0 0 0 0 0 0 0 
ComTab rank 40: 0 0 0 0 0 0 0 0 0 0 0 0 0 0 0 0 0 0 0 0 0 0 0 0 0 0 0 0 0 0 0 0 35 4 0 0 89 6 73 0 0 60 60 25 0 0 43 0 0 0 0 0 0 0 0 0 0 0 0 0 0 0 0 0 
ComTab rank 41: 0 0 0 0 0 0 0 0 0 0 0 0 0 0 0 0 0 0 0 0 0 0 0 0 0 0 0 0 0 0 0 0 0 0 0 0 0 0 69 40 61 0 49 111 0 15 0 0 0 0 95 16 0 0 0 0 0 0 0 0 0 0 0 0 
ComTab rank 42: 0 0 0 0 0 0 0 0 0 0 0 0 0 0 0 0 0 0 0 0 0 0 0 0 0 0 0 0 0 0 0 0 0 0 0 0 0 0 0 0 62 49 0 102 0 42 104 0 28 48 25 0 0 0 0 0 0 0 0 0 0 23 0 0 
ComTab rank 43: 0 0 0 0 0 0 0 0 0 0 0 0 0 0 0 0 0 0 0 0 0 0 0 0 0 0 0 0 0 0 0 0 0 0 11 0 0 0 91 2 33 113 102 0 0 102 24 0 41 24 42 50 0 0 0 0 0 41 0 0 0 0 0 0 
ComTab rank 44: 0 0 0 0 0 0 0 0 0 0 0 0 0 0 0 0 0 0 0 0 0 0 0 0 0 0 0 0 0 0 0 0 23 68 36 4 0 0 0 0 0 0 0 0 0 94 29 80 0 0 0 0 0 0 0 0 46 46 3 0 0 0 0 0 
ComTab rank 45: 0 0 0 0 0 0 0 0 0 0 0 0 0 0 0 0 0 0 0 0 0 0 0 0 0 0 0 0 0 0 0 0 0 0 38 36 0 0 29 16 0 22 37 102 95 0 105 19 11 0 23 0 0 0 0 0 4 69 0 36 0 9 0 0 
ComTab rank 46: 0 0 0 0 0 0 0 0 0 0 0 0 0 0 0 0 0 0 0 0 0 0 0 0 0 0 0 0 0 0 0 0 49 79 32 0 0 0 15 0 43 0 104 24 29 95 0 119 6 0 0 0 0 0 0 0 0 13 0 0 0 53 0 0 
ComTab rank 47: 0 0 0 0 0 0 0 0 0 0 0 0 0 0 0 0 0 0 0 0 0 0 0 0 0 0 0 0 0 0 0 0 2 39 0 0 0 0 0 0 0 0 0 0 83 19 121 0 0 0 0 0 0 0 0 0 19 7 0 0 0 53 0 0 
ComTab rank 48: 0 0 0 0 0 0 0 0 0 0 0 0 0 0 0 0 0 0 0 0 0 0 0 0 0 0 0 0 0 0 0 0 0 0 0 0 0 0 0 0 0 0 29 43 0 11 6 0 0 123 7 81 14 90 66 18 62 58 0 0 34 61 1 6 
ComTab rank 49: 0 0 0 0 0 0 0 0 0 0 0 0 0 0 0 0 0 0 0 0 0 0 0 0 0 0 0 0 0 0 0 0 0 0 0 0 0 0 0 0 0 0 52 25 0 0 0 0 129 0 97 55 56 18 13 17 0 0 0 0 0 0 0 0 
ComTab rank 50: 0 0 0 0 0 0 0 0 0 0 0 0 0 0 0 0 0 0 0 0 0 0 0 0 0 0 0 0 0 0 0 0 0 0 0 0 0 0 0 0 0 95 28 39 0 23 0 0 7 107 0 108 0 0 0 0 0 18 0 27 0 0 0 0 
ComTab rank 51: 0 0 0 0 0 0 0 0 0 0 0 0 0 0 0 0 0 0 0 0 0 0 0 0 0 0 0 0 0 0 0 0 0 0 0 0 0 0 0 0 0 15 0 52 0 0 0 0 73 55 103 0 6 0 48 79 0 20 0 5 0 0 0 0 
ComTab rank 52: 0 0 0 0 0 0 0 0 0 0 0 0 0 0 0 0 0 0 0 0 0 0 0 0 0 0 0 0 0 0 0 0 0 0 0 0 0 0 0 0 0 0 0 0 0 0 0 0 14 56 0 6 0 91 13 110 0 12 0 0 0 0 0 0 
ComTab rank 53: 0 0 0 0 0 0 0 0 0 0 0 0 0 0 0 0 0 0 0 0 0 0 0 0 0 0 0 0 0 0 0 0 0 0 0 0 0 0 0 0 0 0 0 0 0 0 0 0 90 18 0 0 91 0 89 33 2 0 0 0 87 8 6 71 
ComTab rank 54: 0 0 0 0 0 0 0 0 0 0 0 0 0 0 0 0 0 0 0 0 0 0 0 0 0 0 0 0 0 0 0 0 0 0 0 0 0 0 0 0 0 0 0 0 0 0 0 0 67 14 0 55 13 88 0 129 19 0 0 2 0 0 90 41 
ComTab rank 55: 0 0 0 0 0 0 0 0 0 0 0 0 0 0 0 0 0 0 0 0 0 0 0 0 0 0 0 0 0 0 0 0 0 0 0 0 0 0 0 0 0 0 0 0 0 0 0 0 23 21 0 75 84 33 134 0 0 0 0 2 0 0 0 0 
ComTab rank 56: 0 0 0 0 0 0 0 0 0 0 0 0 0 0 0 0 0 0 0 0 0 0 0 0 0 0 0 0 0 0 0 0 0 0 0 3 0 0 0 0 0 0 0 0 45 4 0 19 61 0 0 0 0 2 19 0 0 106 20 0 0 81 65 45 
ComTab rank 57: 0 0 0 0 0 0 0 0 0 0 0 0 0 0 0 0 0 0 0 0 0 0 0 0 0 0 0 0 0 0 0 0 0 0 0 0 0 0 0 0 0 0 0 39 57 68 13 7 56 0 18 20 3 0 0 0 117 0 0 45 0 36 0 0 
ComTab rank 58: 0 0 0 0 0 0 0 0 0 0 0 0 0 0 0 0 0 0 0 0 0 0 0 0 0 0 0 0 0 0 0 0 0 0 0 24 0 0 0 0 0 0 0 0 3 0 0 0 0 0 0 0 0 0 0 0 20 0 0 75 0 0 18 0 
ComTab rank 59: 0 0 0 0 0 0 0 0 0 0 0 0 0 0 0 0 0 0 0 0 0 0 0 0 0 0 0 0 0 0 0 0 0 0 0 24 0 0 0 0 0 0 0 0 0 36 0 0 0 0 27 5 0 0 3 2 0 45 72 0 0 0 0 0 
ComTab rank 60: 0 0 0 0 0 0 0 0 0 0 0 0 0 0 0 0 0 0 0 0 0 0 0 0 0 0 0 0 0 0 0 0 0 0 0 0 0 0 0 0 0 0 0 0 0 0 0 0 38 0 0 0 0 89 0 0 0 0 0 0 0 107 0 125 
ComTab rank 61: 0 0 0 0 0 0 0 0 0 0 0 0 0 0 0 0 0 0 0 0 0 0 0 0 0 0 0 0 0 0 0 0 0 0 0 0 0 0 0 0 0 0 22 0 0 9 50 53 61 0 0 0 0 8 0 0 80 32 0 0 101 0 4 52 
ComTab rank 62: 0 0 0 0 0 0 0 0 0 0 0 0 0 0 0 0 0 0 0 0 0 0 0 0 0 0 0 0 0 0 0 0 0 0 0 0 0 0 0 0 0 0 0 0 0 0 0 0 1 0 0 0 0 6 90 0 65 0 17 0 0 5 0 145 
ComTab rank 63: 0 0 0 0 0 0 0 0 0 0 0 0 0 0 0 0 0 0 0 0 0 0 0 0 0 0 0 0 0 0 0 0 0 0 0 0 0 0 0 0 0 0 0 0 0 0 0 0 6 0 0 0 0 70 44 0 50 0 0 0 134 52 137 0 

Edge-cut: 13290

Wgt-cut: 2.5839e-07

[1579248487.319914] [n004:53438:0]          mpool.c:38   UCX  WARN  object 0x155544122f60 was not returned to mpool mm_recv_desc
[1579248487.359385] [n004:53431:0]          mpool.c:38   UCX  WARN  object 0x155544122f60 was not returned to mpool mm_recv_desc
[1579248487.384779] [n004:53451:0]          mpool.c:38   UCX  WARN  object 0x155544122f60 was not returned to mpool mm_recv_desc
[1579248487.401912] [n004:53442:0]          mpool.c:38   UCX  WARN  object 0x155539500f60 was not returned to mpool mm_recv_desc
[1579248487.408422] [n004:53467:0]          mpool.c:38   UCX  WARN  object 0x155544122f60 was not returned to mpool mm_recv_desc
[1579248487.408991] [n004:53432:0]          mpool.c:38   UCX  WARN  object 0x155544122f60 was not returned to mpool mm_recv_desc
