 Data for JOB [34629,1] offset 0 Total slots allocated 4

 ========================   JOB MAP   ========================

 Data for node: n004	Num slots: 4	Max slots: 0	Num procs: 4
 	Process OMPI jobid: [34629,1] App: 0 Process rank: 0 Bound: socket 1[core 49[hwt 0-1]]:[../../../../../../../../../../../../../../../../../../../../../../../../../../../../../../../..][../../../../../../../../../../../../../../../../../BB/../../../../../../../../../../../../../..]
 	Process OMPI jobid: [34629,1] App: 0 Process rank: 1 Bound: socket 0[core 3[hwt 0-1]]:[../../../BB/../../../../../../../../../../../../../../../../../../../../../../../../../../../..][../../../../../../../../../../../../../../../../../../../../../../../../../../../../../../../..]
 	Process OMPI jobid: [34629,1] App: 0 Process rank: 2 Bound: socket 1[core 50[hwt 0-1]]:[../../../../../../../../../../../../../../../../../../../../../../../../../../../../../../../..][../../../../../../../../../../../../../../../../../../BB/../../../../../../../../../../../../..]
 	Process OMPI jobid: [34629,1] App: 0 Process rank: 3 Bound: socket 0[core 4[hwt 0-1]]:[../../../../BB/../../../../../../../../../../../../../../../../../../../../../../../../../../..][../../../../../../../../../../../../../../../../../../../../../../../../../../../../../../../..]

 =============================================================
Two group cota
0 1 1
1 0 0
2 3 3
3 2 2
dune-size 1 8.58361e-06 8.57591e-06 8.67431e-06 8.66611e-06 
dune-size 2 9.00521e-06 8.99951e-06 9.08931e-06 9.08101e-06 
dune-size 4 7.33301e-06 7.32731e-06 7.34121e-06 7.33281e-06 
dune-size 8 6.77731e-06 6.77571e-06 6.84491e-06 6.84331e-06 
dune-size 16 7.48591e-06 7.47931e-06 7.44031e-06 7.43011e-06 
dune-size 32 8.66441e-06 8.66401e-06 8.71611e-06 8.71481e-06 
dune-size 64 1.14222e-05 1.14209e-05 1.14435e-05 1.1442e-05 
dune-size 128 1.68334e-05 1.68334e-05 1.61792e-05 1.61601e-05 
dune-size 256 1.88424e-05 1.88374e-05 1.88605e-05 1.88583e-05 
dune-size 512 3.24464e-05 3.24417e-05 3.25575e-05 3.2552e-05 
dune-size 1024 0.000106484 0.000106472 0.000105613 0.000105602 
dune-size 2048 0.000203616 0.000203574 0.000201723 0.000201716 
dune-size 4096 0.000384752 0.000384741 0.000389745 0.000389741 
dune-size 8192 0.000670547 0.000670517 0.000636357 0.000636331 
dune-size 16384 0.000936448 0.000936379 0.000989165 0.000989105 
dune-size 32768 0.00165918 0.0016591 0.00166787 0.00166788 
dune-size 65536 0.00332959 0.00332712 0.00333862 0.00333686 
dune-size 131072 0.0066111 0.00659686 0.00662132 0.00661248 
