 Data for JOB [56286,1] offset 0 Total slots allocated 8

 ========================   JOB MAP   ========================

 Data for node: n003	Num slots: 8	Max slots: 0	Num procs: 8
 	Process OMPI jobid: [56286,1] App: 0 Process rank: 0 Bound: socket 0[core 0[hwt 0-1]]:[BB/../../../../../../../../../../../../../../../../../../../../../../../../../../../../../../..][../../../../../../../../../../../../../../../../../../../../../../../../../../../../../../../..]
 	Process OMPI jobid: [56286,1] App: 0 Process rank: 1 Bound: socket 0[core 1[hwt 0-1]]:[../BB/../../../../../../../../../../../../../../../../../../../../../../../../../../../../../..][../../../../../../../../../../../../../../../../../../../../../../../../../../../../../../../..]
 	Process OMPI jobid: [56286,1] App: 0 Process rank: 2 Bound: socket 0[core 2[hwt 0-1]]:[../../BB/../../../../../../../../../../../../../../../../../../../../../../../../../../../../..][../../../../../../../../../../../../../../../../../../../../../../../../../../../../../../../..]
 	Process OMPI jobid: [56286,1] App: 0 Process rank: 3 Bound: socket 0[core 3[hwt 0-1]]:[../../../BB/../../../../../../../../../../../../../../../../../../../../../../../../../../../..][../../../../../../../../../../../../../../../../../../../../../../../../../../../../../../../..]
 	Process OMPI jobid: [56286,1] App: 0 Process rank: 4 Bound: socket 1[core 44[hwt 0-1]]:[../../../../../../../../../../../../../../../../../../../../../../../../../../../../../../../..][../../../../../../../../../../../../BB/../../../../../../../../../../../../../../../../../../..]
 	Process OMPI jobid: [56286,1] App: 0 Process rank: 5 Bound: socket 1[core 45[hwt 0-1]]:[../../../../../../../../../../../../../../../../../../../../../../../../../../../../../../../..][../../../../../../../../../../../../../BB/../../../../../../../../../../../../../../../../../..]
 	Process OMPI jobid: [56286,1] App: 0 Process rank: 6 Bound: socket 1[core 46[hwt 0-1]]:[../../../../../../../../../../../../../../../../../../../../../../../../../../../../../../../..][../../../../../../../../../../../../../../BB/../../../../../../../../../../../../../../../../..]
 	Process OMPI jobid: [56286,1] App: 0 Process rank: 7 Bound: socket 1[core 47[hwt 0-1]]:[../../../../../../../../../../../../../../../../../../../../../../../../../../../../../../../..][../../../../../../../../../../../../../../../BB/../../../../../../../../../../../../../../../..]

 =============================================================
7 4 6
7 5 5
7 6 4
Two group cota
0 1 3
0 2 2
0 3 1
1 2 0
1 3 3
1 0 2
2 3 1
2 0 0
2 1 3
3 0 2
3 1 1
3 2 0
4 5 7
4 6 6
4 7 5
5 6 4
5 7 7
5 4 6
6 7 5
6 4 4
6 5 7
dune-size 1 7.13169e-06 7.16759e-06 7.13399e-06 7.16519e-06 7.23399e-06 7.24739e-06 7.22869e-06 7.25389e-06 
dune-size 2 6.48779e-06 6.49919e-06 6.49689e-06 6.49289e-06 6.61869e-06 6.63019e-06 6.63129e-06 6.62489e-06 
dune-size 4 6.99298e-06 6.98138e-06 6.98058e-06 6.97318e-06 6.92358e-06 6.90758e-06 6.92028e-06 6.91148e-06 
dune-size 8 7.60608e-06 7.61288e-06 7.61308e-06 7.61188e-06 7.61048e-06 7.59648e-06 7.60658e-06 7.59968e-06 
dune-size 16 8.66318e-06 8.67878e-06 8.67278e-06 8.66438e-06 8.60778e-06 8.61388e-06 8.60458e-06 8.60798e-06 
dune-size 32 1.09612e-05 1.09579e-05 1.09753e-05 1.09804e-05 1.09678e-05 1.09645e-05 1.0978e-05 1.09756e-05 
dune-size 64 1.57764e-05 1.58014e-05 1.57911e-05 1.57827e-05 1.57762e-05 1.57722e-05 1.57804e-05 1.57694e-05 
dune-size 128 2.49966e-05 2.50037e-05 2.49958e-05 2.49893e-05 2.57943e-05 2.57856e-05 2.58013e-05 2.57874e-05 
dune-size 256 4.40792e-05 4.41465e-05 4.41338e-05 4.40923e-05 4.58178e-05 4.58333e-05 4.59384e-05 4.58893e-05 
dune-size 512 8.03732e-05 8.02473e-05 8.02439e-05 8.02907e-05 8.52831e-05 8.53009e-05 8.54602e-05 8.53577e-05 
dune-size 1024 0.000179998 0.000180186 0.000179814 0.00017982 0.000171654 0.00017182 0.000171443 0.000171437 
dune-size 2048 0.00033656 0.000336949 0.000336129 0.000336123 0.000324403 0.000324809 0.000324006 0.000323999 
dune-size 4096 0.000628575 0.000629362 0.000627906 0.000627908 0.000620026 0.000619222 0.000618832 0.00061883 
dune-size 8192 0.00121036 0.00121316 0.00121203 0.00121036 0.00119337 0.00119426 0.00119534 0.00119338 
dune-size 16384 0.00240761 0.00241049 0.0024052 0.00240863 0.00237238 0.0023734 0.00237209 0.00237336 
dune-size 32768 0.00484566 0.00484499 0.00484535 0.00484483 0.00478169 0.00478167 0.00478159 0.00478147 
dune-size 65536 0.00989249 0.00981258 0.00989074 0.0098896 0.0097426 0.0097402 0.00973861 0.00973902 
dune-size 131072 0.0197434 0.0197399 0.019741 0.0197393 0.0194162 0.0194139 0.0193896 0.01939 
