[1578471058.394478] [srl-login1:11216:0]         mxm.c:196  MXM  WARN  The 'ulimit -s' on the system is set to 'unlimited'. This may have negative performance implications. Please set the stack size to the default value (10240) 
[1578471058.394476] [srl-login1:11217:0]         mxm.c:196  MXM  WARN  The 'ulimit -s' on the system is set to 'unlimited'. This may have negative performance implications. Please set the stack size to the default value (10240) 
[1578471058.394628] [srl-login1:11215:0]         mxm.c:196  MXM  WARN  The 'ulimit -s' on the system is set to 'unlimited'. This may have negative performance implications. Please set the stack size to the default value (10240) 
[1578471058.394708] [srl-login1:11214:0]         mxm.c:196  MXM  WARN  The 'ulimit -s' on the system is set to 'unlimited'. This may have negative performance implications. Please set the stack size to the default value (10240) 
0: 1 
After loadbalancing process 3 has 11991 cells.
After loadbalancing process 2 has 14089 cells.
After loadbalancing process 1 has 13817 cells.
After loadbalancing process 0 has 15015 cells.

Rank 0 ghostCells: 2800
Rank 1 ghostCells: 3841
Rank 2 ghostCells: 2044
Rank 3 ghostCells: 1796

Rank 0 numCells: 15015
Rank 1 numCells: 13817
Rank 2 numCells: 14089
Rank 3 numCells: 11991

Rank 0 interiorCells: 12215
Rank 1 interiorCells: 9976
Rank 2 interiorCells: 12045
Rank 3 interiorCells: 10195

ComTab rank 0: 0 1786 565 753 
ComTab rank 1: 1933 0 1316 811 
ComTab rank 2: 489 1127 0 679 
ComTab rank 3: 568 657 705 0 

Edge-cut: 8822

Wgt-cut: 2.52833e-09

[1578471062.521956] [srl-login1:11216:0]          mpool.c:38   UCX  WARN  object 0x55555c431400 was not returned to mpool ucp_am_bufs
[1578471062.522118] [srl-login1:11215:0]          mpool.c:38   UCX  WARN  object 0x155544122f60 was not returned to mpool mm_recv_desc
[1578471062.522502] [srl-login1:11217:0]          mpool.c:38   UCX  WARN  object 0x55555c3b3cc0 was not returned to mpool ucp_am_bufs
[1578476416.516509] [srl-login1:27810:0]         mxm.c:196  MXM  WARN  The 'ulimit -s' on the system is set to 'unlimited'. This may have negative performance implications. Please set the stack size to the default value (10240) 
[1578476416.516508] [srl-login1:27811:0]         mxm.c:196  MXM  WARN  The 'ulimit -s' on the system is set to 'unlimited'. This may have negative performance implications. Please set the stack size to the default value (10240) 
[1578476416.520760] [srl-login1:27808:0]         mxm.c:196  MXM  WARN  The 'ulimit -s' on the system is set to 'unlimited'. This may have negative performance implications. Please set the stack size to the default value (10240) 
[1578476416.526498] [srl-login1:27809:0]         mxm.c:196  MXM  WARN  The 'ulimit -s' on the system is set to 'unlimited'. This may have negative performance implications. Please set the stack size to the default value (10240) 
0: 1 
After loadbalancing process 2 has 14089 cells.
After loadbalancing process 3 has 11991 cells.
After loadbalancing process 1 has 13817 cells.
After loadbalancing process 0 has 15015 cells.

Rank 0 ghostCells: 2800
Rank 1 ghostCells: 3841
Rank 2 ghostCells: 2044
Rank 3 ghostCells: 1796

Rank 0 numCells: 15015
Rank 1 numCells: 13817
Rank 2 numCells: 14089
Rank 3 numCells: 11991

Rank 0 interiorCells: 12215
Rank 1 interiorCells: 9976
Rank 2 interiorCells: 12045
Rank 3 interiorCells: 10195

ComTab rank 0: 0 1786 565 753 
ComTab rank 1: 1933 0 1316 811 
ComTab rank 2: 489 1127 0 679 
ComTab rank 3: 568 657 705 0 

Edge-cut: 8822

Wgt-cut: 2.52833e-09

[1578476420.701253] [srl-login1:27810:0]          mpool.c:38   UCX  WARN  object 0x1555393fbe60 was not returned to mpool mm_recv_desc
[1578476420.701718] [srl-login1:27811:0]          mpool.c:38   UCX  WARN  object 0x155544120ee0 was not returned to mpool mm_recv_desc
[1578476420.701849] [srl-login1:27809:0]          mpool.c:38   UCX  WARN  object 0x155539317f60 was not returned to mpool mm_recv_desc
