 Data for JOB [9153,1] offset 0 Total slots allocated 4

 ========================   JOB MAP   ========================

 Data for node: n003	Num slots: 4	Max slots: 0	Num procs: 4
 	Process OMPI jobid: [9153,1] App: 0 Process rank: 0 Bound: socket 0[core 9[hwt 0-1]]:[../../../../../../../../../BB/../../../../../../../../../../../../../../../../../../../../../..][../../../../../../../../../../../../../../../../../../../../../../../../../../../../../../../..]
 	Process OMPI jobid: [9153,1] App: 0 Process rank: 1 Bound: socket 0[core 11[hwt 0-1]]:[../../../../../../../../../../../BB/../../../../../../../../../../../../../../../../../../../..][../../../../../../../../../../../../../../../../../../../../../../../../../../../../../../../..]
 	Process OMPI jobid: [9153,1] App: 0 Process rank: 2 Bound: socket 0[core 12[hwt 0-1]]:[../../../../../../../../../../../../BB/../../../../../../../../../../../../../../../../../../..][../../../../../../../../../../../../../../../../../../../../../../../../../../../../../../../..]
 	Process OMPI jobid: [9153,1] App: 0 Process rank: 3 Bound: socket 0[core 10[hwt 0-1]]:[../../../../../../../../../../BB/../../../../../../../../../../../../../../../../../../../../..][../../../../../../../../../../../../../../../../../../../../../../../../../../../../../../../..]

 =============================================================
2 3 3
3 2 2
Two group cota
1 0 0
0 1 1
dune-size 1 2.74169e-06 2.74419e-06 3.53599e-06 3.53599e-06 
dune-size 2 2.59769e-06 2.60299e-06 3.39859e-06 3.40269e-06 
dune-size 4 2.74859e-06 2.75409e-06 3.52849e-06 3.53209e-06 
dune-size 8 6.42438e-06 6.42838e-06 7.30608e-06 7.30558e-06 
dune-size 16 3.30939e-06 3.31229e-06 4.17269e-06 4.17269e-06 
dune-size 32 4.0675e-06 4.071e-06 4.92599e-06 4.92829e-06 
dune-size 64 5.55909e-06 5.56189e-06 6.55069e-06 6.55269e-06 
dune-size 128 8.69048e-06 8.69708e-06 9.67008e-06 9.67538e-06 
dune-size 256 1.48021e-05 1.48064e-05 1.62063e-05 1.62092e-05 
dune-size 512 2.7009e-05 2.70118e-05 2.91542e-05 2.91528e-05 
dune-size 1024 5.83508e-05 5.83544e-05 7.41277e-05 7.41294e-05 
dune-size 2048 0.000106924 0.000106927 0.000134764 0.000134771 
dune-size 4096 0.000215669 0.000215505 0.000269945 0.000269978 
dune-size 8192 0.000407332 0.000407338 0.000471922 0.00047193 
dune-size 16384 0.000795028 0.000795038 0.000859716 0.00085971 
dune-size 32768 0.00157704 0.00157704 0.00162849 0.00163085 
dune-size 65536 0.00319071 0.00319018 0.00320755 0.00320886 
dune-size 131072 0.00657426 0.00657436 0.00657672 0.00658237 
