 Data for JOB [57686,1] offset 0 Total slots allocated 4

 ========================   JOB MAP   ========================

 Data for node: srl-adm2	Num slots: 4	Max slots: 0	Num procs: 4
 	Process OMPI jobid: [57686,1] App: 0 Process rank: 0 Bound: socket 0[core 0[hwt 0-1]]:[BB/../../../../../../../../../../../../../../..][../../../../../../../../../../../../../../../..]
 	Process OMPI jobid: [57686,1] App: 0 Process rank: 1 Bound: socket 0[core 1[hwt 0-1]]:[../BB/../../../../../../../../../../../../../..][../../../../../../../../../../../../../../../..]
 	Process OMPI jobid: [57686,1] App: 0 Process rank: 2 Bound: socket 1[core 16[hwt 0-1]]:[../../../../../../../../../../../../../../../..][BB/../../../../../../../../../../../../../../..]
 	Process OMPI jobid: [57686,1] App: 0 Process rank: 3 Bound: socket 1[core 17[hwt 0-1]]:[../../../../../../../../../../../../../../../..][../BB/../../../../../../../../../../../../../..]

 =============================================================
[1578650126.413133] [srl-adm2:42801:0]         mxm.c:196  MXM  WARN  The 'ulimit -s' on the system is set to 'unlimited'. This may have negative performance implications. Please set the stack size to the default value (10240) 
[1578650126.413447] [srl-adm2:42800:0]         mxm.c:196  MXM  WARN  The 'ulimit -s' on the system is set to 'unlimited'. This may have negative performance implications. Please set the stack size to the default value (10240) 
[1578650126.413595] [srl-adm2:42799:0]         mxm.c:196  MXM  WARN  The 'ulimit -s' on the system is set to 'unlimited'. This may have negative performance implications. Please set the stack size to the default value (10240) 
[1578650126.414121] [srl-adm2:42798:0]         mxm.c:196  MXM  WARN  The 'ulimit -s' on the system is set to 'unlimited'. This may have negative performance implications. Please set the stack size to the default value (10240) 
0: 1 

Rank 0 ghostCells: 21015
Rank 1 ghostCells: 12650
Rank 2 ghostCells: 7285
Rank 3 ghostCells: 15733

Rank 0 numCells: 108160
Rank 1 numCells: 109869
Rank 2 numCells: 99270
Rank 3 numCells: 94791

Rank 0 interiorCells: 87145
Rank 1 interiorCells: 97219
Rank 2 interiorCells: 91985
Rank 3 interiorCells: 79058

MeasComm+1 4: 0.000862417 0.000663003 0.000564577 0.000679548 
MeasComm+1 4: 0.000863442 0.000668765 0.000567472 0.00072231 
MeasComm+1 4: 0.000862038 0.000661484 0.00056417 0.000736516 
MeasComm+1 4: 0.000866943 0.000667159 0.000566089 0.000738346 
MeasComm+1 4: 0.000872633 0.000673013 0.00057276 0.000730855 
MeasComm+1 4: 0.000903221 0.000703316 0.000593636 0.000710335 
MeasComm+1 4: 0.000900879 0.000698225 0.000590915 0.000711904 
MeasComm+1 4: 0.000902503 0.000699508 0.000595001 0.000719484 
MeasComm+1 4: 0.000860225 0.000661637 0.000562002 0.000694887 
MeasComm+1 4: 0.000860017 0.000664541 0.000564884 0.000723526 

ComTab rank 0: 0 9642 3459 8842 
ComTab rank 1: 9952 0 502 6390 
ComTab rank 2: 3025 660 0 3745 
ComTab rank 3: 9461 6413 4046 0 

Edge-cut: 43990

Wgt-cut: 4.17767e-09

[1578650169.421066] [srl-adm2:42799:0]          mpool.c:38   UCX  WARN  object 0x155544120ee0 was not returned to mpool mm_recv_desc
[1578650169.421178] [srl-adm2:42800:0]          mpool.c:38   UCX  WARN  object 0x55555b655580 was not returned to mpool ucp_am_bufs
[1578650169.421295] [srl-adm2:42801:0]          mpool.c:38   UCX  WARN  object 0x155544122f60 was not returned to mpool mm_recv_desc
