 Data for JOB [30868,1] offset 0 Total slots allocated 4

 ========================   JOB MAP   ========================

 Data for node: n004	Num slots: 4	Max slots: 0	Num procs: 4
 	Process OMPI jobid: [30868,1] App: 0 Process rank: 0 Bound: socket 0[core 17[hwt 0-1]]:[../../../../../../../../../../../../../../../../../BB/../../../../../../../../../../../../../..][../../../../../../../../../../../../../../../../../../../../../../../../../../../../../../../..]
 	Process OMPI jobid: [30868,1] App: 0 Process rank: 1 Bound: socket 0[core 11[hwt 0-1]]:[../../../../../../../../../../../BB/../../../../../../../../../../../../../../../../../../../..][../../../../../../../../../../../../../../../../../../../../../../../../../../../../../../../..]
 	Process OMPI jobid: [30868,1] App: 0 Process rank: 2 Bound: socket 0[core 18[hwt 0-1]]:[../../../../../../../../../../../../../../../../../../BB/../../../../../../../../../../../../..][../../../../../../../../../../../../../../../../../../../../../../../../../../../../../../../..]
 	Process OMPI jobid: [30868,1] App: 0 Process rank: 3 Bound: socket 0[core 12[hwt 0-1]]:[../../../../../../../../../../../../BB/../../../../../../../../../../../../../../../../../../..][../../../../../../../../../../../../../../../../../../../../../../../../../../../../../../../..]

 =============================================================
2 3 3
Two group cota
0 1 1
1 0 0
3 2 2
dune-size 1 7.99371e-06 7.99011e-06 5.91711e-06 5.91481e-06 
dune-size 2 7.47291e-06 7.46671e-06 5.54061e-06 5.53981e-06 
dune-size 4 7.77581e-06 7.76981e-06 5.73921e-06 5.73861e-06 
dune-size 8 8.33651e-06 8.32711e-06 6.2381e-06 6.2304e-06 
dune-size 16 9.24281e-06 9.23291e-06 6.75191e-06 6.74831e-06 
dune-size 32 1.14459e-05 1.14391e-05 8.78421e-06 8.78761e-06 
dune-size 64 7.29911e-06 7.40801e-06 7.32531e-06 7.43431e-06 
dune-size 128 1.04228e-05 1.04167e-05 1.06242e-05 1.06217e-05 
dune-size 256 1.72286e-05 1.72235e-05 1.73365e-05 1.73306e-05 
dune-size 512 3.03478e-05 3.03511e-05 3.04393e-05 3.04404e-05 
dune-size 1024 8.41261e-05 8.41159e-05 8.44233e-05 8.44285e-05 
dune-size 2048 0.000161456 0.000161463 0.000161742 0.000161731 
dune-size 4096 0.00031409 0.000314105 0.000303811 0.000303812 
dune-size 8192 0.000532949 0.000532956 0.00053951 0.000539515 
dune-size 16384 0.00097105 0.000971044 0.000961156 0.000961181 
dune-size 32768 0.00166438 0.00166451 0.00169498 0.00169574 
dune-size 65536 0.00324381 0.00324391 0.00326482 0.00326592 
dune-size 131072 0.00639987 0.00639891 0.00649027 0.00649393 
