 Data for JOB [21275,1] offset 0 Total slots allocated 8

 ========================   JOB MAP   ========================

 Data for node: n004	Num slots: 8	Max slots: 0	Num procs: 8
 	Process OMPI jobid: [21275,1] App: 0 Process rank: 0 Bound: socket 0[core 8[hwt 0-1]]:[../../../../../../../../BB/../../../../../../../../../../../../../../../../../../../../../../..][../../../../../../../../../../../../../../../../../../../../../../../../../../../../../../../..]
 	Process OMPI jobid: [21275,1] App: 0 Process rank: 1 Bound: socket 1[core 45[hwt 0-1]]:[../../../../../../../../../../../../../../../../../../../../../../../../../../../../../../../..][../../../../../../../../../../../../../BB/../../../../../../../../../../../../../../../../../..]
 	Process OMPI jobid: [21275,1] App: 0 Process rank: 2 Bound: socket 0[core 10[hwt 0-1]]:[../../../../../../../../../../BB/../../../../../../../../../../../../../../../../../../../../..][../../../../../../../../../../../../../../../../../../../../../../../../../../../../../../../..]
 	Process OMPI jobid: [21275,1] App: 0 Process rank: 3 Bound: socket 1[core 47[hwt 0-1]]:[../../../../../../../../../../../../../../../../../../../../../../../../../../../../../../../..][../../../../../../../../../../../../../../../BB/../../../../../../../../../../../../../../../..]
 	Process OMPI jobid: [21275,1] App: 0 Process rank: 4 Bound: socket 1[core 44[hwt 0-1]]:[../../../../../../../../../../../../../../../../../../../../../../../../../../../../../../../..][../../../../../../../../../../../../BB/../../../../../../../../../../../../../../../../../../..]
 	Process OMPI jobid: [21275,1] App: 0 Process rank: 5 Bound: socket 0[core 9[hwt 0-1]]:[../../../../../../../../../BB/../../../../../../../../../../../../../../../../../../../../../..][../../../../../../../../../../../../../../../../../../../../../../../../../../../../../../../..]
 	Process OMPI jobid: [21275,1] App: 0 Process rank: 6 Bound: socket 1[core 46[hwt 0-1]]:[../../../../../../../../../../../../../../../../../../../../../../../../../../../../../../../..][../../../../../../../../../../../../../../BB/../../../../../../../../../../../../../../../../..]
 	Process OMPI jobid: [21275,1] App: 0 Process rank: 7 Bound: socket 0[core 11[hwt 0-1]]:[../../../../../../../../../../../BB/../../../../../../../../../../../../../../../../../../../..][../../../../../../../../../../../../../../../../../../../../../../../../../../../../../../../..]

 =============================================================
3 0 2
3 1 1
3 2 0
7 4 6
7 5 5
7 6 4
Two group cota
0 1 3
0 2 2
1 2 0
1 3 3
1 0 2
2 3 1
2 0 0
2 1 3
4 5 7
4 6 6
4 7 5
5 6 4
5 7 7
5 4 6
6 7 5
6 4 4
6 5 7
0 3 1
dune-size 1 2.7852e-05 2.8864e-05 2.58799e-05 2.8806e-05 2.86111e-05 2.9542e-05 2.66588e-05 2.95582e-05 
dune-size 2 1.837e-05 1.83793e-05 1.83371e-05 1.83323e-05 2.11785e-05 2.11653e-05 2.12253e-05 2.12098e-05 
dune-size 4 1.84067e-05 1.84168e-05 1.83728e-05 1.83765e-05 1.98674e-05 1.98584e-05 1.98082e-05 1.98343e-05 
dune-size 8 1.99142e-05 1.98865e-05 1.99116e-05 1.98845e-05 2.06775e-05 2.06673e-05 2.06108e-05 2.06289e-05 
dune-size 16 2.22195e-05 2.22848e-05 2.22608e-05 2.22288e-05 2.26211e-05 2.26052e-05 2.25306e-05 2.25698e-05 
dune-size 32 1.87604e-05 1.87633e-05 1.87928e-05 1.87663e-05 1.9066e-05 1.90653e-05 1.91302e-05 1.91019e-05 
dune-size 64 2.43111e-05 2.434e-05 2.43189e-05 2.43452e-05 2.49215e-05 2.48762e-05 2.4898e-05 2.49419e-05 
dune-size 128 3.39077e-05 3.38784e-05 3.38574e-05 3.38602e-05 3.39322e-05 3.38796e-05 3.39445e-05 3.39218e-05 
dune-size 256 5.44822e-05 5.45799e-05 5.44921e-05 5.45628e-05 5.46295e-05 5.45564e-05 5.46107e-05 5.45664e-05 
dune-size 512 9.62238e-05 9.64058e-05 9.62747e-05 9.63926e-05 9.64975e-05 9.62829e-05 9.64394e-05 9.63236e-05 
dune-size 1024 0.000274119 0.000274176 0.000274445 0.000274649 0.00028167 0.000281468 0.000281149 0.000281179 
dune-size 2048 0.000506882 0.000507798 0.000507382 0.000506921 0.000474769 0.000474779 0.000475663 0.000475329 
dune-size 4096 0.000769444 0.000769448 0.000771056 0.0007704 0.000849432 0.000851156 0.000850322 0.000849299 
dune-size 8192 0.00133703 0.00133958 0.00133701 0.00133799 0.00131365 0.00131341 0.00131543 0.00131705 
dune-size 16384 0.00256216 0.00256264 0.00255853 0.00255836 0.00249071 0.00248694 0.00248709 0.00249346 
dune-size 32768 0.00494634 0.00495295 0.00494604 0.0049497 0.00492395 0.00492402 0.00493318 0.00492743 
dune-size 65536 0.00981273 0.00981134 0.00980663 0.00980551 0.00982156 0.00979909 0.00981795 0.00979862 
dune-size 131072 0.0199959 0.0198569 0.0198275 0.0198562 0.019834 0.0200195 0.0198346 0.0200638 
