 Data for JOB [63622,1] offset 0 Total slots allocated 16

 ========================   JOB MAP   ========================

 Data for node: n004	Num slots: 16	Max slots: 0	Num procs: 16
 	Process OMPI jobid: [63622,1] App: 0 Process rank: 0 Bound: socket 0[core 0[hwt 0-1]]:[BB/../../../../../../../../../../../../../../../../../../../../../../../../../../../../../../..][../../../../../../../../../../../../../../../../../../../../../../../../../../../../../../../..]
 	Process OMPI jobid: [63622,1] App: 0 Process rank: 1 Bound: socket 0[core 1[hwt 0-1]]:[../BB/../../../../../../../../../../../../../../../../../../../../../../../../../../../../../..][../../../../../../../../../../../../../../../../../../../../../../../../../../../../../../../..]
 	Process OMPI jobid: [63622,1] App: 0 Process rank: 2 Bound: socket 0[core 2[hwt 0-1]]:[../../BB/../../../../../../../../../../../../../../../../../../../../../../../../../../../../..][../../../../../../../../../../../../../../../../../../../../../../../../../../../../../../../..]
 	Process OMPI jobid: [63622,1] App: 0 Process rank: 3 Bound: socket 0[core 3[hwt 0-1]]:[../../../BB/../../../../../../../../../../../../../../../../../../../../../../../../../../../..][../../../../../../../../../../../../../../../../../../../../../../../../../../../../../../../..]
 	Process OMPI jobid: [63622,1] App: 0 Process rank: 4 Bound: socket 0[core 8[hwt 0-1]]:[../../../../../../../../BB/../../../../../../../../../../../../../../../../../../../../../../..][../../../../../../../../../../../../../../../../../../../../../../../../../../../../../../../..]
 	Process OMPI jobid: [63622,1] App: 0 Process rank: 5 Bound: socket 0[core 9[hwt 0-1]]:[../../../../../../../../../BB/../../../../../../../../../../../../../../../../../../../../../..][../../../../../../../../../../../../../../../../../../../../../../../../../../../../../../../..]
 	Process OMPI jobid: [63622,1] App: 0 Process rank: 6 Bound: socket 0[core 10[hwt 0-1]]:[../../../../../../../../../../BB/../../../../../../../../../../../../../../../../../../../../..][../../../../../../../../../../../../../../../../../../../../../../../../../../../../../../../..]
 	Process OMPI jobid: [63622,1] App: 0 Process rank: 7 Bound: socket 0[core 11[hwt 0-1]]:[../../../../../../../../../../../BB/../../../../../../../../../../../../../../../../../../../..][../../../../../../../../../../../../../../../../../../../../../../../../../../../../../../../..]
 	Process OMPI jobid: [63622,1] App: 0 Process rank: 8 Bound: socket 0[core 16[hwt 0-1]]:[../../../../../../../../../../../../../../../../BB/../../../../../../../../../../../../../../..][../../../../../../../../../../../../../../../../../../../../../../../../../../../../../../../..]
 	Process OMPI jobid: [63622,1] App: 0 Process rank: 9 Bound: socket 0[core 17[hwt 0-1]]:[../../../../../../../../../../../../../../../../../BB/../../../../../../../../../../../../../..][../../../../../../../../../../../../../../../../../../../../../../../../../../../../../../../..]
 	Process OMPI jobid: [63622,1] App: 0 Process rank: 10 Bound: socket 0[core 18[hwt 0-1]]:[../../../../../../../../../../../../../../../../../../BB/../../../../../../../../../../../../..][../../../../../../../../../../../../../../../../../../../../../../../../../../../../../../../..]
 	Process OMPI jobid: [63622,1] App: 0 Process rank: 11 Bound: socket 0[core 19[hwt 0-1]]:[../../../../../../../../../../../../../../../../../../../BB/../../../../../../../../../../../..][../../../../../../../../../../../../../../../../../../../../../../../../../../../../../../../..]
 	Process OMPI jobid: [63622,1] App: 0 Process rank: 12 Bound: socket 0[core 24[hwt 0-1]]:[../../../../../../../../../../../../../../../../../../../../../../../../BB/../../../../../../..][../../../../../../../../../../../../../../../../../../../../../../../../../../../../../../../..]
 	Process OMPI jobid: [63622,1] App: 0 Process rank: 13 Bound: socket 0[core 25[hwt 0-1]]:[../../../../../../../../../../../../../../../../../../../../../../../../../BB/../../../../../..][../../../../../../../../../../../../../../../../../../../../../../../../../../../../../../../..]
 	Process OMPI jobid: [63622,1] App: 0 Process rank: 14 Bound: socket 0[core 26[hwt 0-1]]:[../../../../../../../../../../../../../../../../../../../../../../../../../../BB/../../../../..][../../../../../../../../../../../../../../../../../../../../../../../../../../../../../../../..]
 	Process OMPI jobid: [63622,1] App: 0 Process rank: 15 Bound: socket 0[core 27[hwt 0-1]]:[../../../../../../../../../../../../../../../../../../../../../../../../../../../BB/../../../..][../../../../../../../../../../../../../../../../../../../../../../../../../../../../../../../..]

 =============================================================
[1579605320.892074] [n004:129440:0]         mxm.c:196  MXM  WARN  The 'ulimit -s' on the system is set to 'unlimited'. This may have negative performance implications. Please set the stack size to the default value (10240) 
[1579605320.892075] [n004:129441:0]         mxm.c:196  MXM  WARN  The 'ulimit -s' on the system is set to 'unlimited'. This may have negative performance implications. Please set the stack size to the default value (10240) 
[1579605320.892072] [n004:129442:0]         mxm.c:196  MXM  WARN  The 'ulimit -s' on the system is set to 'unlimited'. This may have negative performance implications. Please set the stack size to the default value (10240) 
[1579605320.892340] [n004:129430:0]         mxm.c:196  MXM  WARN  The 'ulimit -s' on the system is set to 'unlimited'. This may have negative performance implications. Please set the stack size to the default value (10240) 
[1579605320.892410] [n004:129434:0]         mxm.c:196  MXM  WARN  The 'ulimit -s' on the system is set to 'unlimited'. This may have negative performance implications. Please set the stack size to the default value (10240) 
[1579605320.892406] [n004:129435:0]         mxm.c:196  MXM  WARN  The 'ulimit -s' on the system is set to 'unlimited'. This may have negative performance implications. Please set the stack size to the default value (10240) 
[1579605320.893770] [n004:129431:0]         mxm.c:196  MXM  WARN  The 'ulimit -s' on the system is set to 'unlimited'. This may have negative performance implications. Please set the stack size to the default value (10240) 
[1579605320.894525] [n004:129438:0]         mxm.c:196  MXM  WARN  The 'ulimit -s' on the system is set to 'unlimited'. This may have negative performance implications. Please set the stack size to the default value (10240) 
[1579605320.894539] [n004:129439:0]         mxm.c:196  MXM  WARN  The 'ulimit -s' on the system is set to 'unlimited'. This may have negative performance implications. Please set the stack size to the default value (10240) 
[1579605320.894582] [n004:129433:0]         mxm.c:196  MXM  WARN  The 'ulimit -s' on the system is set to 'unlimited'. This may have negative performance implications. Please set the stack size to the default value (10240) 
[1579605320.894575] [n004:129437:0]         mxm.c:196  MXM  WARN  The 'ulimit -s' on the system is set to 'unlimited'. This may have negative performance implications. Please set the stack size to the default value (10240) 
[1579605320.894654] [n004:129429:0]         mxm.c:196  MXM  WARN  The 'ulimit -s' on the system is set to 'unlimited'. This may have negative performance implications. Please set the stack size to the default value (10240) 
[1579605320.894730] [n004:129432:0]         mxm.c:196  MXM  WARN  The 'ulimit -s' on the system is set to 'unlimited'. This may have negative performance implications. Please set the stack size to the default value (10240) 
[1579605320.894842] [n004:129428:0]         mxm.c:196  MXM  WARN  The 'ulimit -s' on the system is set to 'unlimited'. This may have negative performance implications. Please set the stack size to the default value (10240) 
[1579605320.896109] [n004:129436:0]         mxm.c:196  MXM  WARN  The 'ulimit -s' on the system is set to 'unlimited'. This may have negative performance implications. Please set the stack size to the default value (10240) 
[1579605320.896454] [n004:129443:0]         mxm.c:196  MXM  WARN  The 'ulimit -s' on the system is set to 'unlimited'. This may have negative performance implications. Please set the stack size to the default value (10240) 
0: 1 

Rank 0 ghostCells: 8705
Rank 1 ghostCells: 15689
Rank 2 ghostCells: 4267
Rank 3 ghostCells: 3270
Rank 4 ghostCells: 6318
Rank 5 ghostCells: 4864
Rank 6 ghostCells: 7911
Rank 7 ghostCells: 5910
Rank 8 ghostCells: 4507
Rank 9 ghostCells: 5650
Rank 10 ghostCells: 3890
Rank 11 ghostCells: 5423
Rank 12 ghostCells: 8592
Rank 13 ghostCells: 2361
Rank 14 ghostCells: 6050
Rank 15 ghostCells: 3451

Rank 0 numCells: 32448
Rank 1 numCells: 37781
Rank 2 numCells: 28090
Rank 3 numCells: 18351
Rank 4 numCells: 28566
Rank 5 numCells: 29298
Rank 6 numCells: 32345
Rank 7 numCells: 29925
Rank 8 numCells: 27063
Rank 9 numCells: 29345
Rank 10 numCells: 28324
Rank 11 numCells: 19159
Rank 12 numCells: 31552
Rank 13 numCells: 26213
Rank 14 numCells: 30201
Rank 15 numCells: 23604

Rank 0 interiorCells: 23743
Rank 1 interiorCells: 22092
Rank 2 interiorCells: 23823
Rank 3 interiorCells: 15081
Rank 4 interiorCells: 22248
Rank 5 interiorCells: 24434
Rank 6 interiorCells: 24434
Rank 7 interiorCells: 24015
Rank 8 interiorCells: 22556
Rank 9 interiorCells: 23695
Rank 10 interiorCells: 24434
Rank 11 interiorCells: 13736
Rank 12 interiorCells: 22960
Rank 13 interiorCells: 23852
Rank 14 interiorCells: 24151
Rank 15 interiorCells: 20153

MeasComm+1 16: 0.000725771 0.000929722 0.000535931 0.000490421 0.000656151 0.000594941 0.000691871 0.000559611 0.00038779 0.000523591 0.000490901 0.000505721 0.000751312 0.000466481 0.000676681 0.000510251 
MeasComm+1 16: 0.000733042 0.000904982 0.000548182 0.000498741 0.000638652 0.000605291 0.000687022 0.000569181 0.000389021 0.000514111 0.000480321 0.000486031 0.000802782 0.000459571 0.000672672 0.000515461 
MeasComm+1 16: 0.000755712 0.000929302 0.000435061 0.000484541 0.000643731 0.000589631 0.000500681 0.000556821 0.000394771 0.000534291 0.000289711 0.000501691 0.000842741 0.000464661 0.000439461 0.000500701 
MeasComm+1 16: 0.000722142 0.000925792 0.000562791 0.000524261 0.000666261 0.000617261 0.000688242 0.000566912 0.000396581 0.000519001 0.000488021 0.000497051 0.000749031 0.000472381 0.000674032 0.000510131 
MeasComm+1 16: 0.000701672 0.000910262 0.000549621 0.000511411 0.000653272 0.000610761 0.000726661 0.000576391 0.000390431 0.000506961 0.000486401 0.000491861 0.000776781 0.000461001 0.000687042 0.000516591 
MeasComm+1 16: 0.000744931 0.000924072 0.000544631 0.000503901 0.000663081 0.000604371 0.000711701 0.000569261 0.000390881 0.000532471 0.000491531 0.000499921 0.000776972 0.000475591 0.000617981 0.000509191 
MeasComm+1 16: 0.000741461 0.000921702 0.000543011 0.000503461 0.000657561 0.000602101 0.000706251 0.000566051 0.000392191 0.000511331 0.000485721 0.000494371 0.000755381 0.000469061 0.000691341 0.000507681 
MeasComm+1 16: 0.000746211 0.000925731 0.000548881 0.000517381 0.000662541 0.000612131 0.000712521 0.000565121 0.000393291 0.000512641 0.000490811 0.000498041 0.000767931 0.000471421 0.000698391 0.000509971 
MeasComm+1 16: 0.000735772 0.000910852 0.000548651 0.000504871 0.000653542 0.000619031 0.000701582 0.000563961 0.000389881 0.000505211 0.000484491 0.000489301 0.000782662 0.000462021 0.000687082 0.000510061 
MeasComm+1 16: 0.000736831 0.000911032 0.000545711 0.000494831 0.000654401 0.000615681 0.000702591 0.000555191 0.000393261 0.000503441 0.000477141 0.000489071 0.000749442 0.000465761 0.000688391 0.000514041 

MeasCopy 16: 0.000408441 0.000736082 0.00020008 0.000153401 0.000296261 0.000228071 0.000371061 0.000277251 0.000211401 0.00026496 0.00018253 0.000254371 0.000403071 0.00011067 0.000283781 0.00016182 
MeasCopy 16: 0.000408401 0.000736422 0.00020011 0.00015336 0.000296421 0.0002281 0.000371071 0.00027707 0.000211321 0.000265 0.00018246 0.000254361 0.000403121 0.00011068 0.000283701 0.0001619 
MeasCopy 16: 0.0004085 0.000736512 0.00020015 0.00015326 0.00029639 0.00022813 0.00037116 0.00027712 0.00021134 0.00026501 0.000182561 0.000254361 0.000403021 0.00011073 0.000283711 0.00016183 
MeasCopy 16: 0.000408351 0.000736242 0.00020002 0.00015333 0.00029654 0.00022807 0.000371031 0.00027717 0.00021144 0.000265001 0.00018249 0.00025435 0.000402961 0.00011071 0.000283761 0.00016187 
MeasCopy 16: 0.000408441 0.000736522 0.00020004 0.00015331 0.000296321 0.00022813 0.00037103 0.00027718 0.00021138 0.000265001 0.000182581 0.00025437 0.000403051 0.0001107 0.000283831 0.00016182 
MeasCopy 16: 0.000408551 0.000736262 0.00020004 0.00015329 0.00029619 0.00022815 0.000371101 0.000277181 0.00021132 0.00026491 0.000182501 0.00025432 0.00040314 0.0001107 0.000283671 0.00016188 
MeasCopy 16: 0.000408461 0.000736382 0.00020011 0.000153331 0.00029637 0.00022812 0.000371061 0.0002772 0.00021139 0.00026493 0.00018238 0.000254411 0.000403041 0.000110701 0.000283671 0.00016183 
MeasCopy 16: 0.000408461 0.000736391 0.00020004 0.00015335 0.00029638 0.0002281 0.000371061 0.000277151 0.00021123 0.00026481 0.000182521 0.00025443 0.000403041 0.00011074 0.00028378 0.00016185 
MeasCopy 16: 0.000408461 0.000736371 0.000200091 0.000153221 0.000296461 0.000228141 0.000371041 0.000277091 0.00021137 0.00026498 0.00018246 0.000254211 0.000403101 0.00011069 0.0002837 0.00016186 
MeasCopy 16: 0.000408501 0.000736331 0.00020005 0.00015336 0.000296391 0.00022806 0.000371051 0.000277221 0.0002114 0.000264931 0.00018238 0.00025437 0.000402911 0.00011063 0.000283721 0.00016179 

ComTab rank 0: 0 4790 411 31 832 1455 395 69 0 239 496 343 218 371 1677 308 
ComTab rank 1: 4814 0 599 409 2029 1604 1887 1205 15 211 426 296 4222 51 898 666 
ComTab rank 2: 370 680 0 918 0 0 0 0 25 277 1 271 228 1402 66 522 
ComTab rank 3: 22 401 934 0 102 19 885 270 8 257 8 304 0 36 37 174 
ComTab rank 4: 623 1842 0 66 0 2156 1678 1636 80 263 10 0 688 0 0 108 
ComTab rank 5: 1154 1402 0 20 1804 0 1907 593 62 81 0 0 67 0 0 0 
ComTab rank 6: 410 1841 0 451 2032 2134 0 3274 148 484 0 0 158 0 0 0 
ComTab rank 7: 44 1106 0 228 1694 789 3236 0 0 395 0 0 70 0 93 441 
ComTab rank 8: 0 15 17 7 82 62 168 0 0 1730 1396 515 1228 0 38 0 
ComTab rank 9: 239 200 196 159 262 83 511 407 1704 0 62 667 1696 0 606 89 
ComTab rank 10: 553 448 1 4 10 0 0 0 1334 58 0 1532 1370 0 155 0 
ComTab rank 11: 338 294 291 279 0 0 0 0 496 626 1643 0 1128 0 1531 194 
ComTab rank 12: 162 3724 194 0 465 75 134 64 1190 1633 1282 1039 0 279 873 36 
ComTab rank 13: 351 39 1181 18 0 0 0 0 0 0 0 0 268 0 619 409 
ComTab rank 14: 1279 870 61 15 0 0 0 31 38 607 114 1284 887 631 0 1514 
ComTab rank 15: 145 609 504 176 197 0 0 161 0 123 0 194 34 473 1744 0 

Edge-cut: 71681

Wgt-cut: 1.23248e-08

[1579605396.732660] [n004:129436:0]          mpool.c:38   UCX  WARN  object 0x155544112b60 was not returned to mpool mm_recv_desc
[1579605396.757975] [n004:129432:0]          mpool.c:38   UCX  WARN  object 0x55556212b580 was not returned to mpool ucp_am_bufs
[1579605396.759199] [n004:129429:0]          mpool.c:38   UCX  WARN  object 0x55555b5b67c0 was not returned to mpool ucp_am_bufs
[1579605396.763705] [n004:129430:0]          mpool.c:38   UCX  WARN  object 0x55555928b500 was not returned to mpool ucp_am_bufs
