 Data for JOB [318,1] offset 0 Total slots allocated 2

 ========================   JOB MAP   ========================

 Data for node: n001	Num slots: 2	Max slots: 0	Num procs: 2
 	Process OMPI jobid: [318,1] App: 0 Process rank: 0 Bound: socket 1[core 41[hwt 0-1]]:[../../../../../../../../../../../../../../../../../../../../../../../../../../../../../../../..][../../../../../../../../../BB/../../../../../../../../../../../../../../../../../../../../../..]
 	Process OMPI jobid: [318,1] App: 0 Process rank: 1 Bound: socket 1[core 42[hwt 0-1]]:[../../../../../../../../../../../../../../../../../../../../../../../../../../../../../../../..][../../../../../../../../../../BB/../../../../../../../../../../../../../../../../../../../../..]

 =============================================================
dune-size 1 2.67669e-06 2.67689e-06 
dune-size 2 2.4775e-06 2.4781e-06 
dune-size 4 2.63489e-06 2.63479e-06 
dune-size 8 2.82929e-06 2.83009e-06 
dune-size 16 3.23909e-06 3.23899e-06 
dune-size 32 3.97869e-06 3.97869e-06 
dune-size 64 5.56429e-06 5.56389e-06 
dune-size 128 8.68498e-06 8.68568e-06 
dune-size 256 1.49554e-05 1.49546e-05 
dune-size 512 2.71666e-05 2.71676e-05 
dune-size 1024 6.01514e-05 6.01503e-05 
dune-size 2048 0.000106739 0.00010674 
dune-size 4096 0.000211315 0.000211315 
dune-size 8192 0.000411101 0.000411098 
dune-size 16384 0.000794491 0.000794491 
dune-size 32768 0.00155923 0.00155925 
dune-size 65536 0.00309554 0.0030957 
dune-size 131072 0.00634252 0.00634252 
dune-size 262144 0.0127093 0.0127115 
dune-size 524288 0.0254138 0.0254125 
dune-size 1048576 0.0510199 0.0510242 
